%!PS-Adobe-3.0
%%Creator: cairo 1.12.2 (http://cairographics.org)
%%CreationDate: Mon Aug  6 13:42:42 2012
%%Pages: 1
%%DocumentData: Clean7Bit
%%LanguageLevel: 2
%%DocumentMedia: 64x20mm 182 56 0 () ()
%%BoundingBox: 0 -1 183 56
%%EndComments
%%BeginProlog
/languagelevel where
{ pop languagelevel } { 1 } ifelse
2 lt { /Helvetica findfont 12 scalefont setfont 50 500 moveto
  (This print job requires a PostScript Language Level 2 printer.) show
  showpage quit } if
/q { gsave } bind def
/Q { grestore } bind def
/cm { 6 array astore concat } bind def
/w { setlinewidth } bind def
/J { setlinecap } bind def
/j { setlinejoin } bind def
/M { setmiterlimit } bind def
/d { setdash } bind def
/m { moveto } bind def
/l { lineto } bind def
/c { curveto } bind def
/h { closepath } bind def
/re { exch dup neg 3 1 roll 5 3 roll moveto 0 rlineto
      0 exch rlineto 0 rlineto closepath } bind def
/S { stroke } bind def
/f { fill } bind def
/f* { eofill } bind def
/n { newpath } bind def
/W { clip } bind def
/W* { eoclip } bind def
/BT { } bind def
/ET { } bind def
/pdfmark where { pop globaldict /?pdfmark /exec load put }
    { globaldict begin /?pdfmark /pop load def /pdfmark
    /cleartomark load def end } ifelse
/BDC { mark 3 1 roll /BDC pdfmark } bind def
/EMC { mark /EMC pdfmark } bind def
/cairo_store_point { /cairo_point_y exch def /cairo_point_x exch def } def
/Tj { show currentpoint cairo_store_point } bind def
/TJ {
  {
    dup
    type /stringtype eq
    { show } { -0.001 mul 0 cairo_font_matrix dtransform rmoveto } ifelse
  } forall
  currentpoint cairo_store_point
} bind def
/cairo_selectfont { cairo_font_matrix aload pop pop pop 0 0 6 array astore
    cairo_font exch selectfont cairo_point_x cairo_point_y moveto } bind def
/Tf { pop /cairo_font exch def /cairo_font_matrix where
      { pop cairo_selectfont } if } bind def
/Td { matrix translate cairo_font_matrix matrix concatmatrix dup
      /cairo_font_matrix exch def dup 4 get exch 5 get cairo_store_point
      /cairo_font where { pop cairo_selectfont } if } bind def
/Tm { 2 copy 8 2 roll 6 array astore /cairo_font_matrix exch def
      cairo_store_point /cairo_font where { pop cairo_selectfont } if } bind def
/g { setgray } bind def
/rg { setrgbcolor } bind def
/d1 { setcachedevice } bind def
%%EndProlog
%%Page: 1 1
%%BeginPageSetup
%%PageMedia: 64x20mm
%%PageBoundingBox: 0 -1 183 56
%%EndPageSetup
q 0 -1 183 57 rectclip q
0.027451 g
164.859 25.548 m 164.84 25.541 l 164.801 25.502 l 164.77 25.49 l 164.738
 25.47 l 164.711 25.451 l 164.668 25.431 l 164.641 25.412 l 164.598 25.388
 l 164.559 25.38 l 164.48 25.341 l 164.438 25.322 l 164.398 25.298 l 164.348
 25.291 l 164.301 25.271 l 164.258 25.252 l 164.211 25.24 l 164.109 25.209
 l 164.008 25.181 l 163.949 25.169 l 163.898 25.15 l 163.848 25.138 l 163.801
 25.138 l 163.75 25.13 l 163.688 25.119 l 163.641 25.119 l 163.59 25.111
 l 163.48 25.111 l 162.699 25.111 162.008 25.709 162.008 26.599 c 165.211
 26.599 l 165.211 28.041 164.719 29.138 163.23 29.138 c 161.969 29.138 161.129
 28.189 161.129 26.861 c 161.129 25.412 161.859 24.439 163.449 24.439 c 
164.188 24.439 164.551 24.619 164.859 24.732 c h
f
0 g
129.719 25.548 m 129.699 25.541 l 129.68 25.521 l 129.648 25.502 l 129.621
 25.49 l 129.559 25.451 l 129.531 25.431 l 129.488 25.412 l 129.461 25.388
 l 129.418 25.38 l 129.34 25.341 l 129.289 25.322 l 129.25 25.298 l 129.199
 25.291 l 129.16 25.271 l 129.109 25.252 l 129.059 25.24 l 128.961 25.209
 l 128.859 25.181 l 128.75 25.15 l 128.699 25.138 l 128.648 25.138 l 128.598
 25.13 l 128.539 25.119 l 128.488 25.119 l 128.441 25.111 l 128.34 25.111
 l 127.559 25.111 126.859 25.709 126.859 26.599 c 130.059 26.599 l 130.059
 28.041 129.578 29.138 128.078 29.138 c 126.82 29.138 125.98 28.189 125.98
 26.861 c 125.98 25.412 126.711 24.439 128.301 24.439 c 129.039 24.439 129.398
 24.619 129.719 24.732 c h
f
139 25.548 m 138.98 25.541 l 138.949 25.521 l 138.93 25.502 l 138.898 25.49
 l 138.871 25.47 l 138.84 25.451 l 138.801 25.431 l 138.77 25.412 l 138.73
 25.388 l 138.688 25.38 l 138.57 25.322 l 138.52 25.298 l 138.48 25.291 
l 138.379 25.252 l 138.328 25.24 l 138.238 25.209 l 138.129 25.181 l 138.031
 25.15 l 137.98 25.138 l 137.93 25.138 l 137.871 25.13 l 137.82 25.119 l
 137.77 25.119 l 137.719 25.111 l 137.609 25.111 l 136.828 25.111 136.141
 25.709 136.141 26.599 c 139.34 26.599 l 139.34 28.041 138.848 29.138 137.359
 29.138 c 136.09 29.138 135.258 28.189 135.258 26.861 c 135.258 25.412 135.988
 24.439 137.578 24.439 c 138.32 24.439 138.68 24.619 139 24.732 c h
f
98.219 37.869 m 98.25 37.9 l 98.289 37.919 l 98.32 37.951 l 98.359 37.97
 l 98.391 37.99 l 98.43 38.021 l 98.5 38.06 l 98.578 38.099 l 98.66 38.138
 l 98.738 38.169 l 98.828 38.201 l 98.91 38.232 l 99 38.259 l 99.078 38.279
 l 99.168 38.298 l 99.258 38.31 l 99.352 38.322 l 99.441 38.33 l 99.52 38.33
 l 100.352 38.33 100.629 37.931 100.629 37.162 c 100.301 37.169 100.07 37.169
 99.75 37.169 c 98.898 37.169 97.668 36.822 97.668 35.689 c 97.668 34.72
 98.352 34.298 99.309 34.298 c 100.07 34.298 100.5 34.709 100.699 34.982
 c 100.719 34.982 l 100.719 34.4 l 101.488 34.4 l 101.469 34.529 101.449
 34.771 101.449 35.279 c 101.449 37.138 l 101.449 38.361 100.93 39.002 99.648
 39.002 c 99.078 39.002 98.59 38.822 98.18 38.572 c h
f
55.711 0.072 m 56.539 0.072 l 57.41 0.072 58.148 0.361 58.148 1.271 c 58.148
 1.822 57.789 2.169 57.258 2.259 c 57.258 2.271 l 57.781 2.38 58.031 2.689
 58.031 3.228 c 58.031 4.029 57.391 4.259 56.699 4.259 c 55.711 4.259 l 
h
f
120.93 35.412 m 120.91 35.388 l 120.891 35.38 l 120.871 35.361 l 120.809
 35.322 l 120.781 35.31 l 120.738 35.291 l 120.711 35.271 l 120.668 35.252
 l 120.629 35.232 l 120.59 35.209 l 120.551 35.201 l 120.508 35.181 l 120.461
 35.162 l 120.418 35.138 l 120.371 35.119 l 120.32 35.111 l 120.281 35.091
 l 120.18 35.06 l 120.07 35.029 l 120.02 35.021 l 119.969 35.009 l 119.918
 35.002 l 119.859 34.99 l 119.809 34.982 l 119.758 34.982 l 119.711 34.97
 l 119.648 34.97 l 119.598 34.959 l 119.551 34.959 l 118.77 34.959 118.078
 35.572 118.078 36.451 c 121.281 36.451 l 121.281 37.9 120.789 39.002 119.301
 39.002 c 118.031 39.002 117.199 38.048 117.199 36.709 c 117.199 35.259 
117.93 34.298 119.52 34.298 c 120.258 34.298 120.609 34.47 120.93 34.591
 c h
f
133.309 36.638 m 133.309 36.521 l 133.32 36.412 l 133.328 36.291 l 133.348
 36.169 l 133.379 36.06 l 133.398 35.951 l 133.438 35.841 l 133.48 35.74
 l 133.52 35.63 l 133.57 35.529 l 133.621 35.431 l 133.668 35.341 l 133.738
 35.24 l 133.801 35.162 l 133.871 35.072 l 133.938 34.99 l 134.02 34.912
 l 134.098 34.841 l 134.188 34.771 l 134.281 34.701 l 134.371 34.638 l 134.461
 34.58 l 134.559 34.529 l 134.668 34.482 l 134.77 34.439 l 134.879 34.4 
l 134.988 34.369 l 135.109 34.341 l 135.219 34.322 l 135.348 34.31 l 135.469
 34.298 l 135.59 34.298 l 136.938 34.298 137.871 35.361 137.871 36.638 c
 137.871 38.009 136.949 39.002 135.59 39.002 c 134.219 39.002 133.309 38.009
 133.309 36.638 c h
f
152.898 37.869 m 152.93 37.9 l 152.961 37.919 l 153 37.951 l 153.031 37.97
 l 153.07 37.99 l 153.098 38.021 l 153.141 38.041 l 153.18 38.06 l 153.25
 38.099 l 153.328 38.138 l 153.41 38.169 l 153.5 38.201 l 153.578 38.232
 l 153.668 38.259 l 153.758 38.279 l 153.84 38.298 l 154.02 38.322 l 154.109
 38.33 l 154.199 38.33 l 155.02 38.33 155.301 37.931 155.301 37.162 c 154.98
 37.169 154.75 37.169 154.418 37.169 c 153.57 37.169 152.34 36.822 152.34
 35.689 c 152.34 34.72 153.02 34.298 153.98 34.298 c 154.738 34.298 155.18
 34.709 155.371 34.982 c 155.391 34.982 l 155.391 34.4 l 156.16 34.4 l 156.148
 34.529 156.129 34.771 156.129 35.279 c 156.129 37.138 l 156.129 38.361 
155.609 39.002 154.328 39.002 c 153.758 39.002 153.27 38.822 152.848 38.572
 c h
f
164.379 35.412 m 164.359 35.388 l 164.34 35.38 l 164.309 35.361 l 164.289
 35.341 l 164.258 35.322 l 164.23 35.31 l 164.188 35.291 l 164.16 35.271
 l 164.121 35.252 l 164.078 35.232 l 164.039 35.209 l 164 35.201 l 163.949
 35.181 l 163.91 35.162 l 163.859 35.138 l 163.82 35.119 l 163.77 35.111
 l 163.719 35.091 l 163.621 35.06 l 163.52 35.029 l 163.418 35.009 l 163.359
 35.002 l 163.309 34.99 l 163.258 34.982 l 163.211 34.982 l 163.148 34.97
 l 163.098 34.97 l 163.051 34.959 l 163 34.959 l 162.219 34.959 161.52 35.572
 161.52 36.451 c 164.719 36.451 l 164.719 37.9 164.238 39.002 162.75 39.002
 c 161.48 39.002 160.641 38.048 160.641 36.709 c 160.641 35.259 161.379 
34.298 162.969 34.298 c 163.699 34.298 164.07 34.47 164.379 34.591 c h
f
168.527 37.869 m 168.559 37.9 l 168.59 37.919 l 168.629 37.951 l 168.66
 37.97 l 168.699 37.99 l 168.73 38.021 l 168.809 38.06 l 168.879 38.099 
l 168.961 38.138 l 169.039 38.169 l 169.129 38.201 l 169.211 38.232 l 169.301
 38.259 l 169.379 38.279 l 169.469 38.298 l 169.648 38.322 l 169.738 38.33
 l 169.82 38.33 l 170.648 38.33 170.93 37.931 170.93 37.162 c 170.598 37.169
 170.379 37.169 170.051 37.169 c 169.199 37.169 167.969 36.822 167.969 35.689
 c 167.969 34.72 168.648 34.298 169.609 34.298 c 170.371 34.298 170.809 
34.709 171 34.982 c 171.02 34.982 l 171.02 34.4 l 171.789 34.4 l 171.77 
34.529 171.758 34.771 171.758 35.279 c 171.758 37.138 l 171.758 38.361 171.23
 39.002 169.961 39.002 c 169.391 39.002 168.891 38.822 168.48 38.572 c h
f
181.699 34.4 m 182.488 34.4 l 182.488 40.99 l 181.66 40.99 l 181.66 38.271
 l 181.641 38.271 l 181.391 38.689 180.938 39.002 180.16 39.002 c 178.859
 39.002 178.219 37.931 178.219 36.72 c 178.219 35.502 178.789 34.298 180.148
 34.298 c 180.949 34.298 181.461 34.701 181.68 35.029 c 181.699 35.029 l
 h
f
81.391 24.548 m 82.281 24.548 l 82.281 27.271 l 82.801 27.271 l 83.27 27.271
 83.559 27.271 83.84 26.669 c 84.781 24.548 l 85.781 24.548 l 84.621 26.982
 l 84.43 27.361 84.289 27.502 84.02 27.599 c 84.02 27.619 l 84.73 27.74 
85.289 28.271 85.289 29.021 c 85.289 30.482 84.121 30.681 82.898 30.681 
c 81.391 30.681 l h
f
90.18 25.548 m 90.16 25.541 l 90.141 25.521 l 90.109 25.502 l 90.078 25.49
 l 90.059 25.47 l 90.02 25.451 l 89.988 25.431 l 89.961 25.412 l 89.918 
25.388 l 89.879 25.38 l 89.801 25.341 l 89.75 25.322 l 89.711 25.298 l 89.66
 25.291 l 89.621 25.271 l 89.57 25.252 l 89.52 25.24 l 89.418 25.209 l 89.32
 25.181 l 89.219 25.15 l 89.16 25.138 l 89.109 25.138 l 89.059 25.13 l 89.008
 25.119 l 88.961 25.119 l 88.898 25.111 l 88.801 25.111 l 88.02 25.111 87.32
 25.709 87.32 26.599 c 90.52 26.599 l 90.52 28.041 90.039 29.138 88.539 
29.138 c 87.281 29.138 86.441 28.189 86.441 26.861 c 86.441 25.412 87.168
 24.439 88.758 24.439 c 89.5 24.439 89.859 24.619 90.18 24.732 c h
f
95.59 29.029 m 94.828 29.029 l 94.828 28.361 l 94.809 28.361 l 94.559 28.849
 94.129 29.138 93.328 29.138 c 91.98 29.138 91.32 27.912 91.32 26.752 c 
91.32 25.591 91.961 24.548 93.25 24.548 c 93.82 24.548 94.398 24.779 94.75
 25.24 c 94.77 25.24 l 94.77 24.798 l 94.77 23.849 94.25 23.259 93.379 23.259
 c 92.77 23.259 92.391 23.369 91.758 23.662 c 91.668 22.9 l 92.391 22.65
 92.801 22.591 93.281 22.591 c 94.891 22.591 95.59 23.369 95.59 24.74 c 
h
f
99.141 26.791 m 99.141 26.669 l 99.148 26.548 l 99.16 26.431 l 99.18 26.322
 l 99.199 26.209 l 99.23 26.091 l 99.27 25.99 l 99.301 25.88 l 99.352 25.779
 l 99.391 25.669 l 99.449 25.58 l 99.5 25.482 l 99.559 25.388 l 99.699 25.209
 l 99.77 25.13 l 99.852 25.048 l 99.93 24.982 l 100.109 24.841 l 100.199
 24.779 l 100.289 24.732 l 100.391 24.669 l 100.5 24.63 l 100.602 24.58 
l 100.711 24.548 l 100.82 24.521 l 100.941 24.49 l 101.051 24.47 l 101.168
 24.451 l 101.301 24.439 l 101.418 24.439 l 102.77 24.439 103.699 25.502
 103.699 26.791 c 103.699 28.15 102.781 29.138 101.418 29.138 c 100.051 
29.138 99.141 28.15 99.141 26.791 c h
f
110.43 28.009 m 110.461 28.041 l 110.488 28.072 l 110.52 28.091 l 110.559
 28.119 l 110.59 28.138 l 110.629 28.162 l 110.668 28.181 l 110.699 28.201
 l 110.781 28.24 l 110.859 28.279 l 110.941 28.322 l 111.02 28.349 l 111.109
 28.369 l 111.199 28.4 l 111.281 28.419 l 111.371 28.439 l 111.461 28.451
 l 111.551 28.459 l 111.641 28.47 l 111.719 28.47 l 112.551 28.47 112.828
 28.072 112.828 27.298 c 112.5 27.322 112.281 27.322 111.949 27.322 c 111.098
 27.322 109.871 26.959 109.871 25.841 c 109.871 24.861 110.551 24.439 111.52
 24.439 c 112.27 24.439 112.711 24.849 112.898 25.119 c 112.918 25.119 l
 112.918 24.548 l 113.691 24.548 l 113.68 24.681 113.66 24.919 113.66 25.431
 c 113.66 27.279 l 113.66 28.509 113.141 29.138 111.859 29.138 c 111.289
 29.138 110.789 28.959 110.379 28.72 c h
f
119.961 24.548 m 121.77 24.548 l 123.789 24.548 125.039 25.611 125.039 
27.662 c 125.039 29.548 123.59 30.681 121.77 30.681 c 119.961 30.681 l h
f
142.578 26.791 m 142.578 26.669 l 142.59 26.548 l 142.609 26.431 l 142.621
 26.322 l 142.648 26.209 l 142.68 26.091 l 142.711 25.99 l 142.75 25.88 
l 142.789 25.779 l 142.84 25.669 l 142.891 25.58 l 142.949 25.482 l 143.008
 25.388 l 143.078 25.298 l 143.141 25.209 l 143.301 25.048 l 143.379 24.982
 l 143.461 24.912 l 143.551 24.841 l 143.641 24.779 l 143.738 24.732 l 143.84
 24.669 l 143.938 24.63 l 144.051 24.58 l 144.16 24.548 l 144.27 24.521 
l 144.379 24.49 l 144.621 24.451 l 144.75 24.439 l 144.871 24.439 l 146.219
 24.439 147.148 25.502 147.148 26.791 c 147.148 28.15 146.23 29.138 144.871
 29.138 c 143.5 29.138 142.578 28.15 142.578 26.791 c h
f
148.25 22.701 m 149.07 22.701 l 149.07 25.162 l 149.09 25.162 l 149.34 
24.752 149.789 24.439 150.59 24.439 c 151.938 24.439 152.52 25.638 152.52
 26.869 c 152.52 28.072 151.879 29.138 150.578 29.138 c 149.789 29.138 149.281
 28.732 149.059 28.4 c 149.039 28.4 l 149.039 29.029 l 148.25 29.029 l h
f
71.18 0.548 m 71.16 0.541 l 71.148 0.529 l 71.129 0.521 l 71.109 0.509 
l 71.078 0.502 l 71.039 0.478 l 71.008 0.47 l 70.988 0.459 l 70.961 0.451
 l 70.93 0.439 l 70.898 0.431 l 70.848 0.412 l 70.789 0.4 l 70.73 0.38 l
 70.668 0.369 l 70.609 0.349 l 70.551 0.341 l 70.488 0.341 l 70.461 0.33
 l 70.32 0.33 l 69.66 0.33 69.32 0.841 69.32 1.502 c 71.41 1.502 l 71.41
 1.689 l 71.41 2.509 71.059 3.201 70.191 3.201 c 69.418 3.201 68.898 2.541
 68.898 1.599 c 68.898 0.681 69.281 0.002 70.301 0.002 c 70.57 0.002 70.918
 0.06 71.18 0.169 c h
f
48.578 1.599 m 48.59 1.521 l 48.59 1.451 l 48.602 1.369 l 48.609 1.291 
l 48.621 1.22 l 48.629 1.138 l 48.648 1.072 l 48.668 1.002 l 48.691 0.931
 l 48.719 0.861 l 48.738 0.791 l 48.781 0.728 l 48.809 0.669 l 48.852 0.599
 l 48.879 0.548 l 48.93 0.49 l 48.969 0.431 l 49.07 0.33 l 49.121 0.291 
l 49.18 0.24 l 49.238 0.201 l 49.301 0.169 l 49.371 0.13 l 49.441 0.099 
l 49.508 0.08 l 49.59 0.048 l 49.668 0.041 l 49.75 0.021 l 49.828 0.009 
l 49.918 0.002 l 50.008 0.002 l 51 0.002 51.441 0.771 51.441 1.599 c 51.441
 2.439 51 3.201 50.008 3.201 c 49.02 3.201 48.578 2.439 48.578 1.599 c h
f
92.59 32.548 m 93.418 32.548 l 93.418 35.009 l 93.441 35.009 l 93.699 34.599
 94.141 34.298 94.941 34.298 c 96.289 34.298 96.859 35.49 96.859 36.72 c
 96.859 37.931 96.23 39.002 94.93 39.002 c 94.141 39.002 93.629 38.591 93.41
 38.259 c 93.391 38.259 l 93.391 38.888 l 92.59 38.888 l h
f
91.16 35.412 m 91.141 35.388 l 91.109 35.38 l 91.09 35.361 l 91.059 35.341
 l 91.031 35.322 l 91 35.31 l 90.969 35.291 l 90.891 35.252 l 90.859 35.232
 l 90.809 35.209 l 90.77 35.201 l 90.691 35.162 l 90.641 35.138 l 90.59 
35.119 l 90.539 35.111 l 90.5 35.091 l 90.398 35.06 l 90.289 35.029 l 90.191
 35.009 l 90.141 35.002 l 90.09 34.99 l 90.031 34.982 l 89.98 34.982 l 89.93
 34.97 l 89.879 34.97 l 89.828 34.959 l 89.77 34.959 l 88.988 34.959 88.301
 35.572 88.301 36.451 c 91.5 36.451 l 91.5 37.9 91.008 39.002 89.52 39.002
 c 88.25 39.002 87.418 38.048 87.418 36.709 c 87.418 35.259 88.148 34.298
 89.738 34.298 c 90.48 34.298 90.84 34.47 91.16 34.591 c h
f
81.391 34.4 m 83.211 34.4 l 85.23 34.4 86.48 35.47 86.48 37.521 c 86.48
 39.412 85.031 40.529 83.211 40.529 c 81.391 40.529 l h
f
1 g
82.281 39.759 m 83.301 39.759 l 84.57 39.759 85.551 38.919 85.551 37.49
 c 85.551 35.912 84.711 35.181 83.199 35.181 c 82.281 35.181 l h
f
88.301 37.072 m 88.301 37.119 l 88.309 37.181 l 88.32 37.232 l 88.328 37.291
 l 88.352 37.341 l 88.359 37.4 l 88.379 37.459 l 88.418 37.56 l 88.441 37.619
 l 88.469 37.669 l 88.488 37.72 l 88.551 37.822 l 88.578 37.869 l 88.621
 37.919 l 88.66 37.959 l 88.699 38.002 l 88.738 38.041 l 88.781 38.08 l 
88.828 38.119 l 88.93 38.181 l 88.98 38.209 l 89.039 38.24 l 89.09 38.259
 l 89.16 38.279 l 89.219 38.298 l 89.289 38.31 l 89.352 38.322 l 89.43 38.33
 l 89.5 38.33 l 90.211 38.33 90.621 37.759 90.621 37.072 c h
f
95.98 36.662 m 95.988 36.599 l 95.98 36.529 l 95.98 36.459 l 95.969 36.388
 l 95.961 36.322 l 95.949 36.252 l 95.941 36.169 l 95.918 36.099 l 95.859
 35.888 l 95.828 35.822 l 95.801 35.752 l 95.738 35.611 l 95.699 35.548 
l 95.621 35.431 l 95.578 35.369 l 95.531 35.322 l 95.48 35.259 l 95.43 35.22
 l 95.371 35.169 l 95.309 35.13 l 95.25 35.091 l 95.191 35.06 l 95.121 35.029
 l 94.98 34.99 l 94.898 34.982 l 94.859 34.97 l 94.82 34.97 l 94.781 34.959
 l 94.738 34.959 l 93.809 34.959 93.418 35.888 93.418 36.638 c 93.418 37.47
 93.859 38.33 94.75 38.33 c 95.648 38.33 96 37.47 95.98 36.662 c h
f
100.629 36.138 m 100.629 36.08 l 100.621 36.021 l 100.621 35.959 l 100.609
 35.9 l 100.602 35.841 l 100.578 35.791 l 100.57 35.732 l 100.531 35.63 
l 100.5 35.572 l 100.48 35.521 l 100.449 35.482 l 100.418 35.431 l 100.391
 35.388 l 100.352 35.341 l 100.27 35.259 l 100.23 35.232 l 100.18 35.189
 l 100.141 35.162 l 100.09 35.13 l 100.031 35.099 l 99.98 35.08 l 99.918
 35.048 l 99.859 35.029 l 99.801 35.021 l 99.738 35.002 l 99.668 34.99 l
 99.602 34.982 l 99.531 34.97 l 99.461 34.97 l 99.379 34.959 l 99 34.959
 98.551 35.22 98.551 35.689 c 98.551 36.49 99.648 36.56 100.102 36.56 c 
100.281 36.56 100.449 36.541 100.629 36.541 c h
f
0 g
102.852 38.888 m 103.621 38.888 l 103.621 38.189 l 103.641 38.189 l 103.859
 38.662 104.328 39.002 104.809 39.002 c 105.059 39.002 105.18 38.97 105.352
 38.931 c 105.352 38.189 l 105.199 38.259 105.039 38.271 104.891 38.271 
c 104.16 38.271 103.68 37.572 103.68 36.439 c 103.68 34.4 l 102.852 34.4
 l h
f
108.648 38.22 m 107.469 38.22 l 107.469 35.771 l 107.469 35.252 107.781
 34.959 108.16 34.959 c 108.41 34.959 108.598 35.041 108.719 35.119 c 108.719
 34.419 l 108.539 34.369 108.289 34.298 108.02 34.298 c 107.168 34.298 106.641
 34.701 106.641 35.599 c 106.641 38.22 l 105.629 38.22 l 105.629 38.888 
l 106.641 38.888 l 106.641 39.919 l 107.469 40.189 l 107.469 38.888 l 108.648
 38.888 l h
f
109.68 38.888 m 110.461 38.888 l 110.461 38.24 l 110.469 38.24 l 110.789
 38.759 111.23 39.002 111.891 39.002 c 112.41 39.002 112.93 38.732 113.168
 38.119 c 113.469 38.771 114.148 39.002 114.551 39.002 c 115.691 39.002 
116.109 38.259 116.109 37.279 c 116.109 34.4 l 115.281 34.4 l 115.281 37.08
 l 115.281 37.63 115.148 38.33 114.48 38.33 c 113.641 38.33 113.309 37.502
 113.309 36.662 c 113.309 34.4 l 112.48 34.4 l 112.48 37.08 l 112.48 37.63
 112.348 38.33 111.68 38.33 c 110.84 38.33 110.508 37.502 110.508 36.662
 c 110.508 34.4 l 109.68 34.4 l h
f
1 g
118.078 37.072 m 118.078 37.119 l 118.09 37.181 l 118.098 37.232 l 118.109
 37.291 l 118.129 37.341 l 118.141 37.4 l 118.16 37.459 l 118.199 37.56 
l 118.219 37.619 l 118.25 37.669 l 118.27 37.72 l 118.301 37.771 l 118.328
 37.822 l 118.371 37.869 l 118.398 37.919 l 118.441 37.959 l 118.48 38.002
 l 118.559 38.08 l 118.609 38.119 l 118.711 38.181 l 118.758 38.209 l 118.82
 38.24 l 118.879 38.259 l 118.941 38.279 l 119 38.298 l 119.141 38.322 l
 119.211 38.33 l 119.281 38.33 l 119.988 38.33 120.398 37.759 120.398 37.072
 c h
f
0 g
122.379 38.888 m 123.18 38.888 l 123.18 38.181 l 123.199 38.181 l 123.441
 38.689 124.039 39.002 124.66 39.002 c 125.828 39.002 126.348 38.271 126.348
 37.072 c 126.348 34.4 l 125.52 34.4 l 125.52 36.732 l 125.52 37.771 125.289
 38.279 124.57 38.33 c 123.629 38.33 123.199 37.572 123.199 36.482 c 123.199
 34.4 l 122.379 34.4 l h
f
130.129 38.22 m 128.949 38.22 l 128.949 35.771 l 128.949 35.252 129.258
 34.959 129.641 34.959 c 129.891 34.959 130.078 35.041 130.199 35.119 c 
130.199 34.419 l 130.02 34.369 129.758 34.298 129.5 34.298 c 128.641 34.298
 128.109 34.701 128.109 35.599 c 128.109 38.22 l 127.109 38.22 l 127.109
 38.888 l 128.109 38.888 l 128.109 39.919 l 128.949 40.189 l 128.949 38.888
 l 130.129 38.888 l h
f
1 g
134.188 36.638 m 134.188 36.798 l 134.199 36.88 l 134.211 36.959 l 134.23
 37.041 l 134.238 37.119 l 134.258 37.189 l 134.281 37.271 l 134.309 37.341
 l 134.371 37.482 l 134.398 37.548 l 134.43 37.619 l 134.469 37.681 l 134.508
 37.752 l 134.559 37.81 l 134.598 37.861 l 134.648 37.919 l 134.711 37.97
 l 134.758 38.021 l 134.82 38.072 l 134.871 38.111 l 134.938 38.15 l 135
 38.189 l 135.07 38.22 l 135.129 38.252 l 135.211 38.271 l 135.281 38.291
 l 135.348 38.31 l 135.43 38.322 l 135.508 38.33 l 135.59 38.33 l 136.469
 38.33 136.988 37.502 136.988 36.638 c 136.988 35.841 136.559 34.959 135.59
 34.959 c 134.621 34.959 134.188 35.841 134.188 36.638 c h
f
0 g
139.5 38.22 m 138.449 38.22 l 138.449 38.888 l 139.5 38.888 l 139.5 39.298
 l 139.5 40.388 139.789 41.099 141.008 41.099 c 141.219 41.099 141.391 41.072
 141.559 41.041 c 141.531 40.369 l 141.43 40.412 141.27 40.431 141.129 40.431
 c 140.418 40.431 140.328 39.97 140.328 39.369 c 140.328 38.888 l 141.52
 38.888 l 141.52 38.22 l 140.328 38.22 l 140.328 34.4 l 139.5 34.4 l h
f
147.688 39.611 m 147.648 39.63 l 147.609 39.638 l 147.57 39.662 l 147.531
 39.669 l 147.488 39.689 l 147.461 39.701 l 147.418 39.709 l 147.391 39.732
 l 147.18 39.791 l 147.121 39.81 l 147.051 39.822 l 146.988 39.83 l 146.918
 39.841 l 146.848 39.849 l 146.809 39.861 l 146.668 39.861 l 146.629 39.869
 l 146.539 39.869 l 146.059 39.869 145.48 39.689 145.48 39.048 c 145.48 
37.869 148.109 38.138 148.109 36.119 c 148.109 34.822 147.09 34.298 145.879
 34.298 c 145.449 34.298 145.02 34.419 144.621 34.548 c 144.711 35.369 l
 145 35.252 145.531 35.072 145.98 35.072 c 146.469 35.072 147.168 35.349
 147.168 36.072 c 147.168 37.439 144.551 37.072 144.551 38.97 c 144.551 
40.06 145.41 40.638 146.508 40.638 c 146.91 40.638 147.391 40.572 147.82
 40.431 c h
f
151.609 38.22 m 150.418 38.22 l 150.418 35.771 l 150.418 35.252 150.738
 34.959 151.109 34.959 c 151.371 34.959 151.559 35.041 151.68 35.119 c 151.68
 34.419 l 151.5 34.369 151.238 34.298 150.969 34.298 c 150.129 34.298 149.59
 34.701 149.59 35.599 c 149.59 38.22 l 148.59 38.22 l 148.59 38.888 l 149.59
 38.888 l 149.59 39.919 l 150.418 40.189 l 150.418 38.888 l 151.609 38.888
 l h
f
1 g
155.301 36.138 m 155.301 36.021 l 155.289 35.959 l 155.281 35.9 l 155.27
 35.841 l 155.258 35.791 l 155.238 35.732 l 155.199 35.63 l 155.18 35.572
 l 155.148 35.521 l 155.121 35.482 l 155.09 35.431 l 155.059 35.388 l 155.02
 35.341 l 154.98 35.298 l 154.938 35.259 l 154.898 35.232 l 154.859 35.189
 l 154.809 35.162 l 154.758 35.13 l 154.711 35.099 l 154.648 35.08 l 154.598
 35.048 l 154.539 35.029 l 154.48 35.021 l 154.41 35.002 l 154.348 34.99
 l 154.281 34.982 l 154.211 34.97 l 154.129 34.97 l 154.059 34.959 l 153.68
 34.959 153.219 35.22 153.219 35.689 c 153.219 36.49 154.328 36.56 154.781
 36.56 c 154.949 36.56 155.129 36.541 155.301 36.541 c h
f
0 g
159.91 38.22 m 158.719 38.22 l 158.719 35.771 l 158.719 35.252 159.039 
34.959 159.418 34.959 c 159.668 34.959 159.859 35.041 159.98 35.119 c 159.98
 34.419 l 159.789 34.369 159.539 34.298 159.277 34.298 c 158.418 34.298 
157.898 34.701 157.898 35.599 c 157.898 38.22 l 156.891 38.22 l 156.891 
38.888 l 157.898 38.888 l 157.898 39.919 l 158.719 40.189 l 158.719 38.888
 l 159.91 38.888 l h
f
1 g
161.52 37.072 m 161.527 37.119 l 161.539 37.181 l 161.551 37.232 l 161.559
 37.291 l 161.57 37.341 l 161.609 37.459 l 161.621 37.509 l 161.641 37.56
 l 161.668 37.619 l 161.688 37.669 l 161.75 37.771 l 161.777 37.822 l 161.809
 37.869 l 161.848 37.919 l 161.879 37.959 l 161.918 38.002 l 161.961 38.041
 l 162.008 38.08 l 162.051 38.119 l 162.098 38.15 l 162.148 38.181 l 162.211
 38.209 l 162.258 38.24 l 162.32 38.259 l 162.379 38.279 l 162.449 38.298
 l 162.508 38.31 l 162.578 38.322 l 162.648 38.33 l 162.73 38.33 l 163.438
 38.33 163.84 37.759 163.84 37.072 c h
f
170.93 36.138 m 170.93 36.08 l 170.918 36.021 l 170.918 35.959 l 170.91
 35.9 l 170.898 35.841 l 170.879 35.791 l 170.871 35.732 l 170.848 35.681
 l 170.828 35.63 l 170.809 35.572 l 170.777 35.521 l 170.75 35.482 l 170.719
 35.431 l 170.688 35.388 l 170.648 35.341 l 170.609 35.298 l 170.57 35.259
 l 170.527 35.232 l 170.48 35.189 l 170.438 35.162 l 170.391 35.13 l 170.328
 35.099 l 170.277 35.08 l 170.219 35.048 l 170.16 35.029 l 170.098 35.021
 l 170.039 35.002 l 169.969 34.99 l 169.898 34.982 l 169.828 34.97 l 169.758
 34.97 l 169.68 34.959 l 169.309 34.959 168.848 35.22 168.848 35.689 c 168.848
 36.49 169.961 36.56 170.398 36.56 c 170.578 36.56 170.75 36.541 170.93 
36.541 c h
f
0 g
173.148 38.888 m 173.949 38.888 l 173.949 38.181 l 173.969 38.181 l 174.219
 38.689 174.82 39.002 175.438 39.002 c 176.598 39.002 177.129 38.271 177.129
 37.072 c 177.129 34.4 l 176.289 34.4 l 176.289 36.732 l 176.289 37.771 
176.07 38.279 175.34 38.33 c 174.398 38.33 173.98 37.572 173.98 36.482 c
 173.98 34.4 l 173.148 34.4 l h
f
1 g
179.098 36.662 m 179.098 36.822 l 179.109 36.888 l 179.109 36.97 l 179.121
 37.041 l 179.129 37.119 l 179.148 37.189 l 179.16 37.271 l 179.219 37.482
 l 179.25 37.548 l 179.277 37.619 l 179.309 37.681 l 179.34 37.74 l 179.379
 37.798 l 179.41 37.861 l 179.461 37.912 l 179.5 37.97 l 179.551 38.021 
l 179.598 38.06 l 179.648 38.111 l 179.699 38.15 l 179.758 38.181 l 179.82
 38.22 l 179.891 38.24 l 179.949 38.271 l 180.02 38.291 l 180.098 38.31 
l 180.168 38.322 l 180.25 38.33 l 180.34 38.33 l 181.23 38.33 181.66 37.47
 181.66 36.638 c 181.66 35.888 181.277 34.959 180.34 34.959 c 179.449 34.959
 179.09 35.959 179.098 36.662 c h
f
82.281 29.912 m 83.121 29.912 l 83.93 29.912 84.359 29.548 84.359 29.002
 c 84.359 28.412 83.859 28.041 83.031 28.041 c 82.281 28.041 l h
f
87.32 27.209 m 87.328 27.271 l 87.34 27.322 l 87.352 27.38 l 87.359 27.431
 l 87.371 27.49 l 87.391 27.541 l 87.41 27.599 l 87.418 27.65 l 87.441 27.709
 l 87.469 27.759 l 87.488 27.81 l 87.52 27.869 l 87.551 27.919 l 87.578 
27.97 l 87.609 28.009 l 87.641 28.06 l 87.68 28.099 l 87.719 28.15 l 87.758
 28.189 l 87.809 28.22 l 87.852 28.259 l 87.898 28.291 l 87.949 28.33 l 
88.008 28.349 l 88.059 28.38 l 88.121 28.4 l 88.18 28.419 l 88.25 28.439
 l 88.309 28.451 l 88.379 28.459 l 88.449 28.47 l 88.531 28.47 l 89.238 
28.47 89.641 27.9 89.641 27.209 c h
f
93.461 25.209 m 93.391 25.22 l 93.32 25.22 l 93.25 25.232 l 93.18 25.252
 l 93.121 25.271 l 93.051 25.291 l 92.988 25.31 l 92.941 25.341 l 92.879
 25.38 l 92.82 25.412 l 92.719 25.49 l 92.668 25.541 l 92.629 25.591 l 92.578
 25.638 l 92.539 25.689 l 92.5 25.752 l 92.469 25.798 l 92.43 25.861 l 92.398
 25.931 l 92.371 25.99 l 92.34 26.06 l 92.32 26.13 l 92.289 26.201 l 92.27
 26.271 l 92.258 26.341 l 92.238 26.412 l 92.23 26.49 l 92.219 26.572 l 
92.211 26.638 l 92.211 26.798 l 92.211 27.56 92.621 28.47 93.461 28.47 c
 94.34 28.47 94.77 27.669 94.77 26.74 c 94.77 25.9 94.23 25.209 93.461 25.209
 c h
f
0 g
97.09 29.029 0.828 -4.48 re f
97.039 30.959 0.941 -0.938 re f
1 g
100.02 26.791 m 100.02 26.951 l 100.031 27.029 l 100.039 27.111 l 100.051
 27.181 l 100.07 27.259 l 100.09 27.341 l 100.109 27.412 l 100.141 27.49
 l 100.16 27.56 l 100.191 27.63 l 100.23 27.701 l 100.258 27.759 l 100.301
 27.83 l 100.34 27.888 l 100.391 27.951 l 100.43 28.009 l 100.531 28.111
 l 100.59 28.162 l 100.641 28.209 l 100.699 28.252 l 100.758 28.291 l 100.828
 28.33 l 100.891 28.361 l 100.961 28.388 l 101.031 28.412 l 101.109 28.431
 l 101.18 28.451 l 101.258 28.459 l 101.34 28.47 l 101.418 28.47 l 102.301
 28.47 102.82 27.638 102.82 26.791 c 102.82 25.99 102.391 25.111 101.418
 25.111 c 100.449 25.111 100.02 25.99 100.02 26.791 c h
f
0 g
104.801 29.029 m 105.602 29.029 l 105.602 28.322 l 105.621 28.322 l 105.859
 28.83 106.461 29.138 107.09 29.138 c 108.25 29.138 108.77 28.419 108.77
 27.209 c 108.77 24.548 l 107.949 24.548 l 107.949 26.869 l 107.949 27.919
 107.719 28.431 106.988 28.47 c 106.051 28.47 105.629 27.709 105.629 26.619
 c 105.629 24.548 l 104.801 24.548 l h
f
1 g
112.828 26.291 m 112.828 26.232 l 112.82 26.162 l 112.82 26.099 l 112.809
 26.048 l 112.801 25.99 l 112.781 25.931 l 112.77 25.88 l 112.75 25.822 
l 112.73 25.771 l 112.699 25.72 l 112.68 25.669 l 112.648 25.619 l 112.621
 25.58 l 112.59 25.529 l 112.551 25.49 l 112.508 25.451 l 112.469 25.412
 l 112.43 25.369 l 112.379 25.341 l 112.34 25.31 l 112.289 25.279 l 112.23
 25.252 l 112.18 25.22 l 112.121 25.201 l 112.059 25.181 l 112 25.162 l 
111.941 25.15 l 111.871 25.13 l 111.801 25.119 l 111.73 25.111 l 111.578
 25.111 l 111.211 25.111 110.75 25.361 110.75 25.841 c 110.75 26.63 111.859
 26.701 112.301 26.701 c 112.48 26.701 112.648 26.689 112.828 26.689 c h
f
0 g
115.16 31.138 0.82 -6.59 re f
1 g
120.84 29.912 m 121.871 29.912 l 123.141 29.912 124.109 29.06 124.109 27.63
 c 124.109 26.048 123.281 25.322 121.758 25.322 c 120.84 25.322 l h
f
126.859 27.209 m 126.871 27.271 l 126.871 27.322 l 126.879 27.38 l 126.898
 27.431 l 126.91 27.49 l 126.93 27.541 l 126.941 27.599 l 126.961 27.65 
l 126.98 27.709 l 127 27.759 l 127.031 27.81 l 127.059 27.869 l 127.078 
27.919 l 127.121 27.97 l 127.148 28.009 l 127.18 28.06 l 127.219 28.099 
l 127.258 28.15 l 127.301 28.189 l 127.348 28.22 l 127.391 28.259 l 127.441
 28.291 l 127.488 28.33 l 127.551 28.349 l 127.598 28.38 l 127.66 28.4 l
 127.719 28.419 l 127.789 28.439 l 127.848 28.451 l 127.918 28.459 l 127.988
 28.47 l 128.07 28.47 l 128.781 28.47 129.18 27.9 129.18 27.209 c h
f
0 g
133.148 24.548 m 132.16 24.548 l 130.559 29.029 l 131.469 29.029 l 132.668
 25.369 l 132.699 25.369 l 133.93 29.029 l 134.758 29.029 l h
f
1 g
136.141 27.209 m 136.141 27.271 l 136.148 27.322 l 136.16 27.38 l 136.168
 27.431 l 136.188 27.49 l 136.199 27.541 l 136.219 27.599 l 136.238 27.65
 l 136.258 27.709 l 136.281 27.759 l 136.309 27.81 l 136.328 27.869 l 136.391
 27.97 l 136.418 28.009 l 136.461 28.06 l 136.5 28.099 l 136.539 28.15 l
 136.578 28.189 l 136.621 28.22 l 136.668 28.259 l 136.719 28.291 l 136.77
 28.33 l 136.82 28.349 l 136.879 28.38 l 136.93 28.4 l 137 28.419 l 137.059
 28.439 l 137.129 28.451 l 137.188 28.459 l 137.27 28.47 l 137.34 28.47 
l 138.051 28.47 138.461 27.9 138.461 27.209 c h
f
0 g
140.539 31.138 0.832 -6.59 re f
1 g
143.469 26.791 m 143.469 26.951 l 143.48 27.029 l 143.488 27.111 l 143.5
 27.181 l 143.52 27.259 l 143.539 27.341 l 143.559 27.412 l 143.578 27.49
 l 143.641 27.63 l 143.68 27.701 l 143.711 27.759 l 143.75 27.83 l 143.789
 27.888 l 143.828 27.951 l 143.879 28.009 l 143.98 28.111 l 144.039 28.162
 l 144.09 28.209 l 144.148 28.252 l 144.211 28.291 l 144.281 28.33 l 144.34
 28.361 l 144.41 28.388 l 144.48 28.412 l 144.559 28.431 l 144.629 28.451
 l 144.711 28.459 l 144.789 28.47 l 144.871 28.47 l 145.75 28.47 146.27 
27.638 146.27 26.791 c 146.27 25.99 145.84 25.111 144.871 25.111 c 143.891
 25.111 143.469 25.99 143.469 26.791 c h
f
151.629 26.81 m 151.629 26.599 l 151.621 26.529 l 151.598 26.388 l 151.59
 26.322 l 151.57 26.24 l 151.531 26.099 l 151.508 26.029 l 151.48 25.959
 l 151.461 25.888 l 151.418 25.822 l 151.391 25.759 l 151.348 25.689 l 151.32
 25.63 l 151.27 25.572 l 151.23 25.509 l 151.18 25.459 l 151.129 25.412 
l 151.078 25.361 l 151.02 25.322 l 150.969 25.279 l 150.898 25.24 l 150.84
 25.209 l 150.77 25.181 l 150.699 25.15 l 150.629 25.13 l 150.559 25.119
 l 150.52 25.119 l 150.48 25.111 l 150.391 25.111 l 149.461 25.111 149.07
 26.029 149.07 26.779 c 149.07 27.619 149.5 28.47 150.398 28.47 c 151.301
 28.47 151.648 27.619 151.629 26.81 c h
f
0 g
153.609 29.029 m 154.391 29.029 l 154.391 28.38 l 154.41 28.38 l 154.719
 28.9 155.16 29.138 155.82 29.138 c 156.34 29.138 156.859 28.869 157.098
 28.271 c 157.41 28.912 158.078 29.138 158.48 29.138 c 159.629 29.138 160.039
 28.4 160.039 27.431 c 160.039 24.548 l 159.211 24.548 l 159.211 27.22 l
 159.211 27.779 159.078 28.47 158.41 28.47 c 157.57 28.47 157.238 27.638
 157.238 26.81 c 157.238 24.548 l 156.41 24.548 l 156.41 27.22 l 156.41 
27.779 156.277 28.47 155.609 28.47 c 154.77 28.47 154.438 27.638 154.438
 26.81 c 154.438 24.548 l 153.609 24.548 l h
f
1 g
162.008 27.209 m 162.008 27.271 l 162.02 27.322 l 162.027 27.38 l 162.039
 27.431 l 162.059 27.49 l 162.07 27.541 l 162.09 27.599 l 162.109 27.65 
l 162.129 27.709 l 162.148 27.759 l 162.18 27.81 l 162.199 27.869 l 162.23
 27.919 l 162.258 27.97 l 162.301 28.009 l 162.328 28.06 l 162.371 28.099
 l 162.41 28.15 l 162.449 28.189 l 162.488 28.22 l 162.539 28.259 l 162.59
 28.291 l 162.641 28.33 l 162.688 28.349 l 162.75 28.38 l 162.809 28.4 l
 162.871 28.419 l 162.93 28.439 l 163 28.451 l 163.07 28.459 l 163.141 28.47
 l 163.211 28.47 l 163.918 28.47 164.328 27.9 164.328 27.209 c h
f
0 g
166.301 29.029 m 167.109 29.029 l 167.109 28.322 l 167.129 28.322 l 167.371
 28.83 167.969 29.138 168.59 29.138 c 169.758 29.138 170.277 28.419 170.277
 27.209 c 170.277 24.548 l 169.449 24.548 l 169.449 26.869 l 169.449 27.919
 169.219 28.431 168.5 28.47 c 167.559 28.47 167.129 27.709 167.129 26.619
 c 167.129 24.548 l 166.301 24.548 l h
f
174.059 28.361 m 172.879 28.361 l 172.879 25.912 l 172.879 25.388 173.188
 25.111 173.57 25.111 c 173.82 25.111 174.008 25.189 174.129 25.271 c 174.129
 24.56 l 173.949 24.509 173.688 24.439 173.43 24.439 c 172.578 24.439 172.051
 24.841 172.051 25.74 c 172.051 28.361 l 171.039 28.361 l 171.039 29.029
 l 172.051 29.029 l 172.051 30.072 l 172.879 30.33 l 172.879 29.029 l 174.059
 29.029 l h
f
1 g
35.84 43.849 m 23.949 31.97 l 35.84 20.08 l 47.73 31.97 l h
f
0 g
24 31.97 m 36.82 43.63 l 25.16 30.798 l h
f
25.191 30.779 m 38.008 42.439 l 26.352 29.611 l h
f
26.371 29.591 m 39.199 41.252 l 27.539 28.431 l h
f
27.559 28.4 m 40.391 40.06 l 28.73 27.24 l h
f
28.75 27.22 m 41.57 38.869 l 29.918 26.048 l h
f
29.941 26.029 m 42.758 37.681 l 31.102 24.861 l h
f
31.129 24.841 m 43.949 36.502 l 32.289 23.669 l h
f
32.309 23.65 m 45.141 35.31 l 33.48 22.49 l h
f
33.5 22.47 m 46.328 34.119 l 34.668 21.298 l h
f
34.691 21.271 m 47.508 32.931 l 35.852 20.111 l h
f
0.8 0 0.168627 rg
71.668 31.97 m 47.809 55.83 l 35.84 43.849 l 47.73 31.97 l 35.84 20.08 
l 47.809 8.111 l h
f
35.84 43.849 m 23.859 55.83 l 0 31.97 l 23.859 8.111 l 35.84 20.08 l 23.949
 31.97 l h
f
1 g
41.59 15.15 m 45.18 18.74 l 50.73 15.49 l 50.75 15.502 l 46.352 19.9 l 
48.398 21.959 l 54.648 15.72 l 51.121 12.201 l 45.379 15.502 l 45.371 15.49
 l 49.891 10.959 l 47.828 8.9 l h
f
55.879 26.021 m 55.75 25.951 l 55.469 25.81 l 55.328 25.728 l 55.191 25.65
 l 55.059 25.56 l 54.918 25.47 l 54.781 25.38 l 54.648 25.279 l 54.508 25.181
 l 54.371 25.068 l 54.238 24.959 l 54.109 24.849 l 53.98 24.728 l 53.852
 24.611 l 53.719 24.478 l 53.34 24.111 52.699 23.451 53.102 23.041 c 53.91
 22.228 56.418 26.279 58.828 23.88 c 60.5 22.201 59.27 20.13 57.879 18.74
 c 56.961 17.822 56.109 17.15 55.008 16.459 c 53.391 18.08 l 54.309 18.451
 55.238 19.099 55.949 19.81 c 56.508 20.38 56.91 21.002 56.602 21.318 c 
55.758 22.162 53.23 18.111 50.809 20.541 c 49.09 22.252 50.578 24.349 52
 25.771 c 52.668 26.439 53.488 27.099 54.281 27.619 c h
f
61.508 27.091 m 61.531 27.111 l 58.539 32.099 l 60.84 34.4 l 65.801 31.38
 l 65.82 31.4 l 62.598 36.162 l 64.738 38.298 l 69.48 30.548 l 66.898 27.978
 l 61.781 31.009 l 61.758 30.99 l 64.848 25.919 l 62.219 23.291 l 54.52 
28.08 l 56.758 30.318 l h
f
0 g
34.988 4.259 m 36.988 4.259 l 36.988 3.9 l 35.41 3.9 l 35.41 2.412 l 36.918
 2.412 l 36.918 2.048 l 35.41 2.048 l 35.41 0.072 l 34.988 0.072 l h
f
37.668 3.13 0.383 -3.059 re f
37.668 4.451 0.383 -0.5 re f
38.941 2.451 m 38.941 2.939 l 38.93 2.978 l 38.93 3.048 l 38.918 3.091 
l 38.918 3.13 l 39.301 3.13 l 39.301 2.541 l 39.309 2.541 l 39.449 2.888
 39.711 3.201 40.102 3.201 c 40.191 3.201 40.289 3.181 40.359 3.169 c 40.359
 2.771 l 40.281 2.798 40.18 2.81 40.078 2.81 c 39.48 2.81 39.32 2.138 39.32
 1.58 c 39.32 0.072 l 38.941 0.072 l h
f
40.711 0.521 m 40.75 0.502 l 40.789 0.478 l 40.84 0.459 l 40.879 0.439 
l 40.93 0.419 l 40.98 0.412 l 41.031 0.388 l 41.078 0.38 l 41.129 0.369 
l 41.18 0.361 l 41.238 0.349 l 41.289 0.341 l 41.34 0.33 l 41.508 0.33 l
 41.871 0.33 42.18 0.521 42.18 0.869 c 42.18 1.591 40.711 1.478 40.711 2.369
 c 40.711 2.97 41.211 3.201 41.711 3.201 c 41.871 3.201 42.191 3.169 42.461
 3.072 c 42.43 2.74 l 42.23 2.83 41.961 2.88 41.75 2.88 c 41.359 2.88 41.09
 2.759 41.09 2.369 c 41.09 1.798 42.602 1.869 42.602 0.869 c 42.602 0.22
 41.988 0.002 41.531 0.002 c 41.23 0.002 40.941 0.041 40.668 0.15 c h
f
44.59 2.81 m 43.898 2.81 l 43.898 0.83 l 43.898 0.548 44 0.33 44.309 0.33
 c 44.449 0.33 44.551 0.361 44.66 0.4 c 44.68 0.08 l 44.59 0.048 44.398 
0.002 44.219 0.002 c 43.551 0.002 43.52 0.459 43.52 1.021 c 43.52 2.81 l
 42.918 2.81 l 42.918 3.13 l 43.52 3.13 l 43.52 3.869 l 43.898 4.002 l 43.898
 3.13 l 44.59 3.13 l h
f
47.199 2.81 m 46.578 2.81 l 46.578 3.13 l 47.199 3.13 l 47.199 3.361 l 
47.199 4.002 47.219 4.65 48.008 4.65 c 48.129 4.65 48.289 4.63 48.359 4.58
 c 48.34 4.252 l 48.258 4.298 48.148 4.322 48.039 4.322 c 47.52 4.322 47.578
 3.759 47.578 3.4 c 47.578 3.13 l 48.258 3.13 l 48.258 2.81 l 47.578 2.81
 l 47.578 0.072 l 47.199 0.072 l h
f
1 g
48.988 1.599 m 49 1.669 l 49 1.798 l 49.008 1.861 l 49.031 1.978 l 49.051
 2.041 l 49.059 2.099 l 49.078 2.162 l 49.102 2.209 l 49.121 2.271 l 49.141
 2.322 l 49.168 2.369 l 49.191 2.419 l 49.219 2.459 l 49.258 2.509 l 49.289
 2.548 l 49.32 2.591 l 49.359 2.63 l 49.398 2.662 l 49.441 2.701 l 49.48
 2.728 l 49.531 2.752 l 49.57 2.779 l 49.621 2.798 l 49.668 2.822 l 49.719
 2.841 l 49.781 2.849 l 49.828 2.869 l 49.891 2.869 l 49.949 2.88 l 50.008
 2.88 l 50.668 2.88 51.031 2.31 51.031 1.599 c 51.031 0.9 50.668 0.33 50.008
 0.33 c 49.352 0.33 48.988 0.9 48.988 1.599 c h
f
0 g
52.031 2.451 m 52.031 2.939 l 52.02 2.978 l 52.02 3.048 l 52.008 3.091 
l 52.008 3.13 l 52.391 3.13 l 52.391 2.541 l 52.398 2.541 l 52.539 2.888
 52.801 3.201 53.191 3.201 c 53.281 3.201 53.379 3.181 53.449 3.169 c 53.449
 2.771 l 53.371 2.798 53.27 2.81 53.168 2.81 c 52.57 2.81 52.41 2.138 52.41
 1.58 c 52.41 0.072 l 52.031 0.072 l h
f
1 g
56.121 2.072 m 56.48 2.072 l 57.102 2.072 57.738 1.99 57.738 1.252 c 57.738
 0.58 57.109 0.431 56.551 0.431 c 56.121 0.431 l h
f
56.129 3.9 m 56.699 3.9 l 57.051 3.9 57.609 3.822 57.609 3.209 c 57.609
 2.541 57.031 2.431 56.59 2.431 c 56.129 2.431 l h
f
0 g
61.238 0.791 m 61.238 0.439 l 61.25 0.349 l 61.25 0.252 l 61.258 0.162 
l 61.258 0.072 l 60.898 0.072 l 60.898 0.619 l 60.891 0.619 l 60.758 0.341
 60.531 0.002 59.898 0.002 c 59.141 0.002 58.852 0.502 58.852 1.181 c 58.852
 3.13 l 59.23 3.13 l 59.23 1.271 l 59.23 0.701 59.441 0.33 59.961 0.33 c
 60.648 0.33 60.859 0.931 60.859 1.439 c 60.859 3.13 l 61.238 3.13 l h
f
61.961 0.521 m 62 0.502 l 62.039 0.478 l 62.09 0.459 l 62.129 0.439 l 62.18
 0.419 l 62.23 0.412 l 62.281 0.388 l 62.328 0.38 l 62.379 0.369 l 62.43
 0.361 l 62.48 0.349 l 62.539 0.341 l 62.59 0.33 l 62.75 0.33 l 63.109 0.33
 63.43 0.521 63.43 0.869 c 63.43 1.591 61.961 1.478 61.961 2.369 c 61.961
 2.97 62.449 3.201 62.961 3.201 c 63.121 3.201 63.441 3.169 63.711 3.072
 c 63.68 2.74 l 63.48 2.83 63.211 2.88 63 2.88 c 62.609 2.88 62.34 2.759
 62.34 2.369 c 62.34 1.798 63.848 1.869 63.848 0.869 c 63.848 0.22 63.238
 0.002 62.781 0.002 c 62.48 0.002 62.191 0.041 61.918 0.15 c h
f
64.52 3.13 0.379 -3.059 re f
64.52 4.451 0.379 -0.5 re f
65.848 2.412 m 65.848 2.861 l 65.84 2.951 l 65.84 3.08 l 65.828 3.13 l 
66.199 3.13 l 66.199 2.591 l 66.211 2.591 l 66.328 2.861 66.559 3.201 67.199
 3.201 c 67.949 3.201 68.238 2.701 68.238 2.029 c 68.238 0.072 l 67.871 
0.072 l 67.871 1.931 l 67.871 2.509 67.66 2.88 67.141 2.88 c 66.449 2.88
 66.23 2.271 66.23 1.759 c 66.23 0.072 l 65.848 0.072 l h
f
1 g
69.32 1.822 m 69.32 1.959 l 69.328 2.009 l 69.34 2.048 l 69.348 2.099 l
 69.359 2.15 l 69.379 2.201 l 69.391 2.24 l 69.41 2.291 l 69.449 2.369 l
 69.48 2.419 l 69.5 2.459 l 69.531 2.502 l 69.559 2.541 l 69.59 2.572 l 
69.621 2.611 l 69.719 2.709 l 69.758 2.728 l 69.801 2.759 l 69.84 2.779 
l 69.879 2.81 l 69.918 2.83 l 69.969 2.841 l 70.02 2.849 l 70.059 2.869 
l 70.109 2.869 l 70.16 2.88 l 70.211 2.88 l 70.781 2.88 70.988 2.349 70.988
 1.822 c h
f
0 g
71.891 0.521 m 71.941 0.502 l 71.98 0.478 l 72.031 0.459 l 72.07 0.439 
l 72.121 0.419 l 72.168 0.412 l 72.219 0.388 l 72.27 0.38 l 72.32 0.369 
l 72.371 0.361 l 72.418 0.349 l 72.48 0.341 l 72.531 0.33 l 72.691 0.33 
l 73.051 0.33 73.371 0.521 73.371 0.869 c 73.371 1.591 71.898 1.478 71.898
 2.369 c 71.898 2.97 72.391 3.201 72.898 3.201 c 73.059 3.201 73.379 3.169
 73.648 3.072 c 73.621 2.74 l 73.418 2.83 73.148 2.88 72.941 2.88 c 72.551
 2.88 72.281 2.759 72.281 2.369 c 72.281 1.798 73.781 1.869 73.781 0.869
 c 73.781 0.22 73.18 0.002 72.719 0.002 c 72.418 0.002 72.129 0.041 71.859
 0.15 c h
f
74.23 0.521 m 74.27 0.502 l 74.32 0.478 l 74.359 0.459 l 74.461 0.419 l
 74.5 0.412 l 74.551 0.388 l 74.598 0.38 l 74.648 0.369 l 74.699 0.361 l
 74.758 0.349 l 74.809 0.341 l 74.859 0.33 l 75.031 0.33 l 75.391 0.33 75.699
 0.521 75.699 0.869 c 75.699 1.591 74.238 1.478 74.238 2.369 c 74.238 2.97
 74.73 3.201 75.23 3.201 c 75.391 3.201 75.711 3.169 75.988 3.072 c 75.949
 2.74 l 75.75 2.83 75.48 2.88 75.27 2.88 c 74.879 2.88 74.621 2.759 74.621
 2.369 c 74.621 1.798 76.121 1.869 76.121 0.869 c 76.121 0.22 75.508 0.002
 75.051 0.002 c 74.758 0.002 74.461 0.041 74.191 0.15 c h
f
Q Q
showpage
%%Trailer
%%EOF
