%!PS-Adobe-3.0
%%Creator: cairo 1.12.2 (http://cairographics.org)
%%CreationDate: Mon Aug  6 13:42:41 2012
%%Pages: 1
%%DocumentData: Clean7Bit
%%LanguageLevel: 2
%%DocumentMedia: 45x53mm 127 151 0 () ()
%%BoundingBox: 0 0 127 151
%%EndComments
%%BeginProlog
/languagelevel where
{ pop languagelevel } { 1 } ifelse
2 lt { /Helvetica findfont 12 scalefont setfont 50 500 moveto
  (This print job requires a PostScript Language Level 2 printer.) show
  showpage quit } if
/q { gsave } bind def
/Q { grestore } bind def
/cm { 6 array astore concat } bind def
/w { setlinewidth } bind def
/J { setlinecap } bind def
/j { setlinejoin } bind def
/M { setmiterlimit } bind def
/d { setdash } bind def
/m { moveto } bind def
/l { lineto } bind def
/c { curveto } bind def
/h { closepath } bind def
/re { exch dup neg 3 1 roll 5 3 roll moveto 0 rlineto
      0 exch rlineto 0 rlineto closepath } bind def
/S { stroke } bind def
/f { fill } bind def
/f* { eofill } bind def
/n { newpath } bind def
/W { clip } bind def
/W* { eoclip } bind def
/BT { } bind def
/ET { } bind def
/pdfmark where { pop globaldict /?pdfmark /exec load put }
    { globaldict begin /?pdfmark /pop load def /pdfmark
    /cleartomark load def end } ifelse
/BDC { mark 3 1 roll /BDC pdfmark } bind def
/EMC { mark /EMC pdfmark } bind def
/cairo_store_point { /cairo_point_y exch def /cairo_point_x exch def } def
/Tj { show currentpoint cairo_store_point } bind def
/TJ {
  {
    dup
    type /stringtype eq
    { show } { -0.001 mul 0 cairo_font_matrix dtransform rmoveto } ifelse
  } forall
  currentpoint cairo_store_point
} bind def
/cairo_selectfont { cairo_font_matrix aload pop pop pop 0 0 6 array astore
    cairo_font exch selectfont cairo_point_x cairo_point_y moveto } bind def
/Tf { pop /cairo_font exch def /cairo_font_matrix where
      { pop cairo_selectfont } if } bind def
/Td { matrix translate cairo_font_matrix matrix concatmatrix dup
      /cairo_font_matrix exch def dup 4 get exch 5 get cairo_store_point
      /cairo_font where { pop cairo_selectfont } if } bind def
/Tm { 2 copy 8 2 roll 6 array astore /cairo_font_matrix exch def
      cairo_store_point /cairo_font where { pop cairo_selectfont } if } bind def
/g { setgray } bind def
/rg { setrgbcolor } bind def
/d1 { setcachedevice } bind def
%%EndProlog
%%Page: 1 1
%%BeginPageSetup
%%PageMedia: 45x53mm
%%PageBoundingBox: 0 0 127 151
%%EndPageSetup
q 0 0 127 151 rectclip q
0.384314 0.72549 0.172549 rg
117.477 12.895 m 112.402 27.102 l 107.312 12.895 l h
125.602 1.523 m 121.5 1.523 l 118.66 9.59 l 106.145 9.59 l 103.309 1.523
 l 99.402 1.523 l 109.934 30.465 l 115.066 30.465 l 125.602 1.523 l f*
0.6233 w
0 J
0 j
[] 0.0 d
3.86369 M q 1 0 0 1 0 151 cm
117.477 -138.105 m 112.402 -123.898 l 107.312 -138.105 l h
S Q
q 1 0 0 1 0 151 cm
125.602 -149.477 m 121.5 -149.477 l 118.66 -141.41 l 106.145 -141.41 l 
103.309 -149.477 l 99.402 -149.477 l 109.934 -120.535 l 115.066 -120.535
 l h
S Q
1 g
0.039 96.293 m 0.039 126.453 24.488 150.906 54.652 150.906 c 84.812 150.906
 109.266 126.453 109.266 96.293 c 109.266 66.129 84.812 41.68 54.652 41.68
 c 24.488 41.68 0.039 66.129 0.039 96.293 c f
0.980392 0.992157 0.964706 rg
1.176 96.301 m 1.176 125.836 25.117 149.777 54.652 149.777 c 84.184 149.777
 108.125 125.836 108.125 96.301 c 108.125 66.77 84.184 42.828 54.652 42.828
 c 25.117 42.828 1.176 66.77 1.176 96.301 c f
0.960784 0.984314 0.933333 rg
2.316 96.312 m 2.316 125.215 25.746 148.645 54.652 148.645 c 83.555 148.645
 106.984 125.215 106.984 96.312 c 106.984 67.406 83.555 43.977 54.652 43.977
 c 25.746 43.977 2.316 67.406 2.316 96.312 c f
0.937255 0.972549 0.898039 rg
3.457 96.32 m 3.457 124.594 26.379 147.516 54.652 147.516 c 82.926 147.516
 105.844 124.594 105.844 96.32 c 105.844 68.047 82.926 45.129 54.652 45.129
 c 26.379 45.129 3.457 68.047 3.457 96.32 c f
0.917647 0.964706 0.862745 rg
4.598 96.332 m 4.598 123.977 27.008 146.383 54.652 146.383 c 82.297 146.383
 104.703 123.977 104.703 96.332 c 104.703 68.688 82.297 46.277 54.652 46.277
 c 27.008 46.277 4.598 68.688 4.598 96.332 c f
0.898039 0.952941 0.831373 rg
5.738 96.34 m 5.738 123.355 27.637 145.254 54.652 145.254 c 81.664 145.254
 103.566 123.355 103.566 96.34 c 103.566 69.324 81.664 47.426 54.652 47.426
 c 27.637 47.426 5.738 69.324 5.738 96.34 c f
0.878431 0.945098 0.8 rg
6.879 96.348 m 6.879 122.734 28.266 144.121 54.652 144.121 c 81.035 144.121
 102.426 122.734 102.426 96.348 c 102.426 69.965 81.035 48.574 54.652 48.574
 c 28.266 48.574 6.879 69.965 6.879 96.348 c f
0.854902 0.933333 0.768627 rg
8.016 96.359 m 8.016 122.113 28.895 142.992 54.652 142.992 c 80.406 142.992
 101.285 122.113 101.285 96.359 c 101.285 70.602 80.406 49.727 54.652 49.727
 c 28.895 49.727 8.016 70.602 8.016 96.359 c f
0.835294 0.92549 0.737255 rg
9.156 96.367 m 9.156 121.492 29.527 141.863 54.652 141.863 c 79.777 141.863
 100.145 121.492 100.145 96.367 c 100.145 71.242 79.777 50.875 54.652 50.875
 c 29.527 50.875 9.156 71.242 9.156 96.367 c f
0.815686 0.917647 0.705882 rg
10.297 96.379 m 10.297 120.875 30.156 140.73 54.652 140.73 c 79.148 140.73
 99.004 120.875 99.004 96.379 c 99.004 71.883 79.148 52.023 54.652 52.023
 c 30.156 52.023 10.297 71.883 10.297 96.379 c f
0.796078 0.905882 0.67451 rg
11.438 96.387 m 11.438 120.254 30.785 139.602 54.652 139.602 c 78.52 139.602
 97.863 120.254 97.863 96.387 c 97.863 72.52 78.52 53.172 54.652 53.172 
c 30.785 53.172 11.438 72.52 11.438 96.387 c f
0.776471 0.898039 0.647059 rg
12.578 96.398 m 12.578 119.633 31.414 138.473 54.652 138.473 c 77.887 138.473
 96.727 119.633 96.727 96.398 c 96.727 73.16 77.887 54.324 54.652 54.324
 c 31.414 54.324 12.578 73.16 12.578 96.398 c f
0.752941 0.890196 0.615686 rg
13.719 96.406 m 13.719 119.016 32.043 137.34 54.652 137.34 c 77.258 137.34
 95.586 119.016 95.586 96.406 c 95.586 73.797 77.258 55.473 54.652 55.473
 c 32.043 55.473 13.719 73.797 13.719 96.406 c f
0.733333 0.878431 0.588235 rg
14.855 96.414 m 14.855 118.395 32.672 136.211 54.652 136.211 c 76.629 136.211
 94.445 118.395 94.445 96.414 c 94.445 74.438 76.629 56.621 54.652 56.621
 c 32.672 56.621 14.855 74.438 14.855 96.414 c f
0.713726 0.870588 0.560784 rg
15.996 96.426 m 15.996 117.773 33.301 135.078 54.652 135.078 c 76 135.078
 93.305 117.773 93.305 96.426 c 93.305 75.078 76 57.77 54.652 57.77 c 33.301
 57.77 15.996 75.078 15.996 96.426 c f
0.694118 0.862745 0.533333 rg
17.137 96.434 m 17.137 117.152 33.934 133.949 54.652 133.949 c 75.371 133.949
 92.164 117.152 92.164 96.434 c 92.164 75.715 75.371 58.922 54.652 58.922
 c 33.934 58.922 17.137 75.715 17.137 96.434 c f
0.67451 0.85098 0.505882 rg
18.277 96.445 m 18.277 116.531 34.562 132.816 54.652 132.816 c 74.742 132.816
 91.027 116.531 91.027 96.445 c 91.027 76.355 74.742 60.07 54.652 60.07 
c 34.562 60.07 18.277 76.355 18.277 96.445 c f
0.654902 0.843137 0.482353 rg
19.418 96.453 m 19.418 115.91 35.191 131.688 54.652 131.688 c 74.109 131.688
 89.887 115.91 89.887 96.453 c 89.887 76.992 74.109 61.219 54.652 61.219
 c 35.191 61.219 19.418 76.992 19.418 96.453 c f
0.635294 0.835294 0.454902 rg
20.555 96.461 m 20.555 115.293 35.82 130.559 54.652 130.559 c 73.48 130.559
 88.746 115.293 88.746 96.461 c 88.746 77.633 73.48 62.367 54.652 62.367
 c 35.82 62.367 20.555 77.633 20.555 96.461 c f
0.615686 0.827451 0.431373 rg
21.695 96.473 m 21.695 114.672 36.449 129.426 54.652 129.426 c 72.852 129.426
 87.605 114.672 87.605 96.473 c 87.605 78.273 72.852 63.52 54.652 63.52 
c 36.449 63.52 21.695 78.273 21.695 96.473 c f
0.596078 0.819608 0.407843 rg
22.836 96.48 m 22.836 114.051 37.082 128.297 54.652 128.297 c 72.223 128.297
 86.465 114.051 86.465 96.48 c 86.465 78.91 72.223 64.668 54.652 64.668 
c 37.082 64.668 22.836 78.91 22.836 96.48 c f
0.576471 0.807843 0.380392 rg
23.977 96.492 m 23.977 113.434 37.711 127.164 54.652 127.164 c 71.594 127.164
 85.324 113.434 85.324 96.492 c 85.324 79.551 71.594 65.816 54.652 65.816
 c 37.711 65.816 23.977 79.551 23.977 96.492 c f
0.556863 0.8 0.360784 rg
25.117 96.5 m 25.117 112.812 38.34 126.035 54.652 126.035 c 70.965 126.035
 84.188 112.812 84.188 96.5 c 84.188 80.188 70.965 66.965 54.652 66.965 
c 38.34 66.965 25.117 80.188 25.117 96.5 c f
0.537255 0.792157 0.337255 rg
26.258 96.508 m 26.258 112.191 38.969 124.906 54.652 124.906 c 70.332 124.906
 83.047 112.191 83.047 96.508 c 83.047 80.828 70.332 68.113 54.652 68.113
 c 38.969 68.113 26.258 80.828 26.258 96.508 c f
0.517647 0.784314 0.313726 rg
27.395 96.52 m 27.395 111.57 39.598 123.773 54.652 123.773 c 69.703 123.773
 81.906 111.57 81.906 96.52 c 81.906 81.465 69.703 69.266 54.652 69.266 
c 39.598 69.266 27.395 81.465 27.395 96.52 c f
0.498039 0.776471 0.290196 rg
28.535 96.527 m 28.535 110.953 40.227 122.645 54.652 122.645 c 69.074 122.645
 80.766 110.953 80.766 96.527 c 80.766 82.105 69.074 70.414 54.652 70.414
 c 40.227 70.414 28.535 82.105 28.535 96.527 c f
0.478431 0.768627 0.270588 rg
29.676 96.539 m 29.676 110.332 40.855 121.512 54.652 121.512 c 68.445 121.512
 79.625 110.332 79.625 96.539 c 79.625 82.742 68.445 71.562 54.652 71.562
 c 40.855 71.562 29.676 82.742 29.676 96.539 c f
0.458824 0.756863 0.25098 rg
30.816 96.547 m 30.816 109.711 41.488 120.383 54.652 120.383 c 67.816 120.383
 78.484 109.711 78.484 96.547 c 78.484 83.383 67.816 72.711 54.652 72.711
 c 41.488 72.711 30.816 83.383 30.816 96.547 c f
0.443137 0.74902 0.227451 rg
31.957 96.555 m 31.957 109.09 42.117 119.254 54.652 119.254 c 67.184 119.254
 77.348 109.09 77.348 96.555 c 77.348 84.023 67.184 73.859 54.652 73.859
 c 42.117 73.859 31.957 84.023 31.957 96.555 c f
0.423529 0.741176 0.207843 rg
33.094 96.566 m 33.094 108.473 42.746 118.121 54.652 118.121 c 66.555 118.121
 76.207 108.473 76.207 96.566 c 76.207 84.66 66.555 75.012 54.652 75.012
 c 42.746 75.012 33.094 84.66 33.094 96.566 c f
0.403922 0.733333 0.192157 rg
34.234 96.574 m 34.234 107.852 43.375 116.992 54.652 116.992 c 65.926 116.992
 75.066 107.852 75.066 96.574 c 75.066 85.301 65.926 76.16 54.652 76.16 
c 43.375 76.16 34.234 85.301 34.234 96.574 c f
0.384314 0.72549 0.172549 rg
35.375 96.586 m 35.375 107.23 44.004 115.859 54.652 115.859 c 65.297 115.859
 73.926 107.23 73.926 96.586 c 73.926 85.938 65.297 77.309 54.652 77.309
 c 44.004 77.309 35.375 85.938 35.375 96.586 c f
1 g
37.129 96.586 m 37.129 106.262 44.973 114.109 54.652 114.109 c 64.328 114.109
 72.176 106.262 72.176 96.586 c 72.176 86.906 64.328 79.062 54.652 79.062
 c 44.973 79.062 37.129 86.906 37.129 96.586 c f
0.490196 0.380392 0.717647 rg
90.867 96 m 90.867 105.68 98.711 113.523 108.391 113.523 c 118.066 113.523
 125.91 105.68 125.91 96 c 125.91 86.324 118.066 78.477 108.391 78.477 c
 98.711 78.477 90.867 86.324 90.867 96 c f
0.384314 0.72549 0.172549 rg
28.359 1.523 m 23.598 1.523 l 9.875 27.414 l 9.875 1.523 l 6.281 1.523 
l 6.281 30.465 l 12.246 30.465 l 24.766 6.832 l 24.766 30.465 l 28.359 30.465
 l 28.359 1.523 l f
q 1 0 0 1 0 151 cm
28.359 -149.477 m 23.598 -149.477 l 9.875 -123.586 l 9.875 -149.477 l 6.281
 -149.477 l 6.281 -120.535 l 12.246 -120.535 l 24.766 -144.168 l 24.766 
-120.535 l 28.359 -120.535 l h
S Q
73.559 3.625 m 72.848 3.312 72.199 3.023 71.617 2.75 c 71.047 2.477 70.293
 2.191 69.363 1.895 c 68.57 1.648 67.711 1.441 66.777 1.273 c 65.855 1.094
 64.84 1 63.727 1 c 61.625 1 59.715 1.293 57.992 1.875 c 56.281 2.473 54.789
 3.398 53.52 4.656 c 52.277 5.887 51.305 7.445 50.605 9.34 c 49.906 11.242
 49.555 13.453 49.555 15.965 c 49.555 18.352 49.895 20.48 50.566 22.359 
c 51.242 24.238 52.211 25.828 53.48 27.121 c 54.715 28.379 56.195 29.336
 57.934 30 c 59.684 30.66 61.617 30.988 63.746 30.988 c 65.301 30.988 66.848
 30.801 68.391 30.426 c 69.945 30.051 71.668 29.391 73.559 28.445 c 73.559
 23.875 l 73.27 23.875 l 71.676 25.211 70.094 26.184 68.527 26.793 c 66.957
 27.402 65.281 27.707 63.492 27.707 c 62.027 27.707 60.707 27.465 59.527
 26.984 c 58.359 26.52 57.316 25.789 56.398 24.789 c 55.504 23.82 54.805
 22.586 54.297 21.098 c 53.805 19.621 53.559 17.91 53.559 15.965 c 53.559
 13.93 53.832 12.184 54.375 10.719 c 54.934 9.254 55.645 8.062 56.516 7.141
 c 57.422 6.184 58.477 5.473 59.684 5.004 c 60.902 4.551 62.184 4.324 63.531
 4.324 c 65.383 4.324 67.121 4.641 68.738 5.277 c 70.359 5.91 71.875 6.863
 73.289 8.133 c 73.559 8.133 l 73.559 3.625 l f
q 1 0 0 1 0 151 cm
73.559 -147.375 m 72.848 -147.688 72.199 -147.977 71.617 -148.25 c 71.047
 -148.523 70.293 -148.809 69.363 -149.105 c 68.57 -149.352 67.711 -149.559
 66.777 -149.727 c 65.855 -149.906 64.84 -150 63.727 -150 c 61.625 -150 
59.715 -149.707 57.992 -149.125 c 56.281 -148.527 54.789 -147.602 53.52 
-146.344 c 52.277 -145.113 51.305 -143.555 50.605 -141.66 c 49.906 -139.758
 49.555 -137.547 49.555 -135.035 c 49.555 -132.648 49.895 -130.52 50.566
 -128.641 c 51.242 -126.762 52.211 -125.172 53.48 -123.879 c 54.715 -122.621
 56.195 -121.664 57.934 -121 c 59.684 -120.34 61.617 -120.012 63.746 -120.012
 c 65.301 -120.012 66.848 -120.199 68.391 -120.574 c 69.945 -120.949 71.668
 -121.609 73.559 -122.555 c 73.559 -127.125 l 73.27 -127.125 l 71.676 -125.789
 70.094 -124.816 68.527 -124.207 c 66.957 -123.598 65.281 -123.293 63.492
 -123.293 c 62.027 -123.293 60.707 -123.535 59.527 -124.016 c 58.359 -124.48
 57.316 -125.211 56.398 -126.211 c 55.504 -127.18 54.805 -128.414 54.297
 -129.902 c 53.805 -131.379 53.559 -133.09 53.559 -135.035 c 53.559 -137.07
 53.832 -138.816 54.375 -140.281 c 54.934 -141.746 55.645 -142.938 56.516
 -143.859 c 57.422 -144.816 58.477 -145.527 59.684 -145.996 c 60.902 -146.449
 62.184 -146.676 63.531 -146.676 c 65.383 -146.676 67.121 -146.359 68.738
 -145.723 c 70.359 -145.09 71.875 -144.137 73.289 -142.867 c 73.559 -142.867
 l h
S Q
101.242 27.043 m 90.902 27.043 l 90.902 1.523 l 87.055 1.523 l 87.055 27.043
 l 76.715 27.043 l 76.715 30.465 l 101.242 30.465 l 101.242 27.043 l f
q 1 0 0 1 0 151 cm
101.242 -123.957 m 90.902 -123.957 l 90.902 -149.477 l 87.055 -149.477 
l 87.055 -123.957 l 76.715 -123.957 l 76.715 -120.535 l 101.242 -120.535
 l h
S Q
38.418 30.406 3.836 -28.707 re f
q 1 0 0 1 0 151 cm
38.418 -120.594 3.836 -28.707 re S Q
Q Q
showpage
%%Trailer
%%EOF
