%!PS-Adobe-3.0
%%Creator: cairo 1.12.2 (http://cairographics.org)
%%CreationDate: Mon Aug  6 13:42:42 2012
%%Pages: 1
%%DocumentData: Clean7Bit
%%LanguageLevel: 2
%%DocumentMedia: 103x36mm 292 101 0 () ()
%%BoundingBox: 0 0 292 101
%%EndComments
%%BeginProlog
/languagelevel where
{ pop languagelevel } { 1 } ifelse
2 lt { /Helvetica findfont 12 scalefont setfont 50 500 moveto
  (This print job requires a PostScript Language Level 2 printer.) show
  showpage quit } if
/q { gsave } bind def
/Q { grestore } bind def
/cm { 6 array astore concat } bind def
/w { setlinewidth } bind def
/J { setlinecap } bind def
/j { setlinejoin } bind def
/M { setmiterlimit } bind def
/d { setdash } bind def
/m { moveto } bind def
/l { lineto } bind def
/c { curveto } bind def
/h { closepath } bind def
/re { exch dup neg 3 1 roll 5 3 roll moveto 0 rlineto
      0 exch rlineto 0 rlineto closepath } bind def
/S { stroke } bind def
/f { fill } bind def
/f* { eofill } bind def
/n { newpath } bind def
/W { clip } bind def
/W* { eoclip } bind def
/BT { } bind def
/ET { } bind def
/pdfmark where { pop globaldict /?pdfmark /exec load put }
    { globaldict begin /?pdfmark /pop load def /pdfmark
    /cleartomark load def end } ifelse
/BDC { mark 3 1 roll /BDC pdfmark } bind def
/EMC { mark /EMC pdfmark } bind def
/cairo_store_point { /cairo_point_y exch def /cairo_point_x exch def } def
/Tj { show currentpoint cairo_store_point } bind def
/TJ {
  {
    dup
    type /stringtype eq
    { show } { -0.001 mul 0 cairo_font_matrix dtransform rmoveto } ifelse
  } forall
  currentpoint cairo_store_point
} bind def
/cairo_selectfont { cairo_font_matrix aload pop pop pop 0 0 6 array astore
    cairo_font exch selectfont cairo_point_x cairo_point_y moveto } bind def
/Tf { pop /cairo_font exch def /cairo_font_matrix where
      { pop cairo_selectfont } if } bind def
/Td { matrix translate cairo_font_matrix matrix concatmatrix dup
      /cairo_font_matrix exch def dup 4 get exch 5 get cairo_store_point
      /cairo_font where { pop cairo_selectfont } if } bind def
/Tm { 2 copy 8 2 roll 6 array astore /cairo_font_matrix exch def
      cairo_store_point /cairo_font where { pop cairo_selectfont } if } bind def
/g { setgray } bind def
/rg { setrgbcolor } bind def
/d1 { setcachedevice } bind def
%%EndProlog
%%Page: 1 1
%%BeginPageSetup
%%PageMedia: 103x36mm
%%PageBoundingBox: 0 0 292 101
%%EndPageSetup
q 0 0 292 101 rectclip q
0.0666667 0.25098 0.415686 rg
121.559 66.523 m 116.039 66.523 l 116.039 67.234 l 117.957 67.234 l 117.957
 78.215 l 114.121 78.215 l 114.121 76.68 l 113.203 76.68 l 113.203 79.711
 l 114.121 79.711 l 114.121 79.172 l 123.477 79.172 l 123.477 79.711 l 124.395
 79.711 l 124.395 76.68 l 123.477 76.68 l 123.477 78.215 l 119.645 78.215
 l 119.645 67.234 l 121.559 67.234 l 121.559 66.523 l f
138.98 66.523 m 134.418 66.523 l 134.418 67.234 l 135.855 67.234 l 135.855
 72.504 l 128.668 72.504 l 128.668 67.234 l 130.105 67.234 l 130.105 66.523
 l 125.547 66.523 l 125.547 67.234 l 126.98 67.234 l 126.98 78.465 l 125.547
 78.465 l 125.547 79.172 l 130.105 79.172 l 130.105 78.465 l 128.668 78.465
 l 128.668 73.367 l 135.855 73.367 l 135.855 78.465 l 134.418 78.465 l 134.418
 79.172 l 138.98 79.172 l 138.98 78.465 l 137.523 78.465 l 137.523 67.234
 l 138.98 67.234 l 138.98 66.523 l f
149.305 66.523 m 140.586 66.523 l 140.586 67.234 l 142.023 67.234 l 142.023
 78.465 l 140.586 78.465 l 140.586 79.172 l 148.23 79.172 l 148.23 79.711
 l 149.113 79.711 l 149.113 76.664 l 148.25 76.664 l 148.25 78.293 l 143.711
 78.293 l 143.711 73.387 l 147.332 73.387 l 147.332 74.824 l 148.215 74.844
 l 148.215 71.066 l 147.332 71.047 l 147.332 72.523 l 143.711 72.523 l 143.711
 67.387 l 148.422 67.387 l 148.422 69.074 l 149.305 69.074 l 149.305 66.523
 l f
168.234 78.465 m 166.801 78.465 l 166.801 71.16 l 166.801 69.113 166.07
 67.789 164.48 66.926 c 163.676 66.504 162.754 66.273 161.816 66.273 c 159.035
 66.273 156.984 68.113 156.984 70.625 c 156.984 78.465 l 155.551 78.465 
l 155.551 79.172 l 160.109 79.172 l 160.109 78.465 l 158.672 78.465 l 158.672
 71.219 l 158.672 68.902 160.031 67.387 162.16 67.387 c 164.348 67.387 165.82
 68.938 165.82 71.238 c 165.82 78.465 l 164.383 78.465 l 164.383 79.172 
l 168.234 79.172 l 168.234 78.465 l f
180.059 66.312 m 179.461 66.312 l 172.102 76.434 l 172.102 67.234 l 173.559
 67.234 l 173.559 66.523 l 169.688 66.523 l 169.688 67.234 l 171.145 67.234
 l 171.145 77.734 l 170.629 78.465 l 169.305 78.465 l 169.305 79.172 l 172.086
 79.172 l 179.098 69.551 l 179.098 78.465 l 177.641 78.465 l 177.641 79.172
 l 181.492 79.172 l 181.492 78.465 l 180.059 78.465 l 180.059 66.312 l f
187.449 66.523 m 182.891 66.523 l 182.891 67.234 l 184.328 67.234 l 184.328
 78.465 l 182.891 78.465 l 182.891 79.172 l 187.449 79.172 l 187.449 78.465
 l 186.016 78.465 l 186.016 67.234 l 187.449 67.234 l 187.449 66.523 l f
195.191 66.199 m 194.539 66.199 l 189.711 78.465 l 188.582 78.465 l 188.582
 79.172 l 193.336 79.172 l 193.336 78.465 l 191.531 78.465 l 195.25 69.055
 l 198.93 78.465 l 197.664 78.465 l 197.664 79.172 l 200.941 79.172 l 200.941
 78.465 l 199.984 78.465 l 195.191 66.199 l f
210.812 66.523 m 202.094 66.523 l 202.094 67.234 l 203.527 67.234 l 203.527
 78.465 l 202.094 78.465 l 202.094 79.172 l 209.738 79.172 l 209.738 79.711
 l 210.621 79.711 l 210.621 76.664 l 209.758 76.664 l 209.758 78.293 l 205.215
 78.293 l 205.215 73.387 l 208.84 73.387 l 208.84 74.824 l 209.719 74.844
 l 209.719 71.066 l 208.84 71.047 l 208.84 72.523 l 205.215 72.523 l 205.215
 67.387 l 209.93 67.387 l 209.93 69.074 l 210.812 69.074 l 210.812 66.523
 l f
215.773 73.078 m 217.613 73.078 l 219.066 73.078 220.086 74.152 220.086
 75.723 c 220.086 77.371 219.184 78.293 217.574 78.293 c 215.773 78.293 
l h
223.727 66.523 m 222.098 66.523 l 220.965 66.523 220.754 66.641 220.121
 67.656 c 217.266 72.195 l 215.773 72.195 l 215.773 67.234 l 217.211 67.234
 l 217.211 66.523 l 212.648 66.523 l 212.648 67.234 l 214.086 67.234 l 214.086
 78.465 l 212.648 78.465 l 212.648 79.172 l 217.977 79.172 l 219.836 79.172
 220.891 78.656 221.465 77.469 c 221.715 76.949 221.848 76.375 221.848 75.762
 c 221.848 73.902 220.812 72.715 218.973 72.445 c 221.73 68.191 l 222.191
 67.48 222.5 67.254 222.98 67.254 c 223.727 67.254 l 223.727 66.523 l f
226.176 66.352 m 225.273 66.352 l 225.273 69.801 l 226.176 69.801 l 226.176
 68.289 l 227.344 67.5 227.863 67.309 228.703 67.309 c 230.238 67.309 231.273
 68.113 231.273 69.32 c 231.273 70.414 230.527 71.219 228.457 72.293 c 226.039
 73.559 225.219 74.516 225.219 76.086 c 225.219 77.984 226.828 79.402 228.992
 79.402 c 229.949 79.402 230.66 79.23 231.273 78.867 c 231.273 79.555 l 
232.156 79.555 l 232.156 76.281 l 231.273 76.281 l 231.273 77.641 l 230.297
 78.293 229.816 78.484 229.051 78.484 c 227.746 78.484 226.902 77.699 226.902
 76.508 c 226.902 75.531 227.461 74.977 229.855 73.598 c 232.25 72.215 232.941
 71.371 232.941 69.801 c 232.941 67.809 231.293 66.273 229.129 66.273 c 
227.922 66.273 227.133 66.523 226.176 67.137 c 226.176 66.352 l f
239.262 66.523 m 234.699 66.523 l 234.699 67.234 l 236.141 67.234 l 236.141
 78.465 l 234.699 78.465 l 234.699 79.172 l 239.262 79.172 l 239.262 78.465
 l 237.824 78.465 l 237.824 67.234 l 239.262 67.234 l 239.262 66.523 l f
248.863 66.523 m 243.344 66.523 l 243.344 67.234 l 245.258 67.234 l 245.258
 78.215 l 241.426 78.215 l 241.426 76.68 l 240.508 76.68 l 240.508 79.711
 l 241.426 79.711 l 241.426 79.172 l 250.777 79.172 l 250.777 79.711 l 251.699
 79.711 l 251.699 76.68 l 250.777 76.68 l 250.777 78.215 l 246.945 78.215
 l 246.945 67.234 l 248.863 67.234 l 248.863 66.523 l f
260.969 66.523 m 256.41 66.523 l 256.41 67.234 l 257.848 67.234 l 257.848
 72.352 l 253.879 78.465 l 252.77 78.465 l 252.77 79.172 l 257.5 79.172 
l 257.5 78.465 l 255.758 78.465 l 259.055 73.441 l 262.102 78.465 l 260.355
 78.465 l 260.355 79.172 l 264.191 79.172 l 264.191 78.465 l 263.191 78.465
 l 259.516 72.465 l 259.516 67.234 l 260.969 67.234 l 260.969 66.523 l f
271.027 72.848 m 271.027 69.609 272.828 67.273 275.32 67.273 c 277.773 
67.273 279.555 69.629 279.555 72.848 c 279.555 76.066 277.773 78.406 275.34
 78.406 c 272.828 78.406 271.027 76.105 271.027 72.848 c h
269.129 72.828 m 269.129 76.434 271.93 79.402 275.32 79.402 c 278.656 79.402
 281.453 76.414 281.453 72.848 c 281.453 69.285 278.656 66.273 275.32 66.273
 c 271.945 66.273 269.129 69.266 269.129 72.828 c f
287.199 66.523 m 282.637 66.523 l 282.637 67.234 l 284.074 67.234 l 284.074
 78.465 l 282.637 78.465 l 282.637 79.172 l 290.285 79.172 l 290.285 79.711
 l 291.164 79.711 l 291.164 76.664 l 290.305 76.664 l 290.305 78.293 l 285.762
 78.293 l 285.762 73.387 l 289.383 73.387 l 289.383 74.824 l 290.266 74.844
 l 290.266 71.066 l 289.383 71.047 l 289.383 72.523 l 285.762 72.523 l 285.762
 67.234 l 287.199 67.234 l 287.199 66.523 l f
115.59 25.582 m 113.215 25.582 l 113.215 34.672 l 115.59 34.672 l 115.59
 30.684 l 118.672 28.613 120.035 28.105 122.258 28.105 c 126.297 28.105 
129.023 30.227 129.023 33.41 c 129.023 36.289 127.055 38.41 121.602 41.238
 c 115.234 44.57 113.062 47.102 113.062 51.262 c 113.062 56.262 117.309 
60 123.016 60 c 125.539 60 127.406 59.547 129.023 58.586 c 129.023 60.406
 l 131.348 60.406 l 131.348 51.77 l 129.023 51.77 l 129.023 55.355 l 126.449
 57.07 125.188 57.578 123.164 57.578 c 119.73 57.578 117.508 55.504 117.508
 52.375 c 117.508 49.797 118.973 48.32 125.285 44.672 c 131.602 41.035 133.418
 38.812 133.418 34.672 c 133.418 29.418 129.074 25.379 123.367 25.379 c 
120.188 25.379 118.113 26.035 115.59 27.652 c 115.59 25.582 l f
155.941 26.035 m 143.922 26.035 l 143.922 27.906 l 147.707 27.906 l 147.707
 41.391 l 137.254 57.527 l 134.324 57.527 l 134.324 59.395 l 146.801 59.395
 l 146.801 57.527 l 142.203 57.527 l 150.891 44.27 l 158.922 57.527 l 154.324
 57.527 l 154.324 59.395 l 164.426 59.395 l 164.426 57.527 l 161.801 57.527
 l 152.102 41.691 l 152.102 27.906 l 155.941 27.906 l 155.941 26.035 l f
175.18 28.562 m 181.242 28.562 l 188.16 28.562 193.414 34.672 193.363 42.703
 c 193.363 50.504 188.008 56.82 181.344 56.82 c 175.18 56.82 l h
166.945 26.035 m 166.945 27.906 l 170.734 27.906 l 170.734 57.527 l 166.945
 57.527 l 166.945 59.395 l 181.848 59.395 l 190.938 59.395 198.363 51.918
 198.363 42.754 c 198.363 33.41 191.09 26.035 181.797 26.035 c 166.945 26.035
 l f
227.5 25.48 m 225.934 25.48 l 206.539 52.172 l 206.539 27.906 l 210.379
 27.906 l 210.379 26.035 l 200.176 26.035 l 200.176 27.906 l 204.016 27.906
 l 204.016 55.605 l 202.648 57.527 l 199.164 57.527 l 199.164 59.395 l 206.488
 59.395 l 224.973 34.016 l 224.973 57.527 l 221.137 57.527 l 221.137 59.395
 l 231.285 59.395 l 231.285 57.527 l 227.5 57.527 l 227.5 25.48 l f
257.699 26.035 m 234.719 26.035 l 234.719 27.906 l 238.508 27.906 l 238.508
 57.527 l 234.719 57.527 l 234.719 59.395 l 254.871 59.395 l 254.871 60.809
 l 257.191 60.809 l 257.191 52.777 l 254.922 52.777 l 254.922 57.07 l 242.949
 57.07 l 242.949 44.117 l 252.496 44.117 l 252.496 47.914 l 254.82 47.965
 l 254.82 38.008 l 252.496 37.957 l 252.496 41.844 l 242.949 41.844 l 242.949
 28.309 l 255.375 28.309 l 255.375 32.754 l 257.699 32.754 l 257.699 26.035
 l f
282.695 26.035 m 270.676 26.035 l 270.676 27.906 l 274.461 27.906 l 274.461
 41.391 l 264.008 57.527 l 261.078 57.527 l 261.078 59.395 l 273.555 59.395
 l 273.555 57.527 l 268.957 57.527 l 277.645 44.27 l 285.676 57.527 l 281.078
 57.527 l 281.078 59.395 l 291.18 59.395 l 291.18 57.527 l 288.555 57.527
 l 278.855 41.691 l 278.855 27.906 l 282.695 27.906 l 282.695 26.035 l f
0.976471 0.717647 0.168627 rg
87.391 51.484 m 87.391 28.367 69.84 7.379 47.211 7.352 c 47.199 7.352 l
 24.57 7.379 7.02 28.367 7.016 51.484 c 7.016 91.277 l 7.605 91.457 l 7.645
 91.465 28 97.777 47.203 97.785 c 66.414 97.777 86.805 91.457 86.805 91.457
 c 87.391 91.277 l h
47.215 100.789 m 23.566 100.789 0.02 94.484 0.02 94.484 c 0.02 62.98 l 
0.02 34.586 20.328 5.066 47.203 -0.035 c 75.074 5.422 94.414 34.586 94.414
 62.98 c 94.414 94.484 l 94.414 94.484 74.688 100.789 47.215 100.789 c h
f
0.803922 0.0705882 0.152941 rg
63.801 86.867 m 63.59 86.832 63.289 86.738 62.961 86.523 c 62.336 86.102
 59.82 85.055 59.035 86.312 c 59.035 86.312 60.797 86.375 61.945 87.391 
c 61.945 87.391 63.176 87.809 63.895 87.156 c 63.98 87.082 63.992 86.902
 63.801 86.867 c h
76.551 71.789 m 76.809 71.652 76.816 71.488 76.625 71.32 c 76.426 71.145
 76.125 70.984 75.402 70.969 c 75.086 70.965 75.09 70.766 75.117 70.633 
c 75.16 70.301 75.531 70.043 76.047 69.984 c 76.324 69.91 76.375 69.727 
76.125 69.465 c 75.699 69.016 75.125 69.016 74.152 69.051 c 73.238 69.086
 72.508 67.973 73.047 67.512 c 73.41 67.199 74.148 66.508 73.512 64.633 
c 73.309 64.066 72.965 65.152 72.672 64.984 c 71.914 64.531 71.254 65.102
 70.91 65.508 c 70.762 65.684 70.629 65.688 70.531 65.508 c 70.227 64.98
 69.426 64.047 67.816 64.918 c 67.469 65.102 66.746 64.461 66.703 64.68 
c 66.445 65.934 67.086 66.676 67.633 67.066 c 67.688 67.109 67.898 67.395
 67.543 67.387 c 66.996 67.414 66.336 67.59 66.258 68.258 c 66.246 68.398
 65.566 68.363 65.598 68.555 c 65.762 69.477 67.785 70.145 69.18 69.219 
c 70.363 68.438 71.844 71.102 70.781 72.352 c 70.008 73.25 65.5 70.734 63.965
 74.004 c 63.352 75.316 64.121 76.441 63.496 76.531 c 62.867 76.621 60.031
 77.234 56.887 74.703 c 51.566 70.422 45.801 72.754 44.445 73.707 c 44.23
 73.773 44.023 73.605 44.113 73.391 c 44.332 72.84 44.238 72.324 43.973 
71.934 c 43.422 71.094 41.508 70.238 41.172 70.141 c 38.93 69.48 39.168 
67.77 39.402 67.004 c 39.473 66.773 39.387 66.633 39.145 66.676 c 38.461
 66.805 37.078 67.223 36.535 68.57 c 36.473 68.727 36.316 68.73 36.133 68.598
 c 35.301 68.004 35.594 67.141 35.789 66.758 c 35.867 66.605 35.824 66.461
 35.629 66.441 c 34.863 66.348 34.316 67.238 33.66 67.176 c 33.23 67.133
 32.727 66.805 32.453 66.613 c 32.32 66.527 32.301 66.312 32.383 66.066 
c 33.219 63.586 31.844 63.5 31.762 63.547 c 31.664 63.598 31.719 64.012 
31.32 64.074 c 29.973 64 29.59 64.879 29.516 65.531 c 29.488 65.742 29.406
 65.812 29.266 65.715 c 28.75 65.359 27.496 64.66 26.707 65.691 c 26.594
 65.836 26.219 65.684 26.012 65.594 c 25.848 65.527 25.844 65.793 25.848
 65.879 c 25.945 67.293 26.902 67.93 27.43 68.176 c 27.625 68.27 27.645 
68.371 27.488 68.484 c 27.062 68.801 26.312 69.484 26.551 70.227 c 26.594
 70.367 25.922 70.633 26.09 70.754 c 27.641 71.879 29.625 70.016 29.879 
69.812 c 30.145 69.602 31.551 69.555 35.141 71.574 c 37.422 72.859 38.617
 73.918 39.266 74.727 c 39.348 74.82 39.512 74.992 39.746 75 c 41.191 75.047
 42.621 75.262 43.738 76.246 c 43.922 76.438 44.113 76.324 44.191 76.27 
c 46.246 74.84 47.305 78.004 47.727 79.449 c 47.781 79.742 47.844 79.984
 48.156 80 c 55.719 79.637 70.047 79.688 70.047 79.688 c 70.047 79.688 71.938
 79.539 71.836 80.715 c 71.688 82.598 63.871 82.555 58.039 81.75 c 55.918
 81.461 52.844 81.293 51.023 81.996 c 50.27 82.289 49.66 82.758 49.32 83.359
 c 48.957 84.129 49.051 84.586 49.121 85.074 c 49.211 85.426 49.383 85.797
 49.629 86.191 c 51.121 88.504 54.582 88.68 55.656 88.68 c 55.859 88.68 
55.988 88.77 56.02 88.918 c 56.125 89.453 56.531 90.688 57.98 90.766 c 58.387
 90.793 58.801 90.945 59.059 91.066 c 59.23 91.145 59.34 91.098 59.309 90.945
 c 59.27 90.762 59.18 90.512 58.969 90.324 c 57.949 89.453 58.098 89.051
 58.223 88.934 c 58.293 88.879 58.383 88.906 58.461 88.98 c 61.543 91.668
 63.336 89.887 63.883 89.305 c 63.977 89.203 64 89.039 63.82 88.996 c 61.727
 88.527 60.922 86.66 56.645 86.961 c 56.125 86.992 52.625 87.168 51.516 
85.582 c 50.875 84.66 51.32 83.801 53.211 83.383 c 54.645 83.07 57.992 83.555
 59.57 83.684 c 61.113 83.812 67.844 84.652 71.375 83.637 c 72.863 83.211
 75.027 82.012 74.598 79.754 c 74.316 78.328 72.945 77.766 72.945 77.766
 c 72.945 77.766 69.07 75.039 76.02 75.008 c 78.176 75 76.051 73.223 75.941
 72.703 c 75.867 72.324 76.215 71.984 76.551 71.789 c h
64.242 70.867 m 63.699 70.395 62.734 69.879 61.207 69.934 c 60.562 69.961
 60.25 69.773 60.09 69.582 c 59.992 69.453 59.934 69.289 59.922 69.258 c
 59.832 68.938 59.949 68.598 60.121 68.332 c 60.285 68.098 60.223 67.945
 59.969 67.887 c 59.719 67.82 59.387 67.812 58.73 68.129 c 58.441 68.27 
58.359 68.09 58.32 67.957 c 58.211 67.637 58.422 67.242 58.848 66.957 c 
59.07 66.766 59.031 66.578 58.688 66.457 c 58.109 66.254 57.59 66.52 56.742
 66.988 c 56.246 67.266 55.859 67.312 55.527 66.914 c 55.336 66.695 55.355
 66.492 55.465 66.379 c 55.793 66.051 55.988 65.398 55.172 64.363 c 54.898
 64.023 54.605 64.969 54.355 64.855 c 53.23 64.328 52.312 65.016 51.961 
65.488 c 51.887 65.586 51.73 65.617 51.535 65.492 c 50.973 65.113 49.77 
64.492 49.309 65.578 c 49.234 65.734 48.574 65.332 48.582 65.641 c 48.605
 67.438 50.164 67.773 50.828 67.832 c 51.031 67.852 51.074 67.949 50.965
 68.113 c 50.699 68.504 50.379 68.965 50.555 69.504 c 50.68 69.902 49.66
 69.992 50.074 70.199 c 52.129 71.223 53.281 69.262 53.637 69.051 c 54.23
 68.711 56.91 69.582 57.238 71.035 c 57.309 71.32 56.613 71.445 55.922 71.617
 c 55.797 71.648 55.727 71.809 55.957 71.988 c 57.582 73.199 58.887 74.77
 61.828 75.062 c 62.184 75.102 62.328 74.805 62.336 74.66 c 62.395 74.203
 62.516 73.758 62.711 73.34 c 63.133 72.438 63.645 71.879 64.164 71.469 
c 64.414 71.27 64.383 70.988 64.242 70.867 c h
25.824 74.438 m 25.199 74.438 24.941 74.238 24.484 73.945 c 24.195 73.742
 24.109 74.305 24.449 75.457 c 24.723 76.363 22.953 76.848 22.531 76.426
 c 21.934 75.961 20.41 75.051 18.922 76.621 c 18.625 76.934 19.602 76.828
 19.66 77.105 c 19.746 77.508 20.113 77.754 20.27 77.914 c 20.355 78.039
 20.355 78.227 20.203 78.297 c 19.746 78.543 19.117 79.074 19.293 80.051
 c 19.316 80.188 18.516 80.234 18.785 80.48 c 20.18 81.773 21.703 80.969
 22.316 80.551 c 22.426 80.512 22.641 80.492 22.66 80.699 c 22.707 81.117
 22.492 81.398 23.328 82.094 c 23.492 82.23 22.844 82.793 23.297 82.766 
c 26.191 82.039 24.879 79.035 25.48 78.508 c 26.586 77.52 29.258 76.742 
31.77 76.203 c 31.984 76.156 32.766 75.879 32.93 75.793 c 34.957 74.758 
36.199 74.859 37.297 75.289 c 37.648 75.426 37.645 74.98 37.523 74.871 c
 33.496 71.023 30.434 72 29.348 72.695 c 28.594 73.18 27.051 73.195 26.34
 72.207 c 26.219 72.086 26 72.012 25.91 72.328 c 25.699 73.066 25.93 73.551
 26.148 74.082 c 26.285 74.359 25.945 74.438 25.824 74.438 c h
33.941 86.246 m 33.922 86.215 33.828 86.18 33.75 86.234 c 33.543 86.406
 33.41 86.66 33.41 86.953 c 33.41 87.457 33.816 87.867 34.32 87.867 c 34.566
 87.867 34.789 87.77 34.957 87.613 c 35.027 87.562 34.988 87.441 34.949 
87.41 c 34.555 87.09 34.211 86.688 33.941 86.246 c h
40.109 77.184 m 39.891 76.602 39.07 76.797 38.637 76.438 c 38.59 76.395
 38.461 76.395 38.422 76.426 c 37.988 76.797 37.18 76.613 36.918 77.246 
c 36.898 77.293 36.898 77.398 37.016 77.414 c 37.59 77.48 38.098 77.758 
38.469 78.168 c 38.5 78.207 38.598 78.242 38.68 78.145 c 39.016 77.773 39.488
 77.5 40.012 77.414 c 40.074 77.406 40.168 77.352 40.109 77.184 c h
42.18 87.512 m 42.148 87.543 42.156 87.66 42.195 87.688 c 42.344 87.801
 42.531 87.867 42.734 87.867 c 43.242 87.867 43.648 87.457 43.648 86.953
 c 43.648 86.664 43.516 86.41 43.316 86.242 c 43.262 86.191 43.16 86.254
 43.141 86.297 c 42.879 86.77 42.559 87.188 42.18 87.512 c h
33.625 89.633 m 34.203 89.766 32.949 90.73 33.77 90.688 c 34.305 90.656
 36.062 90.652 37.395 90 c 37.648 89.895 37.805 90.375 38.312 90.699 c 38.352
 90.727 38.473 90.773 38.562 90.703 c 39.09 90.379 39.273 89.91 39.527 90.02
 c 40.848 90.652 42.594 90.652 43.121 90.688 c 43.969 90.738 42.688 89.77
 43.27 89.633 c 46.273 88.934 48.5 86.387 48.5 83.352 c 48.5 82.473 48.285
 81.652 47.988 80.887 c 47.824 80.477 47.395 81.648 47.234 80.965 c 46.941
 79.727 46.641 78.797 45.988 77.562 c 45.363 76.406 44.332 78.832 44.012
 78.145 c 43.434 76.922 42.07 76.5 41.121 76.355 c 41.012 76.344 40.91 76.355
 41.043 76.48 c 41.09 76.527 41.32 76.738 41.383 77.176 c 41.391 77.223 
41.363 77.289 41.465 77.336 c 42.18 77.676 42.723 78.344 42.883 79.148 c
 43.109 79.895 43.414 80.957 43.781 81.613 c 44.594 83.062 43.602 84.816
 43.855 85.211 c 44.414 85.574 44.785 86.207 44.785 86.926 c 44.785 88.059
 43.859 88.98 42.734 88.98 c 42.121 88.98 41.574 88.711 41.203 88.289 c 
41.145 88.234 l 40.957 88.035 40.773 87.828 40.613 87.613 c 40.426 87.371
 40.469 86.938 40.789 86.852 c 42.188 86.488 43.105 83.336 42.531 82.309
 c 42.277 81.855 41.504 80.16 41.504 79.664 c 41.504 79.027 40.992 78.516
 40.359 78.516 c 39.875 78.516 39.465 78.812 39.293 79.262 c 39.293 79.262
 39.312 79.301 39.316 79.309 c 39.703 79.551 40.555 80.062 40.555 80.598
 c 40.387 82.324 l 41.082 82.41 41.406 82.789 41.492 83.449 c 41.555 83.488
 41.617 83.539 41.672 83.586 c 41.902 83.797 42.059 84.371 41.559 84.293
 c 40.848 84.16 40.047 84.184 39.266 83.969 c 39.164 83.938 39.09 83.848
 39.066 83.746 c 39.035 83.598 39.492 81.512 39.594 81.047 c 39.602 80.992
 39.566 80.965 39.539 80.965 c 39.227 80.988 38.66 81.016 38.52 81.016 c
 38.387 81.012 37.832 80.984 37.504 80.957 c 37.473 80.953 37.422 80.996
 37.434 81.043 c 37.539 81.535 37.996 83.609 37.996 83.609 c 38.008 83.695
 37.996 83.789 37.949 83.859 c 37.797 84.055 35.766 84.23 35.492 84.281 
c 35.375 84.301 35.262 84.258 35.188 84.16 c 34.988 83.875 35.34 83.555 
35.566 83.422 c 35.652 82.781 35.988 82.41 36.664 82.324 c 36.672 82.312
 36.684 82.297 36.691 82.293 c 36.672 82.176 36.5 80.578 36.5 80.566 c 36.5
 80.016 37.34 79.551 37.754 79.305 c 37.777 79.277 37.809 79.238 37.812 
79.203 c 37.613 78.801 37.219 78.516 36.762 78.516 c 36.125 78.516 35.613
 79.027 35.613 79.664 c 35.613 80.074 34.855 81.848 34.566 82.328 c 33.961
 83.379 34.863 86.484 36.316 86.852 c 36.633 86.926 36.793 87.383 36.551
 87.621 c 35.941 88.227 35.246 88.98 34.32 88.98 c 33.191 88.98 32.273 88.059
 32.273 86.926 c 32.273 85.625 33.27 85.422 33.203 85.059 c 32.801 83.855
 32.793 82.539 33.336 81.613 c 33.711 80.969 33.996 79.941 34.223 79.211
 c 34.355 78.457 34.812 77.812 35.457 77.434 c 35.777 77.25 35.621 77 35.754
 76.734 c 35.816 76.605 35.922 76.52 36.004 76.449 c 36.141 76.344 36.035
 76.316 35.922 76.336 c 34.965 76.457 33.492 76.859 32.883 78.145 c 32.562
 78.832 31.523 76.406 30.91 77.562 c 30.254 78.797 29.953 79.727 29.66 80.965
 c 29.5 81.648 29.07 80.477 28.906 80.887 c 28.605 81.652 28.395 82.473 
28.395 83.352 c 28.395 86.387 30.625 88.934 33.625 89.633 c h
73.852 93.02 m 66.426 94.586 56.629 96.145 47.203 96.145 c 33.062 96.152
 18.105 92.629 11.535 90.867 c 10.227 90.516 9.25 90.234 8.684 90.07 c 8.684
 57.844 l 12.938 58.531 30.531 61.207 47.203 61.207 c 63.879 61.207 81.465
 58.531 85.727 57.844 c 85.727 90.07 l 85.156 90.234 84.184 90.516 82.871
 90.867 c 80.68 91.453 77.562 92.234 73.852 93.02 c h
f
0.992157 0.886275 0.678431 rg
31.688 63.781 m 31.582 64.035 31.461 64.094 30.996 64.125 c 30.562 64.152
 30.207 64.316 29.949 64.602 c 29.746 64.828 29.645 65.059 29.52 65.57 c
 29.488 65.703 29.441 65.781 29.395 65.781 c 29.352 65.781 29.172 65.695
 28.992 65.586 c 28.098 65.062 27.332 65.066 26.824 65.602 c 26.637 65.801
 26.539 65.816 26.227 65.707 c 26.109 65.664 25.984 65.641 25.949 65.656
 c 25.801 65.711 25.914 66.391 26.16 66.906 c 26.371 67.352 26.844 67.84
 27.301 68.082 c 27.473 68.172 27.605 68.277 27.605 68.32 c 27.605 68.359
 27.422 68.574 27.195 68.793 c 26.695 69.285 26.551 69.555 26.551 69.996
 c 26.551 70.305 l 26.066 70.727 l 26.383 70.883 l 27.227 71.297 28.215 
71.047 29.473 70.098 c 29.984 69.711 l 30.34 69.711 l 31.207 69.711 32.48
 70.156 34.273 71.086 c 35.312 71.629 36.035 72.055 36.867 72.613 c 37.758
 73.215 38.242 73.617 38.953 74.332 c 39.57 74.953 l 40.059 74.988 l 41.688
 75.105 42.605 75.387 43.52 76.047 c 43.969 76.371 43.988 76.375 44.328 
76.16 c 44.609 75.98 44.879 75.898 45.188 75.902 c 46.152 75.914 46.91 76.879
 47.598 78.984 c 47.797 79.586 47.914 79.871 47.984 79.918 c 48.066 79.973
 48.418 79.973 50.137 79.906 c 53.594 79.777 56.812 79.73 63.914 79.699 
c 70.723 79.668 l 71.086 79.777 l 71.551 79.922 71.793 80.145 71.844 80.48
 c 71.98 81.391 70.84 81.918 68.137 82.199 c 67.719 82.242 66.773 82.262
 65.211 82.258 c 62.598 82.254 61.609 82.191 58.629 81.848 c 56.367 81.582
 55.918 81.547 54.629 81.547 c 52.098 81.543 50.727 81.906 49.809 82.824
 c 49.406 83.223 49.273 83.457 49.145 83.957 c 48.809 85.27 49.875 86.961
 51.57 87.809 c 52.473 88.262 53.812 88.566 55.266 88.652 c 55.574 88.668
 55.867 88.703 55.914 88.73 c 55.961 88.754 56.035 88.898 56.082 89.055 
c 56.219 89.535 56.402 89.867 56.695 90.16 c 57.051 90.52 57.355 90.652 
58.016 90.754 c 58.301 90.797 58.684 90.891 58.867 90.961 c 59.277 91.121
 59.344 91.086 59.223 90.777 c 59.168 90.645 58.98 90.402 58.723 90.141 
c 58.18 89.582 57.984 89.152 58.191 88.945 c 58.301 88.84 58.316 88.844 
58.637 89.094 c 60.176 90.285 61.332 90.629 62.48 90.23 c 62.898 90.082 
63.227 89.879 63.629 89.508 c 64.023 89.152 64.004 89.09 63.469 88.918 c
 63.02 88.777 62.738 88.645 61.699 88.074 c 60.609 87.477 60.016 87.254 
59.023 87.066 c 58.66 87 58.234 86.984 56.613 86.977 c 54.816 86.973 54.602
 86.965 54.062 86.863 c 52.59 86.594 51.777 86.145 51.363 85.359 c 51.211
 85.078 51.191 84.676 51.316 84.418 c 51.504 84.023 52.121 83.648 52.957
 83.43 c 53.34 83.328 53.574 83.301 54.285 83.281 c 55.277 83.254 55.766
 83.285 58.852 83.586 c 62.828 83.977 63.812 84.047 65.926 84.086 c 70.121
 84.172 72.414 83.633 73.785 82.238 c 74.648 81.359 74.859 80.227 74.352
 79.156 c 74.141 78.707 73.605 78.156 73.129 77.891 c 72.945 77.789 72.645
 77.559 72.465 77.379 c 71.598 76.523 71.684 75.754 72.684 75.406 c 73.387
 75.16 73.934 75.082 75.309 75.016 c 75.887 74.988 76.445 74.941 76.543 
74.918 c 77.129 74.758 77.078 74.395 76.34 73.379 c 75.918 72.801 75.871
 72.688 75.941 72.422 c 75.992 72.238 76.102 72.117 76.578 71.719 c 76.66
 71.645 76.73 71.562 76.73 71.531 c 76.73 71.422 76.422 71.195 76.172 71.117
 c 76.035 71.074 75.758 71.027 75.562 71.008 c 75.129 70.969 75.031 70.879
 75.113 70.586 c 75.195 70.281 75.402 70.133 75.996 69.949 c 76.176 69.895
 76.219 69.859 76.23 69.754 c 76.242 69.652 76.199 69.582 76.023 69.43 c
 75.715 69.16 75.504 69.105 74.57 69.074 c 73.871 69.051 73.734 69.031 73.562
 68.941 c 73.141 68.715 72.852 68.285 72.852 67.895 c 72.852 67.719 72.887
 67.656 73.168 67.352 c 73.773 66.691 73.879 65.988 73.543 64.855 c 73.477
 64.641 73.41 64.504 73.367 64.504 c 73.332 64.504 73.223 64.594 73.129 
64.707 c 72.836 65.047 72.797 65.059 72.508 64.945 c 72.016 64.75 71.637
 64.867 71.07 65.379 c 70.887 65.547 70.715 65.684 70.691 65.684 c 70.664
 65.684 70.582 65.602 70.508 65.5 c 70.215 65.109 69.875 64.812 69.59 64.707
 c 69.125 64.531 68.547 64.586 68.016 64.859 c 67.754 64.992 67.535 64.98
 67.129 64.805 c 66.941 64.727 66.77 64.668 66.754 64.68 c 66.684 64.723
 66.656 65.344 66.711 65.621 c 66.809 66.102 66.988 66.414 67.383 66.801
 c 67.875 67.277 67.867 67.352 67.324 67.441 c 66.719 67.539 66.422 67.75
 66.316 68.148 c 66.289 68.25 66.23 68.34 66.18 68.352 c 66.133 68.363 65.988
 68.402 65.859 68.438 c 65.637 68.492 65.625 68.508 65.656 68.625 c 65.77
 69.086 66.465 69.504 67.289 69.609 c 67.922 69.688 68.504 69.57 69.098 
69.238 c 69.324 69.113 69.457 69.07 69.637 69.074 c 70.418 69.074 71.148
 70.145 71.152 71.293 c 71.152 71.68 71.137 71.746 70.984 72.051 c 70.762
 72.488 70.629 72.559 70.051 72.559 c 69.82 72.559 69.203 72.504 68.676 
72.438 c 67.551 72.289 66.656 72.273 66.09 72.391 c 65.344 72.539 64.715
 72.922 64.336 73.457 c 63.844 74.152 63.758 74.465 63.758 75.559 c 63.762
 76.004 63.742 76.395 63.723 76.426 c 63.66 76.527 63.453 76.578 62.852 
76.641 c 61.18 76.812 59.469 76.402 57.934 75.465 c 57.711 75.332 57.27 
75.023 56.949 74.785 c 55.551 73.727 54.656 73.234 53.324 72.773 c 51.773
 72.238 49.691 72.109 47.926 72.438 c 46.719 72.664 45.215 73.211 44.598
 73.648 c 44.43 73.766 44.25 73.766 44.141 73.645 c 44.055 73.551 44.055
 73.531 44.137 73.227 c 44.293 72.648 44.141 72.105 43.688 71.656 c 43.199
 71.168 42.164 70.566 41.031 70.121 c 40.195 69.789 39.859 69.559 39.566
 69.094 c 39.25 68.602 39.164 67.918 39.328 67.199 c 39.371 67.012 39.395
 66.824 39.379 66.785 c 39.316 66.625 38.707 66.762 38.02 67.09 c 37.637
 67.277 37.488 67.383 37.188 67.691 c 36.984 67.898 36.738 68.211 36.645
 68.387 c 36.492 68.66 36.453 68.703 36.336 68.695 c 36.145 68.68 35.828
 68.402 35.688 68.121 c 35.523 67.793 35.523 67.418 35.688 66.949 c 35.844
 66.504 35.809 66.445 35.426 66.484 c 35.227 66.504 35.055 66.57 34.762 
66.746 c 34.043 67.168 33.906 67.219 33.629 67.188 c 33.359 67.156 32.652
 66.828 32.445 66.637 c 32.285 66.488 32.289 66.336 32.457 65.738 c 32.562
 65.363 32.59 65.156 32.59 64.75 c 32.594 64.289 32.578 64.211 32.469 64.016
 c 32.348 63.793 32.047 63.574 31.867 63.57 c 31.809 63.57 31.746 63.645
 31.688 63.781 c h
f
54.727 64.605 m 54.449 64.906 l 54.113 64.805 l 53.367 64.57 52.695 64.766
 52.098 65.383 c 51.977 65.508 51.859 65.586 51.785 65.586 c 51.723 65.586
 51.488 65.488 51.27 65.367 c 50.34 64.863 49.73 64.891 49.418 65.449 c 
49.305 65.648 49.242 65.664 48.902 65.586 c 48.625 65.52 48.594 65.566 48.641
 65.965 c 48.691 66.383 48.906 66.832 49.199 67.121 c 49.562 67.48 49.988
 67.656 50.883 67.824 c 51.039 67.855 51.07 67.98 50.965 68.16 c 50.914 
68.242 50.797 68.453 50.707 68.629 c 50.551 68.93 50.539 68.973 50.562 69.301
 c 50.594 69.699 50.547 69.781 50.203 69.957 c 50.094 70.012 50.008 70.074
 50.008 70.098 c 50.008 70.125 50.156 70.203 50.34 70.277 c 50.59 70.383
 50.777 70.418 51.113 70.438 c 51.883 70.473 52.352 70.246 53.219 69.422
 c 53.699 68.961 l 54.148 68.984 l 55.082 69.035 56.375 69.652 56.883 70.297
 c 57.094 70.562 57.293 71.012 57.254 71.137 c 57.211 71.273 57.012 71.367
 56.402 71.523 c 55.965 71.637 55.875 71.676 55.863 71.762 c 55.852 71.84
 56.051 72.023 56.797 72.617 c 57.883 73.484 58.227 73.734 58.777 74.059
 c 59.629 74.559 60.801 74.945 61.652 75 c 62.047 75.027 62.074 75.023 62.18
 74.906 c 62.254 74.828 62.309 74.68 62.34 74.488 c 62.5 73.488 63.027 72.523
 63.859 71.707 c 64.215 71.355 64.305 71.238 64.305 71.125 c 64.305 70.926
 64.035 70.695 63.492 70.422 c 62.859 70.105 62.426 70.008 61.43 69.961 
c 60.523 69.918 60.348 69.875 60.117 69.629 c 59.832 69.324 59.805 68.949
 60.039 68.426 c 60.195 68.078 l 60.074 67.98 l 59.973 67.895 59.906 67.887
 59.613 67.906 c 59.402 67.922 59.148 67.98 58.961 68.059 c 58.473 68.266
 58.352 68.23 58.285 67.883 c 58.238 67.637 58.383 67.344 58.703 67.039 
c 58.836 66.91 58.949 66.773 58.949 66.738 c 58.949 66.543 58.535 66.395
 58.125 66.434 c 57.934 66.453 57.656 66.562 57.105 66.832 c 56.484 67.141
 56.305 67.207 56.113 67.207 c 55.832 67.203 55.598 67.078 55.461 66.852
 c 55.336 66.645 55.336 66.516 55.461 66.355 c 55.73 66.012 55.773 65.586
 55.586 65.129 c 55.453 64.805 55.176 64.375 55.074 64.332 c 55.031 64.316
 54.895 64.426 54.727 64.605 c h
f
59.941 85.773 m 59.668 85.832 59.266 86.055 59.168 86.199 c 59.098 86.312
 59.098 86.316 59.238 86.316 c 59.453 86.316 60.125 86.453 60.477 86.566
 c 60.922 86.711 61.258 86.879 61.668 87.152 c 62.043 87.41 62.328 87.492
 62.805 87.492 c 63.328 87.492 63.973 87.191 63.895 86.984 c 63.879 86.945
 63.738 86.875 63.582 86.832 c 63.426 86.785 63.109 86.645 62.879 86.512
 c 61.887 85.953 60.617 85.633 59.941 85.773 c h
f
35.547 76.418 m 34.32 76.664 33.367 77.27 32.957 78.066 c 32.781 78.41 
32.688 78.379 32.043 77.766 c 31.301 77.055 31.188 77.082 30.699 78.086 
c 30.293 78.918 30.055 79.555 29.844 80.375 c 29.672 81.031 29.602 81.207
 29.512 81.207 c 29.48 81.207 29.352 81.117 29.223 81.008 c 28.945 80.777
 28.969 80.754 28.746 81.453 c 28.488 82.258 28.426 82.742 28.457 83.609
 c 28.477 84.219 28.512 84.469 28.609 84.836 c 28.953 86.078 29.492 86.98
 30.426 87.875 c 31.219 88.637 32.336 89.266 33.379 89.539 c 33.859 89.664
 33.879 89.711 33.645 90.219 c 33.535 90.449 33.504 90.562 33.539 90.598
 c 33.633 90.691 34.895 90.625 35.688 90.488 c 36.098 90.418 36.836 90.215
 37.094 90.102 c 37.523 89.918 37.5 89.91 37.887 90.285 c 38.402 90.777 
38.398 90.777 38.742 90.52 c 38.898 90.402 39.094 90.238 39.172 90.152 c
 39.25 90.07 39.363 90 39.418 90 c 39.473 90 39.734 90.078 39.996 90.172
 c 40.863 90.48 42.238 90.68 43.266 90.641 c 43.418 90.637 43.41 90.5 43.227
 90.16 c 43.07 89.867 43.055 89.715 43.18 89.652 c 43.219 89.633 43.5 89.535
 43.801 89.441 c 46.16 88.703 47.914 86.789 48.367 84.461 c 48.523 83.676
 48.477 82.613 48.254 81.797 c 48.152 81.422 47.938 80.812 47.906 80.812
 c 47.895 80.812 47.785 80.902 47.668 81.008 c 47.465 81.199 47.34 81.25
 47.289 81.168 c 47.273 81.145 47.176 80.805 47.066 80.41 c 46.816 79.5 
46.59 78.891 46.211 78.094 c 45.719 77.062 45.59 77.043 44.734 77.863 c 
44.207 78.371 44.152 78.379 43.879 77.969 c 43.379 77.207 42.703 76.766 
41.621 76.488 c 41.414 76.434 41.191 76.391 41.125 76.391 c 41 76.391 l 
41.102 76.504 l 41.238 76.652 41.348 76.875 41.387 77.094 c 41.418 77.246
 41.457 77.297 41.625 77.383 c 41.906 77.527 42.5 78.133 42.652 78.43 c 
42.719 78.566 42.832 78.875 42.906 79.117 c 43.207 80.129 43.453 80.824 
43.723 81.43 c 43.883 81.781 44.035 82.188 44.066 82.336 c 44.148 82.707
 44.098 83.676 43.969 84.238 c 43.914 84.484 43.863 84.789 43.859 84.914
 c 43.852 85.129 43.863 85.152 44.094 85.355 c 45.199 86.328 44.957 88.164
 43.637 88.781 c 42.98 89.09 42.227 89.051 41.633 88.684 c 41.383 88.527
 40.832 87.965 40.633 87.66 c 40.352 87.242 40.438 86.992 40.945 86.754 
c 41.762 86.367 42.453 85.098 42.645 83.629 c 42.73 82.988 42.668 82.68 
42.293 81.879 c 41.844 80.926 41.574 80.191 41.488 79.703 c 41.391 79.137
 41.23 78.875 40.875 78.691 c 40.562 78.527 40.211 78.512 39.91 78.645 c
 39.707 78.738 39.348 79.109 39.348 79.223 c 39.348 79.258 39.484 79.379
 39.656 79.496 c 40.086 79.789 40.398 80.09 40.5 80.32 c 40.586 80.508 40.586
 80.551 40.504 81.375 c 40.457 81.848 40.434 82.254 40.449 82.277 c 40.465
 82.305 40.551 82.34 40.641 82.355 c 41.027 82.43 41.391 82.816 41.484 83.266
 c 41.504 83.355 41.582 83.484 41.656 83.547 c 41.902 83.754 41.98 84.152
 41.797 84.27 c 41.703 84.328 40.434 84.207 39.672 84.07 c 39.195 83.984
 39.055 83.895 39.055 83.672 c 39.055 83.598 39.164 82.996 39.297 82.336
 c 39.434 81.672 39.543 81.105 39.543 81.074 c 39.543 81.027 39.301 81.016
 38.586 81.016 c 38.062 81.016 37.609 81.004 37.578 80.984 c 37.457 80.91
 37.492 81.18 37.754 82.375 c 37.922 83.141 38.023 83.703 38.004 83.777 
c 37.984 83.855 37.918 83.918 37.812 83.953 c 37.633 84.016 36.707 84.16
 35.871 84.254 c 35.355 84.312 35.316 84.312 35.223 84.227 c 35.16 84.172
 35.121 84.078 35.121 83.969 c 35.121 83.832 35.168 83.754 35.344 83.574
 c 35.465 83.453 35.566 83.32 35.566 83.273 c 35.566 83.23 35.621 83.082
 35.684 82.941 c 35.824 82.641 36.125 82.398 36.414 82.352 c 36.52 82.336
 36.617 82.293 36.629 82.254 c 36.645 82.219 36.621 81.879 36.578 81.5 c
 36.48 80.652 36.477 80.402 36.566 80.234 c 36.668 80.039 36.961 79.777 
37.395 79.488 c 37.605 79.352 37.777 79.219 37.777 79.199 c 37.777 79.102
 37.441 78.781 37.23 78.676 c 36.91 78.512 36.598 78.512 36.262 78.68 c 
35.898 78.859 35.73 79.125 35.641 79.645 c 35.543 80.191 35.113 81.332 34.668
 82.215 c 34.371 82.801 34.332 83.301 34.512 84.152 c 34.703 85.066 35.168
 85.984 35.664 86.434 c 35.781 86.539 36.008 86.684 36.176 86.758 c 36.566
 86.938 36.672 87.055 36.672 87.324 c 36.672 87.523 36.645 87.566 36.352
 87.863 c 35.91 88.312 35.332 88.742 34.992 88.871 c 34.641 89.004 34.086
 89.02 33.711 88.902 c 33.164 88.738 32.695 88.32 32.434 87.762 c 32.312
 87.496 32.297 87.418 32.297 86.93 c 32.297 86.445 32.312 86.359 32.43 86.109
 c 32.5 85.957 32.695 85.684 32.863 85.504 c 33.207 85.137 33.191 85.242
 33.012 84.398 c 32.875 83.754 32.875 82.938 33.016 82.387 c 33.074 82.16
 33.238 81.73 33.387 81.434 c 33.621 80.957 34.238 79.199 34.238 79.012 
c 34.238 78.891 34.527 78.305 34.707 78.062 c 34.801 77.93 35.047 77.699
 35.246 77.547 c 35.602 77.281 35.609 77.266 35.668 76.984 c 35.707 76.773
 35.762 76.656 35.867 76.559 c 36.109 76.324 36.082 76.312 35.547 76.418
 c h
f
42.969 86.625 m 42.844 86.824 42.617 87.113 42.469 87.27 c 42.32 87.426
 42.195 87.582 42.195 87.617 c 42.195 87.699 42.547 87.84 42.754 87.84 c
 42.84 87.84 43.012 87.789 43.133 87.727 c 43.613 87.484 43.762 86.902 43.457
 86.457 c 43.398 86.367 43.312 86.285 43.273 86.277 c 43.227 86.27 43.113
 86.398 42.969 86.625 c h
f
33.684 86.355 m 33.379 86.676 33.371 87.219 33.664 87.535 c 33.824 87.707
 34.109 87.84 34.328 87.84 c 34.52 87.84 34.93 87.656 34.961 87.559 c 34.973
 87.531 34.824 87.348 34.633 87.156 c 34.445 86.965 34.211 86.688 34.113
 86.539 c 34.016 86.395 33.906 86.262 33.871 86.25 c 33.836 86.234 33.75
 86.285 33.684 86.355 c h
f
38.34 76.508 m 38.285 76.547 38.02 76.645 37.742 76.73 c 37.332 76.859 
37.219 76.914 37.094 77.059 c 36.906 77.27 36.902 77.363 37.074 77.402 c
 37.496 77.496 37.633 77.547 37.898 77.695 c 38.059 77.785 38.258 77.926
 38.336 78.008 c 38.512 78.195 38.605 78.199 38.762 78.031 c 39.008 77.77
 39.434 77.535 39.875 77.422 c 40.094 77.367 40.121 77.312 40.031 77.113
 c 39.961 76.957 39.695 76.816 39.281 76.715 c 39.094 76.672 38.859 76.59
 38.754 76.539 c 38.531 76.422 38.469 76.418 38.34 76.508 c h
f
31.07 72.113 m 30.543 72.203 30.16 72.332 29.52 72.637 c 28.941 72.914 
28.793 72.965 28.414 73.012 c 27.648 73.109 26.988 72.898 26.465 72.391 
c 26.309 72.238 26.164 72.117 26.141 72.117 c 25.973 72.117 25.805 72.707
 25.863 73.09 c 25.883 73.215 25.961 73.5 26.043 73.723 c 26.125 73.945 
26.184 74.176 26.172 74.238 c 26.148 74.426 25.941 74.488 25.543 74.434 
c 25.227 74.391 24.93 74.266 24.469 73.977 c 24.379 73.922 24.355 73.922
 24.316 73.984 c 24.23 74.113 24.262 74.535 24.398 75.129 c 24.531 75.707
 l 24.426 75.918 l 24.23 76.324 23.598 76.617 22.988 76.578 c 22.711 76.562
 22.633 76.535 22.371 76.355 c 21.969 76.078 21.609 75.918 21.172 75.82 
c 20.52 75.676 19.855 75.863 19.23 76.375 c 18.859 76.68 18.836 76.762 19.117
 76.832 c 19.605 76.961 19.641 76.98 19.703 77.164 c 19.734 77.262 19.891
 77.48 20.047 77.652 c 20.426 78.055 20.434 78.184 20.102 78.398 c 19.566
 78.742 19.344 79.113 19.305 79.727 c 19.281 80.137 l 19.023 80.234 l 18.879
 80.285 18.766 80.348 18.766 80.371 c 18.766 80.438 19.137 80.738 19.395
 80.875 c 20.133 81.277 20.945 81.242 21.891 80.762 c 22.152 80.629 22.418
 80.52 22.48 80.52 c 22.629 80.52 22.695 80.652 22.695 80.957 c 22.695 81.301
 22.789 81.504 23.117 81.848 c 23.398 82.145 l 23.293 82.363 l 23.133 82.691
 23.145 82.746 23.371 82.707 c 23.672 82.652 24.223 82.367 24.492 82.125
 c 24.629 82 24.809 81.77 24.891 81.613 c 25.156 81.117 25.203 80.867 25.25
 79.801 c 25.273 79.258 25.316 78.758 25.344 78.688 c 25.508 78.258 26.777
 77.594 28.492 77.039 c 29.277 76.785 29.668 76.68 30.875 76.391 c 32.039
 76.109 32.426 75.98 33.293 75.598 c 34.84 74.914 35.859 74.801 37.066 75.184
 c 37.391 75.289 37.441 75.293 37.508 75.23 c 37.637 75.098 37.586 74.996
 37.207 74.637 c 35.887 73.379 34.32 72.504 32.836 72.191 c 32.387 72.098
 31.43 72.055 31.07 72.113 c h
f
0.0666667 0.25098 0.419608 rg
59.016 41.898 m 59.016 29.93 l 56.652 29.93 50.438 29.934 50.316 29.934
 c 49.375 29.934 48.535 29.516 47.973 28.852 c 47.973 38.879 l 47.973 40.57
 49.297 41.898 51.016 41.898 c 51.168 41.898 51.336 41.918 51.48 41.898 
c h
59.91 31.176 m 61.605 31.176 l 61.605 29.934 l 59.91 29.934 l h
59.91 34.496 m 61.605 34.496 l 61.605 33.25 l 59.91 33.25 l h
59.91 37.812 m 61.605 37.812 l 61.605 36.57 l 59.91 36.57 l h
59.91 41.133 m 61.605 41.133 l 61.605 39.887 l 59.91 39.887 l h
66.082 40.23 m 69.984 38.379 l 71.367 42.414 l 72.816 38.355 l 76.652 40.23
 l 74.805 36.328 l 78.84 34.934 l 74.773 33.488 l 76.652 29.648 l 72.754
 31.496 l 71.367 27.457 l 69.918 31.52 l 66.082 29.648 l 67.934 33.551 l
 63.895 34.934 l 67.953 36.387 l h
52.496 14.316 m 48.602 16.168 l 47.215 12.117 l 45.766 16.195 l 41.93 14.316
 l 43.777 18.215 l 39.742 19.609 l 43.801 21.059 l 41.93 24.895 l 45.82 
23.047 l 47.215 27.086 l 48.664 23.023 l 52.496 24.895 l 50.648 20.996 l
 54.688 19.609 l 50.625 18.156 l h
35.398 29.93 m 35.398 41.898 l 42.934 41.898 l 43.074 41.918 43.246 41.898
 43.395 41.898 c 45.117 41.898 46.441 40.57 46.441 38.879 c 46.441 28.852
 l 45.879 29.516 45.039 29.934 44.098 29.934 c 43.973 29.934 37.758 29.93
 35.398 29.93 c h
34.496 39.887 m 32.805 39.887 l 32.805 41.133 l 34.496 41.133 l h
34.496 36.57 m 32.805 36.57 l 32.805 37.812 l 34.496 37.812 l h
34.496 33.25 m 32.805 33.25 l 32.805 34.496 l 34.496 34.496 l h
34.496 29.934 m 32.805 29.934 l 32.805 31.176 l 34.496 31.176 l h
28.328 29.648 m 24.492 31.52 l 23.043 27.457 l 21.66 31.496 l 17.758 29.648
 l 19.637 33.488 l 15.574 34.934 l 19.609 36.328 l 17.758 40.23 l 21.594
 38.355 l 23.043 42.414 l 24.434 38.379 l 28.328 40.23 l 26.457 36.387 l
 30.516 34.934 l 26.477 33.551 l h
41.934 54.512 m 45.824 52.664 l 47.215 56.707 l 48.66 52.641 l 52.496 54.512
 l 50.645 50.617 l 54.688 49.227 l 50.625 47.777 l 52.496 43.938 l 48.605
 45.785 l 47.215 41.746 l 45.766 45.809 l 41.934 43.938 l 43.777 47.84 l
 39.742 49.227 l 43.801 50.676 l h
56.348 59.207 m 53.324 59.359 50.25 59.453 47.203 59.453 c 44.168 59.453
 41.094 59.359 38.078 59.207 c 38.078 44.152 l 9.293 44.152 l 10.496 36.934
 13.434 30.164 17.66 24.535 c 18.23 25.336 19.16 25.859 20.219 25.859 c 
38.078 25.859 l 38.078 10.203 l 40.996 9.402 44.043 8.961 47.199 8.961 c
 47.199 8.832 l 47.211 8.832 l 47.211 8.961 l 50.371 8.961 53.426 9.402 
56.348 10.211 c 56.348 25.859 l 74.211 25.859 l 75.258 25.859 76.188 25.344
 76.762 24.547 c 80.98 30.172 83.918 36.938 85.113 44.152 c 56.348 44.152
 l h
44.527 39.418 m 37.082 39.418 l 37.082 38.289 l 44.527 38.289 l h
44.527 33.246 m 37.082 33.246 l 37.082 32.117 l 44.527 32.117 l h
44.527 36.332 m 37.082 36.332 l 37.082 35.203 l 44.527 35.203 l h
49.887 38.289 m 57.328 38.289 l 57.328 39.418 l 49.887 39.418 l h
49.887 32.117 m 57.328 32.117 l 57.328 33.246 l 49.887 33.246 l h
49.887 35.203 m 57.328 35.203 l 57.328 36.332 l 49.887 36.332 l 49.887 
35.203 l f
0.976471 0.717647 0.168627 rg
22.359 29.492 m 21.98 30.594 21.664 31.496 21.652 31.496 c 21.641 31.496
 20.77 31.086 19.715 30.586 c 18.66 30.086 17.797 29.68 17.793 29.684 c 
17.789 29.684 18.207 30.543 18.719 31.586 c 19.23 32.629 19.641 33.488 19.637
 33.496 c 19.629 33.5 18.723 33.824 17.621 34.215 c 16.523 34.605 15.625
 34.93 15.629 34.938 c 15.633 34.941 16.527 35.254 17.625 35.629 c 18.719
 36.008 19.613 36.32 19.613 36.328 c 19.613 36.336 19.203 37.207 18.703 
38.262 c 18.199 39.32 17.793 40.188 17.793 40.191 c 17.797 40.195 18.648
 39.781 19.684 39.277 c 20.719 38.773 21.578 38.359 21.586 38.355 c 21.598
 38.355 21.93 39.262 22.324 40.371 c 23 42.266 23.043 42.383 23.062 42.328
 c 23.566 40.859 24.418 38.398 24.426 38.387 c 24.434 38.379 25.305 38.781
 26.363 39.285 c 27.422 39.785 28.289 40.195 28.293 40.191 c 28.297 40.188
 27.883 39.336 27.375 38.297 c 26.871 37.254 26.457 36.398 26.461 36.387
 c 26.465 36.379 27.352 36.059 28.43 35.672 c 29.508 35.285 30.41 34.961
 30.434 34.949 c 30.473 34.934 30.277 34.863 28.863 34.379 c 27.973 34.074
 27.074 33.766 26.859 33.691 c 26.547 33.586 26.473 33.551 26.48 33.531 
c 26.484 33.516 26.895 32.645 27.395 31.594 c 27.891 30.547 28.297 29.684
 28.293 29.684 c 28.293 29.68 27.434 30.094 26.391 30.605 c 25.344 31.117
 24.488 31.531 24.484 31.527 c 24.48 31.523 23.148 27.785 23.07 27.566 c
 23.043 27.484 l h
f
70.645 29.512 m 70.254 30.609 69.93 31.512 69.926 31.52 c 69.918 31.523
 69.062 31.117 68.023 30.609 c 66.984 30.102 66.133 29.691 66.125 29.695
 c 66.121 29.699 66.527 30.562 67.023 31.613 c 67.523 32.66 67.934 33.527
 67.938 33.539 c 67.941 33.547 67.094 33.848 65.949 34.242 c 64.848 34.617
 63.949 34.93 63.949 34.934 c 63.949 34.941 64.844 35.266 65.938 35.656 
c 67.031 36.047 67.934 36.371 67.945 36.375 c 67.957 36.383 67.633 37.07
 67.043 38.281 c 66.535 39.32 66.121 40.176 66.125 40.184 c 66.129 40.191
 66.996 39.785 68.055 39.285 c 69.113 38.781 69.984 38.375 69.988 38.379
 c 69.992 38.383 70.301 39.277 70.676 40.367 c 71.047 41.453 71.355 42.348
 71.363 42.355 c 71.371 42.363 71.695 41.469 72.086 40.367 c 72.477 39.27
 72.809 38.367 72.816 38.363 c 72.828 38.359 73.688 38.77 74.727 39.277 
c 75.766 39.785 76.617 40.199 76.617 40.195 c 76.621 40.191 76.215 39.324
 75.715 38.27 c 75.215 37.215 74.805 36.344 74.805 36.336 c 74.805 36.324
 75.699 36.008 76.793 35.629 c 77.887 35.254 78.781 34.941 78.781 34.934
 c 78.781 34.93 77.887 34.605 76.789 34.215 c 75.691 33.824 74.789 33.5 
74.781 33.492 c 74.773 33.488 75.184 32.633 75.691 31.594 c 76.199 30.555
 76.609 29.699 76.605 29.695 c 76.602 29.691 75.738 30.094 74.688 30.59 
c 73.637 31.09 72.77 31.496 72.762 31.496 c 72.75 31.496 72.734 31.477 72.727
 31.449 c 72.715 31.422 72.41 30.527 72.043 29.461 c 71.676 28.391 71.371
 27.52 71.367 27.52 c 71.359 27.52 71.035 28.414 70.645 29.512 c h
f
46.496 14.176 m 46.102 15.277 45.773 16.184 45.766 16.188 c 45.754 16.191
 44.898 15.781 43.863 15.273 c 42.828 14.77 41.977 14.359 41.973 14.363 
c 41.969 14.367 43.723 18.094 43.789 18.211 c 43.789 18.219 42.887 18.535
 41.781 18.914 c 39.77 19.609 l 41.785 20.328 l 42.891 20.723 43.801 21.051
 43.801 21.059 c 43.805 21.062 43.391 21.922 42.883 22.965 c 42.289 24.184
 41.965 24.859 41.984 24.855 c 42 24.848 42.871 24.438 43.914 23.941 c 44.961
 23.445 45.82 23.043 45.828 23.051 c 45.836 23.059 46.148 23.957 46.523 
25.047 c 46.898 26.141 47.211 27.031 47.215 27.031 c 47.219 27.031 47.543
 26.133 47.938 25.035 c 48.328 23.934 48.656 23.031 48.664 23.027 c 48.672
 23.02 49.527 23.434 50.562 23.941 c 51.602 24.445 52.453 24.859 52.457 
24.855 c 52.457 24.852 52.051 23.984 51.551 22.922 c 50.637 20.996 l 50.684
 20.977 l 50.711 20.965 51.613 20.656 52.688 20.285 c 53.762 19.918 54.641
 19.613 54.645 19.609 c 54.648 19.605 53.742 19.281 52.633 18.887 c 51.527
 18.488 50.621 18.16 50.621 18.156 c 50.621 18.148 51.035 17.297 51.539 
16.254 c 52.047 15.215 52.457 14.363 52.453 14.359 c 52.449 14.355 51.582
 14.762 50.523 15.266 c 49.465 15.766 48.598 16.176 48.594 16.172 c 48.594
 16.172 48.285 15.273 47.91 14.18 c 47.535 13.086 47.227 12.188 47.219 12.18
 c 47.211 12.172 46.887 13.07 46.496 14.176 c h
f
46.488 43.809 m 45.77 45.82 l 45.551 45.715 l 45.43 45.656 44.578 45.242
 43.656 44.789 c 42.734 44.34 41.977 43.973 41.973 43.977 c 41.969 43.98
 42.375 44.844 42.871 45.898 c 43.371 46.953 43.777 47.824 43.777 47.832
 c 43.777 47.844 42.883 48.16 41.789 48.535 c 40.695 48.91 39.801 49.223
 39.801 49.227 c 39.801 49.234 40.695 49.559 41.793 49.949 c 42.887 50.34
 43.793 50.664 43.797 50.672 c 43.805 50.676 43.398 51.531 42.891 52.57 
c 42.383 53.613 41.973 54.465 41.977 54.469 c 41.98 54.473 42.848 54.066
 43.902 53.566 c 44.957 53.066 45.82 52.656 45.828 52.66 c 45.832 52.664
 46.145 53.562 46.52 54.664 c 46.898 55.762 47.211 56.656 47.215 56.652 
c 47.219 56.652 47.543 55.746 47.938 54.641 c 48.328 53.539 48.652 52.633
 48.656 52.633 c 48.664 52.633 49.52 53.047 50.559 53.555 c 51.598 54.062
 52.449 54.473 52.453 54.469 c 52.457 54.465 52.051 53.598 51.547 52.539
 c 51.047 51.48 50.637 50.613 50.641 50.613 c 50.645 50.609 51.543 50.297
 52.641 49.922 c 53.734 49.547 54.633 49.234 54.633 49.23 c 54.633 49.223
 53.738 48.898 52.645 48.512 c 51.551 48.121 50.648 47.793 50.637 47.789
 c 50.621 47.777 50.902 47.184 51.539 45.879 c 52.051 44.836 52.461 43.98
 52.457 43.977 c 52.457 43.973 51.59 44.379 50.535 44.879 c 49.477 45.383
 48.609 45.789 48.605 45.789 c 48.602 45.789 48.289 44.895 47.91 43.801 
c 47.535 42.707 47.223 41.809 47.215 41.805 c 47.211 41.801 46.883 42.703
 46.488 43.809 c h
f
Q Q
showpage
%%Trailer
%%EOF
