%!PS-Adobe-3.0
%%Creator: cairo 1.12.2 (http://cairographics.org)
%%CreationDate: Mon Aug  6 13:42:41 2012
%%Pages: 1
%%DocumentData: Clean7Bit
%%LanguageLevel: 2
%%DocumentMedia: 7x3mm 21 9 0 () ()
%%BoundingBox: 0 -1 21 9
%%EndComments
%%BeginProlog
/languagelevel where
{ pop languagelevel } { 1 } ifelse
2 lt { /Helvetica findfont 12 scalefont setfont 50 500 moveto
  (This print job requires a PostScript Language Level 2 printer.) show
  showpage quit } if
/q { gsave } bind def
/Q { grestore } bind def
/cm { 6 array astore concat } bind def
/w { setlinewidth } bind def
/J { setlinecap } bind def
/j { setlinejoin } bind def
/M { setmiterlimit } bind def
/d { setdash } bind def
/m { moveto } bind def
/l { lineto } bind def
/c { curveto } bind def
/h { closepath } bind def
/re { exch dup neg 3 1 roll 5 3 roll moveto 0 rlineto
      0 exch rlineto 0 rlineto closepath } bind def
/S { stroke } bind def
/f { fill } bind def
/f* { eofill } bind def
/n { newpath } bind def
/W { clip } bind def
/W* { eoclip } bind def
/BT { } bind def
/ET { } bind def
/pdfmark where { pop globaldict /?pdfmark /exec load put }
    { globaldict begin /?pdfmark /pop load def /pdfmark
    /cleartomark load def end } ifelse
/BDC { mark 3 1 roll /BDC pdfmark } bind def
/EMC { mark /EMC pdfmark } bind def
/cairo_store_point { /cairo_point_y exch def /cairo_point_x exch def } def
/Tj { show currentpoint cairo_store_point } bind def
/TJ {
  {
    dup
    type /stringtype eq
    { show } { -0.001 mul 0 cairo_font_matrix dtransform rmoveto } ifelse
  } forall
  currentpoint cairo_store_point
} bind def
/cairo_selectfont { cairo_font_matrix aload pop pop pop 0 0 6 array astore
    cairo_font exch selectfont cairo_point_x cairo_point_y moveto } bind def
/Tf { pop /cairo_font exch def /cairo_font_matrix where
      { pop cairo_selectfont } if } bind def
/Td { matrix translate cairo_font_matrix matrix concatmatrix dup
      /cairo_font_matrix exch def dup 4 get exch 5 get cairo_store_point
      /cairo_font where { pop cairo_selectfont } if } bind def
/Tm { 2 copy 8 2 roll 6 array astore /cairo_font_matrix exch def
      cairo_store_point /cairo_font where { pop cairo_selectfont } if } bind def
/g { setgray } bind def
/rg { setrgbcolor } bind def
/d1 { setcachedevice } bind def
%%EndProlog
%%Page: 1 1
%%BeginPageSetup
%%PageMedia: 7x3mm
%%PageBoundingBox: 0 -1 21 9
%%EndPageSetup
q 0 -1 21 10 rectclip q
0 g
0.051 8.67 6.973 -6.973 re f
0.051 8.67 6.973 -6.973 re f
1 g
0.0922631 w
0 J
0 j
[] 0.0 d
10.433 M q 1 0 0 1 0 8.720763 cm
0.051 -0.051 6.973 -6.973 re S Q
0 0.466667 0.819608 rg
3.555 3.619 m 3.566 3.619 l 3.574 3.623 l 3.594 3.623 l 3.609 3.627 l 3.625
 3.627 l 3.637 3.631 l 3.652 3.631 l 3.656 3.635 l 3.672 3.635 l 3.676 3.639
 l 3.688 3.639 l 3.691 3.643 l 3.707 3.643 l 3.711 3.647 l 3.723 3.647 l
 3.723 3.65 l 3.727 3.65 l 3.734 3.65 3.801 3.674 3.801 3.674 c 4.125 3.815
 4.688 4.111 4.879 4.412 c 4.984 4.58 5.035 4.764 5.086 4.955 c 5.207 5.443
 5.152 7.283 5.133 7.385 c 4.605 7.334 4.078 7.307 3.555 7.307 c 3.031 7.307
 2.504 7.334 1.977 7.385 c 1.957 7.283 1.898 5.443 2.023 4.955 c 2.074 4.764
 2.125 4.58 2.23 4.412 c 2.422 4.111 2.98 3.815 3.305 3.674 c 3.305 3.674
 3.375 3.65 3.383 3.65 c 3.383 3.65 3.488 3.619 3.555 3.619 c h
f
1 g
1.684 4.455 m 1.891 4.584 l 1.891 4.584 1.949 4.678 1.914 4.783 c 1.867
 4.92 1.613 5.24 1.379 5.111 c 1.312 5.072 1.105 4.963 1.035 4.897 c 0.992
 4.857 0.961 4.807 0.945 4.768 c 0.871 4.537 1.262 4.053 1.387 3.572 c 1.414
 3.463 1.555 3.154 1.496 3.029 c 1.41 2.861 1.406 2.889 1.406 2.889 c 1.406
 2.889 1.625 3.088 1.961 3.248 c 2.164 3.346 2.094 3.279 2.094 3.385 c 2.094
 3.389 2.016 3.67 2.016 3.67 c h
f
0 0.466667 0.819608 rg
1.449 3.381 m 1.406 3.381 l 1.367 3.377 l 1.324 3.373 l 1.285 3.369 l 1.145
 3.338 l 1.082 3.315 l 1.027 3.291 l 1 3.275 l 0.977 3.264 l 0.93 3.232 
l 0.91 3.217 l 0.891 3.205 l 0.871 3.19 l 0.824 3.143 l 0.789 3.096 l 0.773
 3.065 l 0.766 3.053 l 0.762 3.041 l 0.758 3.025 l 0.758 3.014 l 0.754 3.006
 l 0.754 2.787 1.477 2.58 1.508 3.17 c h
f
1.18 4.834 m 1.195 4.826 l 1.215 4.818 l 1.23 4.811 l 1.246 4.799 l 1.266
 4.791 l 1.312 4.756 l 1.324 4.74 l 1.355 4.717 l 1.367 4.701 l 1.406 4.662
 l 1.414 4.647 l 1.426 4.631 l 1.438 4.619 l 1.453 4.588 l 1.461 4.576 l
 1.477 4.545 l 1.48 4.533 l 1.488 4.522 l 1.492 4.506 l 1.496 4.494 l 1.496
 4.482 l 1.5 4.471 l 1.5 4.44 l 1.492 4.408 1.48 4.33 1.48 4.33 c 1.891 
4.584 l 1.891 4.584 1.949 4.678 1.914 4.783 c 1.867 4.92 1.613 5.24 1.379
 5.111 c 1.312 5.072 1.105 4.963 1.035 4.897 c 0.992 4.857 0.961 4.807 0.945
 4.768 c 0.945 4.768 1.02 4.9 1.18 4.834 c h
f
1.426 4.631 m 1.438 4.615 l 1.445 4.604 l 1.449 4.596 l 1.453 4.592 l 1.461
 4.576 l 1.465 4.572 l 1.473 4.557 l 1.473 4.553 l 1.48 4.537 l 1.484 4.533
 l 1.484 4.525 l 1.488 4.522 l 1.488 4.514 l 1.492 4.51 l 1.492 4.502 l 
1.496 4.498 l 1.496 4.479 l 1.5 4.475 l 1.5 4.44 l 1.492 4.408 1.48 4.33
 1.48 4.33 c 1.473 4.326 1.465 4.318 1.457 4.318 c 1.363 4.315 1.301 4.397
 1.277 4.459 c 1.27 4.482 1.273 4.537 1.273 4.537 c h
f
1 g
5.426 4.455 m 5.223 4.584 l 5.223 4.584 5.164 4.678 5.199 4.783 c 5.242
 4.92 5.496 5.24 5.73 5.111 c 5.801 5.072 6.004 4.963 6.078 4.897 c 6.121
 4.857 6.152 4.807 6.164 4.768 c 6.242 4.537 5.848 4.053 5.727 3.572 c 5.695
 3.463 5.555 3.154 5.617 3.029 c 5.699 2.861 5.703 2.889 5.703 2.889 c 5.703
 2.889 5.488 3.088 5.152 3.248 c 4.945 3.346 5.016 3.279 5.016 3.385 c 5.016
 3.389 5.094 3.67 5.094 3.67 c h
f
0 0.466667 0.819608 rg
5.66 3.381 m 5.703 3.381 l 5.746 3.377 l 5.824 3.369 l 5.863 3.361 l 5.934
 3.346 l 5.965 3.338 l 6.059 3.303 l 6.086 3.291 l 6.109 3.275 l 6.137 3.264
 l 6.184 3.232 l 6.203 3.217 l 6.223 3.205 l 6.242 3.19 l 6.289 3.143 l 
6.312 3.111 l 6.32 3.096 l 6.332 3.08 l 6.34 3.065 l 6.348 3.041 l 6.352
 3.025 l 6.355 3.014 l 6.355 3.006 l 6.355 2.787 5.633 2.58 5.605 3.17 c
 h
f
5.934 4.834 m 5.914 4.826 l 5.898 4.818 l 5.879 4.811 l 5.863 4.799 l 5.848
 4.791 l 5.801 4.756 l 5.785 4.74 l 5.77 4.729 l 5.73 4.69 l 5.719 4.674
 l 5.707 4.662 l 5.684 4.631 l 5.676 4.619 l 5.664 4.604 l 5.656 4.588 l
 5.648 4.576 l 5.641 4.561 l 5.637 4.545 l 5.629 4.533 l 5.625 4.522 l 5.621
 4.506 l 5.613 4.482 l 5.613 4.44 l 5.617 4.408 5.629 4.33 5.629 4.33 c 
5.223 4.584 l 5.223 4.584 5.164 4.678 5.199 4.783 c 5.242 4.92 5.496 5.24
 5.73 5.111 c 5.801 5.072 6.004 4.963 6.078 4.897 c 6.121 4.857 6.152 4.807
 6.164 4.768 c 6.164 4.768 6.09 4.9 5.934 4.834 c h
f
5.684 4.631 m 5.676 4.615 l 5.668 4.604 l 5.664 4.596 l 5.66 4.592 l 5.652
 4.576 l 5.648 4.572 l 5.641 4.557 l 5.637 4.553 l 5.633 4.545 l 5.633 4.537
 l 5.629 4.533 l 5.625 4.525 l 5.625 4.522 l 5.621 4.514 l 5.621 4.51 l 
5.617 4.502 l 5.617 4.49 l 5.613 4.486 l 5.613 4.44 l 5.617 4.408 5.629 
4.33 5.629 4.33 c 5.637 4.326 5.645 4.318 5.656 4.318 c 5.746 4.315 5.812
 4.397 5.836 4.459 c 5.844 4.482 5.836 4.537 5.836 4.537 c h
f
1 g
3.535 2.69 m 3.504 2.69 l 3.477 2.693 l 3.449 2.693 l 3.418 2.697 l 3.391
 2.701 l 3.359 2.705 l 3.328 2.713 l 3.301 2.717 l 3.266 2.725 l 3.203 2.74
 l 3.098 2.764 l 3.02 2.787 l 2.805 2.846 2.23 3.08 2.02 3.182 c 1.988 3.197
 1.656 3.381 1.523 3.381 c 1.434 3.381 l 0.969 3.381 0.75 3.096 0.758 3.006
 c 0.758 3.006 0.773 3.248 0.734 3.393 c 0.703 3.514 0.602 3.682 0.602 3.682
 c 0.613 3.693 0.801 3.877 0.957 3.955 c 1.109 4.029 1.207 4.049 1.375 4.065
 c 1.457 4.072 1.59 4.065 1.59 4.065 c 1.852 4.065 2.355 3.768 2.562 3.678
 c 2.898 3.529 3.027 3.467 3.363 3.377 c 3.43 3.361 3.469 3.35 3.535 3.35
 c 3.566 3.35 l 3.633 3.35 3.672 3.361 3.738 3.377 c 4.078 3.467 4.203 3.529
 4.539 3.678 c 4.75 3.768 5.25 4.065 5.512 4.065 c 5.512 4.065 5.645 4.072
 5.727 4.065 c 5.895 4.049 5.992 4.029 6.145 3.955 c 6.301 3.877 6.488 3.693
 6.5 3.682 c 6.5 3.682 6.398 3.514 6.367 3.393 c 6.328 3.248 6.344 3.006
 6.344 3.006 c 6.352 3.096 6.133 3.381 5.668 3.381 c 5.578 3.381 l 5.445
 3.381 5.113 3.197 5.082 3.182 c 4.875 3.08 4.297 2.846 4.082 2.787 c 3.871
 2.729 3.719 2.693 3.57 2.69 c h
f
0 g
0.008 w
2 j
q 1 0 0 -1 0 8.720763 cm
3.535 6.031 m 3.504 6.031 l 3.477 6.027 l 3.449 6.027 l 3.418 6.023 l 3.391
 6.02 l 3.359 6.016 l 3.328 6.008 l 3.301 6.004 l 3.266 5.996 l 3.203 5.98
 l 3.098 5.957 l 3.02 5.934 l 2.805 5.875 2.23 5.641 2.02 5.539 c 1.988 
5.523 1.656 5.34 1.523 5.34 c 1.434 5.34 l 0.969 5.34 0.75 5.625 0.758 5.715
 c 0.758 5.715 0.773 5.473 0.734 5.328 c 0.703 5.207 0.602 5.039 0.602 5.039
 c 0.613 5.027 0.801 4.844 0.957 4.766 c 1.109 4.691 1.207 4.672 1.375 4.656
 c 1.457 4.648 1.59 4.656 1.59 4.656 c 1.852 4.656 2.355 4.953 2.562 5.043
 c 2.898 5.191 3.027 5.254 3.363 5.344 c 3.43 5.359 3.469 5.371 3.535 5.371
 c 3.566 5.371 l 3.633 5.371 3.672 5.359 3.738 5.344 c 4.078 5.254 4.203
 5.191 4.539 5.043 c 4.75 4.953 5.25 4.656 5.512 4.656 c 5.512 4.656 5.645
 4.648 5.727 4.656 c 5.895 4.672 5.992 4.691 6.145 4.766 c 6.301 4.844 6.488
 5.027 6.5 5.039 c 6.5 5.039 6.398 5.207 6.367 5.328 c 6.328 5.473 6.344
 5.715 6.344 5.715 c 6.352 5.625 6.133 5.34 5.668 5.34 c 5.578 5.34 l 5.445
 5.34 5.113 5.523 5.082 5.539 c 4.875 5.641 4.297 5.875 4.082 5.934 c 3.871
 5.992 3.719 6.027 3.57 6.031 c h
S Q
0.772549 0.882353 0.964706 rg
4.281 7.225 m 4.316 7.104 l 4.434 7.127 l 4.363 7.029 l 4.457 6.951 l 4.332
 6.947 l 4.332 6.822 l 4.25 6.916 l 4.152 6.842 l 4.176 6.963 l 4.055 6.994
 l 4.164 7.053 l 4.113 7.162 l 4.227 7.115 l h
f
3.773 6.815 m 3.672 6.877 l 3.699 6.76 l 3.586 6.717 l 3.699 6.67 l 3.66
 6.553 l 3.766 6.611 l 3.832 6.506 l 3.852 6.631 l 3.977 6.615 l 3.895 6.705
 l 3.98 6.795 l 3.859 6.787 l 3.848 6.908 l h
f
4.648 6.744 m 4.535 6.799 l 4.578 6.682 l 4.469 6.631 l 4.586 6.596 l 4.559
 6.475 l 4.66 6.545 l 4.734 6.447 l 4.746 6.568 l 4.867 6.568 l 4.777 6.65
 l 4.855 6.748 l 4.734 6.729 l 4.707 6.85 l h
f
4.266 6.518 m 4.148 6.51 l 4.242 6.44 l 4.207 6.33 l 4.305 6.397 l 4.398
 6.33 l 4.367 6.44 l 4.461 6.51 l 4.344 6.514 l 4.305 6.623 l h
f
4.062 6.174 m 3.945 6.209 l 4.004 6.1 l 3.906 6.033 l 4.027 6.014 l 4.016
 5.893 l 4.105 5.975 l 4.195 5.893 l 4.188 6.014 l 4.309 6.033 l 4.207 6.1
 l 4.27 6.209 l 4.152 6.17 l 4.105 6.283 l h
f
3.293 3.686 m 3.273 3.693 l 3.258 3.701 l 3.238 3.709 l 3.223 3.717 l 3.184
 3.732 l 3.164 3.744 l 3.125 3.76 l 3.105 3.772 l 3.086 3.779 l 3.047 3.803
 l 3.027 3.811 l 3.004 3.822 l 2.984 3.834 l 3.066 3.834 l 3.223 3.85 3.438
 4.065 3.574 4.065 c 3.656 4.065 3.777 3.975 3.859 3.924 c 4.008 3.834 4.07
 3.834 4.113 3.83 c 4.016 3.775 3.918 3.729 3.836 3.693 c 3.66 3.795 3.629
 3.826 3.574 3.822 c 3.488 3.822 3.355 3.717 3.309 3.697 c 3.301 3.693 3.293
 3.69 3.285 3.686 c h
f
4.879 4.42 m 4.879 4.424 l 4.883 4.432 l 4.887 4.436 l 4.895 4.451 l 4.898
 4.455 l 4.898 4.463 l 4.902 4.471 l 4.91 4.482 l 4.914 4.494 l 4.918 4.502
 l 4.918 4.51 l 4.922 4.514 l 4.926 4.522 l 4.895 4.529 4.875 4.533 4.852
 4.533 c 4.816 4.533 l 4.66 4.533 4.41 4.283 4.227 4.283 c 4.191 4.283 l
 3.953 4.283 3.793 4.533 3.586 4.533 c 3.562 4.533 l 3.367 4.533 3.152 4.283
 2.957 4.283 c 2.93 4.283 l 2.715 4.283 2.461 4.545 2.324 4.545 c 2.277 
4.545 l 2.246 4.545 2.211 4.525 2.176 4.518 c 2.195 4.482 2.211 4.451 2.23
 4.42 c 2.25 4.385 2.277 4.354 2.305 4.322 c 2.34 4.322 l 2.641 4.143 2.762
 4.068 2.91 4.068 c 2.973 4.068 l 2.992 4.068 3.117 4.076 3.258 4.158 c 
3.43 4.252 3.508 4.318 3.574 4.322 c 3.652 4.322 3.789 4.205 3.938 4.135
 c 4.051 4.084 4.172 4.068 4.176 4.068 c 4.238 4.068 l 4.453 4.068 4.699
 4.275 4.801 4.315 c 4.832 4.35 4.855 4.381 4.879 4.42 c h
f
5.086 4.951 m 5.074 4.955 l 5.062 4.963 l 5.016 4.979 l 5.008 4.982 l 4.996
 4.982 l 4.988 4.986 l 4.977 4.99 l 4.969 4.99 l 4.961 4.994 l 4.953 4.994
 l 4.945 4.998 l 4.918 4.998 l 4.91 5.002 l 4.816 5.002 l 4.586 5.002 4.402
 4.748 4.215 4.748 c 4.008 4.748 3.844 5.002 3.602 5.002 c 3.551 5.002 l
 3.312 5.002 3.113 4.729 2.934 4.736 c 2.812 4.74 2.535 4.99 2.336 5.002
 c 2.312 5.002 2.281 5.002 2.281 5.002 c 2.195 5.002 2.09 4.951 2.039 4.924
 c 2.098 4.725 l 2.156 4.752 2.246 4.787 2.27 4.787 c 2.32 4.787 l 2.477
 4.787 2.723 4.522 2.914 4.522 c 2.945 4.522 l 3.191 4.522 3.398 4.787 3.543
 4.787 c 3.586 4.787 l 3.762 4.787 3.941 4.537 4.195 4.537 c 4.242 4.537
 l 4.453 4.537 4.695 4.787 4.809 4.787 c 4.855 4.787 l 4.918 4.787 4.969
 4.772 5.023 4.752 c 5.047 4.822 5.07 4.881 5.086 4.951 c h
f
2.559 5.139 m 2.566 5.135 l 2.578 5.131 l 2.59 5.123 l 2.715 5.061 l 2.738
 5.045 l 2.762 5.033 l 2.785 5.025 l 2.832 5.002 l 2.879 4.986 l 2.891 4.986
 l 2.914 4.979 l 2.926 4.979 l 3.117 4.955 3.297 5.217 3.562 5.217 c 3.828
 5.217 3.934 4.979 4.203 4.979 c 4.316 4.979 4.469 5.111 4.555 5.15 c 3.637
 5.408 l 3.594 5.416 3.52 5.42 3.473 5.408 c h
f
0 0.466667 0.819608 rg
1.02 3.568 m 1.023 3.565 l 1.023 3.561 l 1.027 3.557 l 1.027 3.553 l 1.031
 3.549 l 1.031 3.545 l 1.035 3.541 l 1.039 3.533 l 1.039 3.529 l 1.043 3.525
 l 1.043 3.522 l 1.047 3.518 l 1.047 3.514 l 1.051 3.514 l 1.051 3.51 l 
1.051 3.51 1.051 3.506 1.047 3.506 c 1.039 3.51 1.027 3.518 0.988 3.537 
c 0.883 3.596 l 0.871 3.6 0.84 3.619 0.832 3.623 c 0.832 3.619 0.836 3.611
 0.84 3.6 c 0.875 3.529 l 0.883 3.514 0.906 3.471 0.914 3.463 c 0.918 3.459
 0.922 3.463 0.93 3.463 c 0.938 3.467 l 0.941 3.467 0.945 3.463 0.941 3.459
 c 0.93 3.455 0.922 3.451 0.91 3.443 c 0.898 3.44 0.895 3.436 0.883 3.428
 c 0.883 3.432 0.879 3.436 0.879 3.44 c 0.887 3.443 l 0.891 3.447 0.895 
3.451 0.895 3.455 c 0.891 3.467 0.871 3.51 0.863 3.525 c 0.816 3.619 l 0.812
 3.631 0.809 3.635 0.801 3.639 c 0.793 3.643 0.785 3.643 0.781 3.639 c 0.773
 3.639 l 0.773 3.639 0.77 3.647 0.77 3.647 c 0.781 3.65 0.797 3.658 0.801
 3.662 c 0.805 3.662 0.809 3.666 0.812 3.67 c 0.828 3.654 0.879 3.627 0.895
 3.619 c 0.938 3.596 l 0.969 3.576 0.992 3.568 1.012 3.557 c 1.012 3.561
 1.008 3.565 1.004 3.572 c 0.969 3.643 l 0.965 3.658 0.941 3.701 0.934 3.709
 c 0.93 3.709 0.922 3.709 0.91 3.705 c 0.906 3.705 l 0.906 3.705 0.902 3.713
 0.902 3.713 c 0.914 3.717 0.926 3.725 0.934 3.729 c 0.945 3.732 0.953 3.736
 0.961 3.744 c 0.965 3.74 0.969 3.736 0.969 3.732 c 0.965 3.732 l 0.957 
3.725 0.953 3.721 0.953 3.717 c 0.953 3.705 0.973 3.662 0.98 3.647 c h
f
1.141 3.627 m 1.141 3.631 l 1.137 3.631 l 1.137 3.635 l 1.125 3.635 l 1.082
 3.623 l 1.078 3.619 1.074 3.619 1.074 3.611 c 1.074 3.572 l 1.074 3.553
 1.074 3.545 1.078 3.541 c 1.078 3.537 1.078 3.533 1.086 3.533 c 1.098 3.537
 l 1.098 3.537 1.102 3.529 1.098 3.525 c 1.09 3.525 1.082 3.525 1.066 3.522
 c 1.059 3.518 1.051 3.514 1.043 3.514 c 1.039 3.514 1.035 3.518 1.039 3.522
 c 1.047 3.525 l 1.055 3.525 1.059 3.533 1.059 3.545 c 1.059 3.565 1.062
 3.588 1.062 3.631 c 1.066 3.736 l 1.066 3.752 1.066 3.76 1.066 3.764 c 
1.07 3.768 1.074 3.775 1.078 3.779 c 1.078 3.783 1.082 3.783 1.082 3.779
 c 1.09 3.764 1.098 3.748 1.105 3.736 c 1.184 3.6 l 1.199 3.572 1.207 3.568
 1.219 3.568 c 1.227 3.572 l 1.23 3.568 1.23 3.565 1.23 3.565 c 1.219 3.561
 1.207 3.557 1.195 3.553 c 1.18 3.549 1.172 3.549 1.16 3.545 c 1.16 3.545
 1.156 3.549 1.16 3.553 c 1.168 3.557 l 1.172 3.561 1.176 3.561 1.176 3.565
 c 1.176 3.568 1.172 3.576 1.168 3.584 c h
f
1 g
1.074 3.647 m 1.074 3.639 l 1.086 3.639 l 1.121 3.647 l 1.129 3.65 1.129
 3.65 1.121 3.662 c 1.09 3.713 l 1.086 3.721 1.082 3.732 1.078 3.736 c 1.078
 3.732 1.078 3.725 1.078 3.713 c h
f
0 0.466667 0.819608 rg
1.297 3.619 m 1.297 3.596 l 1.301 3.592 l 1.301 3.58 l 1.305 3.58 l 1.305
 3.576 l 1.312 3.576 l 1.312 3.572 l 1.328 3.572 l 1.328 3.572 1.328 3.565
 1.328 3.565 c 1.309 3.565 1.301 3.565 1.289 3.565 c 1.277 3.561 1.266 3.561
 1.246 3.561 c 1.246 3.561 1.246 3.568 1.246 3.568 c 1.258 3.568 l 1.273
 3.572 1.273 3.58 1.273 3.619 c 1.262 3.783 l 1.262 3.795 1.262 3.795 1.25
 3.791 c 1.234 3.791 l 1.223 3.791 1.207 3.791 1.199 3.779 c 1.195 3.772
 1.191 3.764 1.188 3.756 c 1.188 3.752 1.184 3.752 1.18 3.756 c 1.184 3.772
 1.188 3.795 1.188 3.811 c 1.188 3.811 1.191 3.815 1.195 3.811 c 1.195 3.799
 1.207 3.803 1.219 3.803 c 1.34 3.811 l 1.355 3.811 1.359 3.811 1.363 3.822
 c 1.363 3.822 1.367 3.822 1.367 3.822 c 1.363 3.807 1.363 3.775 1.367 3.764
 c 1.363 3.76 1.359 3.76 1.359 3.764 c 1.355 3.772 1.355 3.787 1.348 3.791
 c 1.344 3.795 1.332 3.799 1.312 3.795 c 1.293 3.795 l 1.285 3.795 1.285
 3.795 1.285 3.783 c h
f
1.543 3.709 m 1.543 3.783 l 1.539 3.787 1.535 3.791 1.527 3.795 c 1.52 
3.795 l 1.52 3.799 1.52 3.803 1.523 3.803 c 1.535 3.803 1.543 3.799 1.555
 3.799 c 1.57 3.799 1.574 3.799 1.586 3.799 c 1.59 3.795 1.59 3.791 1.586
 3.787 c 1.578 3.787 l 1.574 3.787 1.566 3.787 1.562 3.783 c 1.559 3.768
 1.555 3.729 1.555 3.705 c 1.551 3.666 l 1.547 3.631 1.539 3.6 1.52 3.58
 c 1.508 3.565 1.484 3.557 1.461 3.557 c 1.441 3.561 1.422 3.565 1.41 3.584
 c 1.395 3.6 1.391 3.627 1.395 3.674 c 1.402 3.76 l 1.406 3.799 1.406 3.803
 1.387 3.807 c 1.379 3.807 l 1.379 3.811 1.379 3.815 1.383 3.818 c 1.398
 3.815 1.406 3.815 1.418 3.811 c 1.43 3.811 1.441 3.811 1.457 3.811 c 1.457
 3.811 1.457 3.803 1.453 3.803 c 1.449 3.803 l 1.43 3.803 1.43 3.795 1.426
 3.756 c 1.418 3.678 l 1.414 3.619 1.426 3.576 1.469 3.572 c 1.512 3.568
 1.531 3.607 1.539 3.666 c h
f
1.617 3.74 m 1.617 3.748 l 1.621 3.748 l 1.621 3.783 l 1.617 3.783 l 1.617
 3.787 l 1.605 3.787 l 1.605 3.791 1.605 3.795 1.609 3.799 c 1.625 3.795
 1.645 3.791 1.672 3.787 c 1.691 3.783 1.707 3.775 1.719 3.764 c 1.73 3.752
 1.738 3.736 1.73 3.709 c 1.723 3.674 1.699 3.662 1.684 3.658 c 1.68 3.654
 1.68 3.65 1.68 3.647 c 1.695 3.596 1.703 3.565 1.719 3.541 c 1.723 3.533
 1.727 3.529 1.734 3.525 c 1.738 3.525 1.738 3.522 1.734 3.522 c 1.73 3.518
 1.727 3.518 1.723 3.522 c 1.695 3.525 1.684 3.537 1.672 3.58 c 1.668 3.596
 1.66 3.623 1.656 3.639 c 1.652 3.65 1.648 3.654 1.637 3.658 c 1.625 3.658
 1.625 3.658 1.621 3.65 c 1.613 3.607 l 1.605 3.568 1.605 3.565 1.621 3.557
 c 1.625 3.553 l 1.625 3.553 1.625 3.545 1.621 3.545 c 1.609 3.549 1.602
 3.553 1.59 3.553 c 1.578 3.557 1.566 3.561 1.551 3.561 c 1.551 3.565 1.551
 3.568 1.555 3.568 c 1.562 3.568 l 1.578 3.568 1.578 3.572 1.59 3.611 c 
h
f
1 g
1.629 3.686 m 1.629 3.67 l 1.629 3.67 1.633 3.67 1.648 3.666 c 1.656 3.662
 1.668 3.662 1.68 3.67 c 1.688 3.674 1.699 3.686 1.703 3.709 c 1.711 3.736
 1.703 3.768 1.672 3.775 c 1.652 3.779 1.652 3.779 1.648 3.768 c h
f
0 0.466667 0.819608 rg
1.848 3.565 m 1.848 3.576 l 1.84 3.576 l 1.797 3.592 l 1.789 3.596 1.789
 3.596 1.785 3.588 c 1.762 3.557 l 1.75 3.541 1.746 3.533 1.746 3.529 c 
1.742 3.525 1.742 3.522 1.75 3.522 c 1.758 3.514 l 1.758 3.514 1.758 3.506
 1.754 3.506 c 1.746 3.51 1.738 3.514 1.727 3.518 c 1.719 3.522 1.707 3.525
 1.699 3.529 c 1.699 3.529 1.699 3.537 1.703 3.537 c 1.711 3.533 l 1.719
 3.533 1.727 3.533 1.734 3.545 c 1.746 3.561 1.762 3.58 1.789 3.611 c 1.852
 3.697 l 1.859 3.705 1.863 3.713 1.863 3.717 c 1.871 3.717 1.879 3.725 1.883
 3.725 c 1.887 3.725 1.887 3.725 1.887 3.721 c 1.883 3.705 1.883 3.69 1.883
 3.67 c 1.867 3.518 l 1.863 3.486 1.867 3.479 1.875 3.471 c 1.883 3.467 
l 1.887 3.467 1.883 3.459 1.879 3.459 c 1.871 3.463 1.859 3.471 1.848 3.475
 c 1.836 3.479 1.824 3.482 1.816 3.482 c 1.812 3.486 1.816 3.49 1.82 3.494
 c 1.828 3.49 l 1.832 3.49 1.836 3.49 1.84 3.494 c 1.84 3.498 1.84 3.506
 1.844 3.514 c h
f
1 g
1.805 3.615 m 1.801 3.615 l 1.801 3.607 l 1.809 3.607 l 1.809 3.604 l 1.84
 3.592 l 1.848 3.592 1.852 3.592 1.852 3.6 c 1.855 3.662 l 1.859 3.674 1.859
 3.682 1.859 3.69 c 1.855 3.686 1.852 3.678 1.844 3.67 c h
f
0 0.466667 0.819608 rg
1.996 3.518 m 1.996 3.498 l 1.992 3.49 l 1.992 3.463 l 2.008 3.475 2.023
 3.49 2.035 3.502 c 2.09 3.557 l 2.117 3.58 2.133 3.596 2.141 3.611 c 2.148
 3.607 2.156 3.604 2.16 3.6 c 2.168 3.6 2.176 3.596 2.184 3.592 c 2.188 
3.592 2.184 3.584 2.18 3.584 c 2.176 3.584 l 2.156 3.592 2.152 3.584 2.141
 3.561 c 2.125 3.525 2.098 3.463 2.078 3.416 c 2.074 3.397 2.07 3.389 2.082
 3.381 c 2.09 3.377 l 2.09 3.373 2.086 3.369 2.086 3.369 c 2.074 3.373 2.062
 3.381 2.055 3.385 c 2.043 3.389 2.031 3.393 2.02 3.397 c 2.02 3.4 2.02 
3.404 2.023 3.404 c 2.031 3.404 l 2.047 3.4 2.047 3.404 2.059 3.424 c 2.121
 3.568 l 2.117 3.565 2.094 3.541 2.082 3.529 c 2.031 3.482 l 2.008 3.459
 1.98 3.432 1.969 3.42 c 1.969 3.42 1.965 3.42 1.965 3.42 c 1.965 3.44 1.969
 3.479 1.969 3.498 c 1.973 3.576 l 1.977 3.592 1.977 3.611 1.977 3.631 c
 1.969 3.611 1.957 3.592 1.949 3.572 c 1.938 3.553 1.926 3.522 1.91 3.494
 c 1.898 3.471 1.898 3.463 1.91 3.459 c 1.918 3.451 l 1.922 3.451 1.918 
3.443 1.914 3.443 c 1.906 3.447 1.895 3.455 1.887 3.459 c 1.875 3.463 1.867
 3.467 1.855 3.471 c 1.855 3.471 1.859 3.479 1.859 3.479 c 1.867 3.475 l
 1.879 3.475 1.883 3.475 1.895 3.498 c 1.906 3.518 1.918 3.537 1.934 3.568
 c 1.949 3.596 1.961 3.623 1.969 3.643 c 1.98 3.662 1.98 3.67 1.965 3.678
 c 1.961 3.682 l 1.961 3.686 1.965 3.69 1.965 3.69 c 1.973 3.686 1.98 3.682
 1.988 3.678 c 1.992 3.678 2 3.674 2.008 3.67 c 2.004 3.658 2 3.635 2 3.607
 c h
f
2.238 3.361 m 2.238 3.35 l 2.234 3.35 l 2.234 3.342 l 2.23 3.338 l 2.23
 3.315 l 2.234 3.315 l 2.238 3.311 l 2.242 3.311 l 2.25 3.307 l 2.25 3.303
 2.246 3.299 2.242 3.299 c 2.23 3.303 2.219 3.307 2.207 3.311 c 2.199 3.318
 2.188 3.322 2.176 3.326 c 2.176 3.326 2.176 3.33 2.18 3.334 c 2.184 3.33
 l 2.203 3.33 2.203 3.334 2.219 3.369 c 2.27 3.494 l 2.277 3.525 2.281 3.529
 2.27 3.537 c 2.258 3.541 l 2.258 3.545 2.262 3.549 2.266 3.549 c 2.277 
3.549 2.297 3.541 2.32 3.533 c 2.34 3.522 2.355 3.514 2.367 3.498 c 2.375
 3.482 2.379 3.459 2.367 3.436 c 2.355 3.404 2.332 3.397 2.32 3.393 c 2.305
 3.389 2.289 3.393 2.277 3.397 c 2.277 3.4 2.277 3.404 2.281 3.404 c 2.312
 3.4 2.332 3.416 2.344 3.447 c 2.355 3.479 2.348 3.51 2.32 3.518 c 2.305
 3.525 2.305 3.525 2.301 3.514 c h
f
2.402 3.436 m 2.406 3.44 l 2.406 3.447 l 2.41 3.447 l 2.41 3.459 l 2.414
 3.459 l 2.414 3.479 l 2.41 3.479 l 2.41 3.482 l 2.398 3.486 l 2.398 3.486
 2.402 3.494 2.402 3.494 c 2.422 3.49 2.438 3.482 2.465 3.471 c 2.484 3.463
 2.496 3.455 2.508 3.44 c 2.516 3.428 2.52 3.408 2.508 3.385 c 2.496 3.354
 2.465 3.342 2.449 3.342 c 2.449 3.342 2.449 3.338 2.449 3.334 c 2.449 3.279
 2.453 3.248 2.465 3.221 c 2.465 3.213 2.473 3.205 2.477 3.201 c 2.48 3.201
 2.477 3.197 2.477 3.197 c 2.473 3.197 2.469 3.197 2.465 3.201 c 2.441 3.213
 2.43 3.225 2.426 3.268 c 2.426 3.283 2.422 3.311 2.422 3.33 c 2.422 3.338
 2.418 3.346 2.406 3.35 c 2.395 3.354 2.395 3.354 2.391 3.346 c 2.371 3.303
 l 2.359 3.268 2.355 3.264 2.371 3.256 c 2.375 3.252 l 2.375 3.248 2.375
 3.244 2.371 3.244 c 2.359 3.248 2.352 3.256 2.34 3.26 c 2.328 3.264 2.32
 3.268 2.305 3.272 c 2.305 3.275 2.305 3.279 2.309 3.279 c 2.316 3.279 l
 2.332 3.275 2.336 3.279 2.352 3.315 c h
f
1 g
2.406 3.377 m 2.402 3.377 l 2.402 3.369 l 2.398 3.369 l 2.398 3.365 l 2.402
 3.365 2.406 3.361 2.418 3.357 c 2.43 3.354 2.438 3.35 2.449 3.354 c 2.461
 3.357 2.473 3.365 2.48 3.389 c 2.492 3.416 2.492 3.447 2.461 3.459 c 2.445
 3.467 2.441 3.467 2.438 3.455 c h
f
0 0.466667 0.819608 rg
2.562 3.365 m 2.562 3.373 l 2.566 3.377 l 2.566 3.385 l 2.57 3.385 l 2.57
 3.397 l 2.574 3.397 l 2.574 3.408 l 2.57 3.408 l 2.57 3.412 l 2.566 3.416
 l 2.562 3.416 l 2.559 3.42 l 2.555 3.424 2.559 3.428 2.562 3.428 c 2.574
 3.424 2.582 3.42 2.594 3.412 c 2.605 3.408 2.613 3.404 2.629 3.4 c 2.629
 3.397 2.629 3.393 2.625 3.393 c 2.617 3.393 l 2.602 3.4 2.598 3.393 2.582
 3.357 c 2.531 3.236 l 2.516 3.201 2.512 3.197 2.527 3.186 c 2.535 3.182
 l 2.535 3.182 2.531 3.174 2.531 3.174 c 2.516 3.182 2.508 3.186 2.496 3.19
 c 2.484 3.197 2.477 3.201 2.461 3.205 c 2.461 3.205 2.461 3.213 2.465 3.213
 c 2.473 3.213 l 2.488 3.205 2.492 3.213 2.508 3.248 c h
f
2.691 3.213 m 2.691 3.158 l 2.707 3.174 2.719 3.186 2.734 3.201 c 2.785
 3.256 l 2.812 3.283 2.824 3.299 2.832 3.315 c 2.844 3.307 2.848 3.307 2.852
 3.303 c 2.859 3.303 2.871 3.299 2.879 3.295 c 2.879 3.295 2.875 3.287 2.875
 3.287 c 2.867 3.287 l 2.852 3.291 2.844 3.287 2.836 3.264 c 2.82 3.229 
2.797 3.162 2.777 3.115 c 2.773 3.096 2.77 3.088 2.781 3.08 c 2.789 3.076
 l 2.789 3.072 2.789 3.068 2.785 3.068 c 2.773 3.072 2.762 3.076 2.754 3.08
 c 2.742 3.088 2.73 3.092 2.719 3.096 c 2.719 3.096 2.719 3.104 2.723 3.104
 c 2.73 3.1 l 2.746 3.096 2.746 3.104 2.758 3.123 c 2.812 3.268 l 2.809 
3.264 2.789 3.24 2.777 3.229 c 2.727 3.182 l 2.703 3.154 2.68 3.127 2.668
 3.115 c 2.668 3.115 2.664 3.115 2.664 3.115 c 2.664 3.115 2.664 3.115 2.664
 3.119 c 2.664 3.139 2.664 3.174 2.664 3.193 c 2.668 3.272 l 2.668 3.291
 2.668 3.311 2.672 3.326 c 2.668 3.33 l 2.66 3.307 2.652 3.287 2.641 3.268
 c 2.633 3.248 2.621 3.217 2.609 3.19 c 2.598 3.162 2.598 3.158 2.605 3.15
 c 2.617 3.147 l 2.617 3.143 2.617 3.139 2.613 3.139 c 2.605 3.143 2.594
 3.147 2.582 3.15 c 2.574 3.154 2.566 3.158 2.555 3.162 c 2.555 3.166 2.555
 3.17 2.559 3.17 c 2.566 3.17 l 2.578 3.166 2.582 3.166 2.594 3.19 c 2.602
 3.213 2.613 3.232 2.629 3.264 c 2.641 3.291 2.652 3.318 2.664 3.338 c 2.672
 3.361 2.672 3.365 2.656 3.377 c 2.652 3.377 l 2.652 3.381 2.652 3.385 2.656
 3.385 c 2.664 3.381 2.672 3.381 2.676 3.377 c 2.684 3.373 2.691 3.369 2.699
 3.369 c 2.695 3.354 2.691 3.33 2.691 3.307 c h
f
3.02 3.139 m 3.02 3.143 l 3.023 3.147 l 3.023 3.154 l 3.027 3.154 l 3.027
 3.162 l 3.031 3.17 l 3.031 3.174 l 3.035 3.182 l 3.035 3.186 l 3.039 3.19
 l 3.039 3.205 l 3.043 3.205 l 3.043 3.213 l 3.043 3.217 3.039 3.221 3.031
 3.225 c 3.023 3.229 l 3.023 3.232 3.027 3.236 3.027 3.236 c 3.039 3.232
 3.047 3.229 3.059 3.225 c 3.07 3.221 3.078 3.217 3.09 3.213 c 3.09 3.213
 3.09 3.205 3.086 3.205 c 3.078 3.205 l 3.07 3.209 3.066 3.209 3.062 3.205
 c 3.055 3.193 3.039 3.154 3.031 3.135 c 3.016 3.096 l 3.004 3.065 2.988
 3.037 2.965 3.022 c 2.945 3.01 2.922 3.01 2.902 3.018 c 2.883 3.025 2.867
 3.037 2.859 3.057 c 2.848 3.076 2.852 3.104 2.867 3.147 c 2.898 3.225 l
 2.914 3.264 2.914 3.268 2.898 3.275 c 2.895 3.279 l 2.891 3.283 2.895 3.287
 2.898 3.287 c 2.91 3.283 2.918 3.279 2.93 3.272 c 2.941 3.268 2.949 3.268
 2.965 3.26 c 2.965 3.26 2.965 3.252 2.961 3.252 c 2.957 3.256 l 2.938 3.26
 2.938 3.252 2.922 3.217 c 2.895 3.143 l 2.871 3.088 2.871 3.045 2.914 3.029
 c 2.953 3.014 2.984 3.049 3.004 3.1 c h
f
3.152 3.037 m 3.152 3.006 l 3.156 2.998 l 3.156 2.982 l 3.168 2.998 3.18
 3.014 3.195 3.029 c 3.242 3.088 l 3.262 3.119 3.277 3.135 3.281 3.15 c 
3.293 3.147 3.297 3.147 3.305 3.143 c 3.309 3.143 3.32 3.139 3.328 3.139
 c 3.332 3.135 3.328 3.127 3.328 3.127 c 3.32 3.131 l 3.301 3.131 3.297 
3.127 3.289 3.104 c 3.281 3.065 3.262 2.998 3.246 2.947 c 3.242 2.928 3.238
 2.92 3.254 2.916 c 3.262 2.912 l 3.262 2.908 3.262 2.904 3.258 2.9 c 3.246
 2.904 3.234 2.908 3.227 2.912 c 3.215 2.916 3.203 2.92 3.191 2.924 c 3.188
 2.924 3.191 2.932 3.191 2.932 c 3.199 2.932 l 3.215 2.928 3.219 2.932 3.223
 2.955 c 3.27 3.104 l 3.266 3.104 l 3.266 3.1 3.246 3.076 3.234 3.065 c 
3.191 3.01 l 3.168 2.982 3.145 2.951 3.137 2.94 c 3.137 2.936 3.133 2.936
 3.133 2.936 c 3.133 2.936 3.133 2.94 3.129 2.94 c 3.133 2.959 3.129 2.998
 3.129 3.018 c 3.121 3.092 l 3.121 3.111 3.121 3.131 3.121 3.15 c 3.113 
3.127 3.105 3.107 3.098 3.088 c 3.09 3.068 3.078 3.037 3.07 3.006 c 3.062
 2.979 3.062 2.975 3.074 2.971 c 3.082 2.967 l 3.086 2.963 3.082 2.955 3.082
 2.955 c 3.07 2.959 3.059 2.963 3.051 2.967 c 3.039 2.971 3.031 2.971 3.02
 2.975 c 3.02 2.979 3.02 2.982 3.023 2.982 c 3.027 2.982 l 3.043 2.982 3.047
 2.982 3.055 3.006 c 3.062 3.029 3.07 3.049 3.086 3.084 c 3.094 3.111 3.105
 3.143 3.109 3.158 c 3.117 3.182 3.117 3.186 3.102 3.197 c 3.098 3.197 l
 3.098 3.201 3.098 3.205 3.102 3.205 c 3.109 3.205 3.117 3.201 3.121 3.197
 c 3.129 3.197 3.137 3.193 3.148 3.193 c 3.141 3.178 3.141 3.154 3.145 3.131
 c h
f
3.438 3.092 m 3.445 3.1 l 3.449 3.1 l 3.449 3.104 l 3.453 3.104 l 3.457
 3.107 l 3.461 3.107 l 3.465 3.111 l 3.469 3.111 l 3.473 3.115 l 3.48 3.115
 l 3.484 3.119 l 3.508 3.119 l 3.516 3.123 l 3.52 3.119 l 3.535 3.119 3.559
 3.115 3.57 3.111 c 3.574 3.107 3.578 3.107 3.578 3.107 c 3.578 3.1 3.578
 3.076 3.582 3.053 c 3.578 3.053 3.574 3.049 3.574 3.053 c 3.57 3.08 3.559
 3.107 3.516 3.111 c 3.469 3.111 3.43 3.08 3.426 3.002 c 3.422 2.924 3.457
 2.881 3.508 2.877 c 3.547 2.877 3.562 2.904 3.57 2.928 c 3.574 2.928 3.578
 2.928 3.578 2.924 c 3.574 2.904 3.566 2.881 3.562 2.877 c 3.559 2.873 3.555
 2.873 3.551 2.873 c 3.547 2.869 3.523 2.865 3.504 2.865 c 3.477 2.869 3.453
 2.877 3.434 2.897 c 3.41 2.916 3.395 2.951 3.395 2.998 c 3.398 3.037 3.414
 3.072 3.438 3.092 c h
f
3.602 2.99 m 3.602 3.002 l 3.598 3.01 l 3.598 3.029 l 3.602 3.033 l 3.602
 3.053 l 3.605 3.061 l 3.605 3.065 l 3.609 3.068 l 3.609 3.076 l 3.617 3.084
 l 3.617 3.092 l 3.648 3.123 l 3.652 3.123 l 3.656 3.127 l 3.664 3.127 l
 3.668 3.131 l 3.672 3.131 l 3.68 3.135 l 3.684 3.135 l 3.75 3.147 3.793
 3.092 3.805 3.025 c 3.816 2.955 3.781 2.893 3.727 2.881 c 3.66 2.873 3.613
 2.924 3.602 2.99 c h
f
1 g
3.777 3.01 m 3.777 3.022 l 3.773 3.029 l 3.773 3.037 l 3.77 3.045 l 3.77
 3.049 l 3.766 3.057 l 3.766 3.061 l 3.762 3.065 l 3.762 3.068 l 3.758 3.076
 l 3.754 3.08 l 3.754 3.084 l 3.738 3.1 l 3.738 3.104 l 3.73 3.111 l 3.727
 3.111 l 3.719 3.119 l 3.711 3.119 l 3.703 3.123 l 3.68 3.123 l 3.648 3.119
 3.617 3.084 3.629 3.006 c 3.637 2.951 3.672 2.885 3.727 2.897 c 3.762 2.9
 3.789 2.94 3.777 3.01 c h
f
0 0.466667 0.819608 rg
4.012 2.998 m 4.012 2.99 l 4.016 2.986 l 4.016 2.979 l 4.02 2.979 l 4.02
 2.975 l 4.023 2.975 l 4.027 2.975 4.027 2.971 4.027 2.971 c 4.023 2.967
 4.016 2.967 4.012 2.963 c 4 2.955 3.98 2.943 3.965 2.94 c 3.93 2.932 3.898
 2.932 3.867 2.955 c 3.844 2.971 3.828 2.998 3.816 3.029 c 3.809 3.057 3.809
 3.092 3.82 3.119 c 3.832 3.15 3.855 3.174 3.898 3.186 c 3.914 3.19 3.93
 3.19 3.938 3.19 c 3.941 3.19 3.949 3.19 3.953 3.193 c 3.957 3.182 3.965
 3.162 3.973 3.143 c 3.973 3.139 3.969 3.139 3.965 3.139 c 3.945 3.174 3.922
 3.182 3.895 3.174 c 3.84 3.158 3.828 3.104 3.844 3.049 c 3.863 2.982 3.906
 2.936 3.961 2.951 c 3.98 2.955 3.988 2.963 3.992 2.971 c 3.992 2.975 3.992
 2.979 3.988 2.99 c 3.984 3.006 l 3.977 3.033 3.973 3.037 3.957 3.033 c 
3.941 3.033 l 3.941 3.033 3.938 3.041 3.941 3.041 c 3.949 3.045 3.965 3.049
 3.98 3.053 c 3.992 3.057 4 3.057 4.012 3.061 c 4.012 3.061 4.016 3.057 
4.012 3.053 c 4.008 3.049 l 3.996 3.045 4 3.037 4.004 3.018 c h
f
4.219 3.092 m 4.219 3.084 l 4.223 3.084 l 4.223 3.076 l 4.227 3.072 l 4.227
 3.065 l 4.23 3.057 l 4.23 3.053 l 4.234 3.053 l 4.234 3.041 l 4.238 3.041
 l 4.238 3.033 l 4.238 3.029 4.238 3.029 4.234 3.025 c 4.23 3.033 4.219 
3.041 4.184 3.068 c 4.086 3.135 l 4.074 3.143 4.043 3.166 4.035 3.17 c 4.035
 3.166 4.039 3.158 4.043 3.147 c 4.07 3.072 l 4.074 3.057 4.09 3.01 4.098
 3.002 c 4.102 2.998 4.109 2.998 4.117 2.998 c 4.125 3.002 l 4.129 2.998
 4.129 2.994 4.129 2.994 c 4.113 2.99 4.105 2.986 4.094 2.982 c 4.082 2.979
 4.074 2.975 4.066 2.971 c 4.062 2.971 4.062 2.979 4.062 2.979 c 4.07 2.982
 l 4.074 2.986 4.078 2.99 4.078 2.994 c 4.078 3.01 4.062 3.053 4.059 3.068
 c 4.023 3.17 l 4.02 3.178 4.016 3.186 4.008 3.19 c 4 3.193 3.992 3.193 
3.984 3.193 c 3.98 3.193 l 3.98 3.193 3.977 3.197 3.98 3.201 c 3.992 3.205
 4.004 3.209 4.012 3.213 c 4.016 3.213 4.02 3.213 4.023 3.217 c 4.035 3.201
 4.086 3.166 4.098 3.158 c 4.137 3.131 l 4.168 3.107 4.188 3.096 4.207 3.084
 c 4.207 3.084 4.207 3.092 4.203 3.1 c 4.176 3.174 l 4.172 3.19 4.152 3.232
 4.145 3.24 c 4.141 3.244 4.137 3.244 4.125 3.244 c 4.121 3.24 l 4.117 3.244
 4.117 3.248 4.117 3.252 c 4.133 3.256 4.141 3.256 4.152 3.26 c 4.164 3.268
 4.172 3.268 4.18 3.272 c 4.184 3.272 4.184 3.268 4.184 3.264 c 4.18 3.264
 l 4.172 3.256 4.168 3.252 4.168 3.248 c 4.168 3.236 4.184 3.193 4.188 3.178
 c h
f
4.223 3.154 m 4.223 3.162 l 4.219 3.17 l 4.219 3.174 l 4.215 3.182 l 4.215
 3.19 l 4.211 3.193 l 4.211 3.244 l 4.215 3.248 l 4.215 3.252 l 4.219 3.26
 l 4.219 3.264 l 4.223 3.268 l 4.223 3.275 l 4.23 3.283 l 4.23 3.287 l 4.254
 3.311 l 4.262 3.311 l 4.27 3.318 l 4.332 3.342 4.391 3.299 4.414 3.24 c
 4.441 3.17 4.422 3.104 4.367 3.084 c 4.309 3.057 4.25 3.096 4.223 3.154
 c h
f
1 g
4.391 3.217 m 4.391 3.225 l 4.383 3.232 l 4.383 3.24 l 4.371 3.252 l 4.371
 3.26 l 4.336 3.295 l 4.332 3.295 l 4.324 3.303 l 4.32 3.303 l 4.316 3.307
 l 4.309 3.307 l 4.305 3.311 l 4.285 3.311 l 4.281 3.307 l 4.273 3.307 l
 4.27 3.303 l 4.242 3.291 4.215 3.252 4.246 3.178 c 4.27 3.127 4.316 3.072
 4.367 3.096 c 4.402 3.107 4.418 3.15 4.391 3.217 c h
f
0 0.466667 0.819608 rg
4.531 3.15 m 4.523 3.15 l 4.52 3.147 l 4.504 3.147 l 4.5 3.143 l 4.496 
3.143 l 4.496 3.147 l 4.484 3.147 l 4.477 3.15 4.465 3.174 4.457 3.19 c 
4.457 3.193 4.461 3.197 4.461 3.193 c 4.473 3.178 4.5 3.15 4.531 3.166 c
 4.555 3.174 4.555 3.197 4.547 3.217 c 4.539 3.232 4.531 3.248 4.504 3.256
 c 4.469 3.264 l 4.449 3.272 4.426 3.283 4.414 3.311 c 4.402 3.342 4.41 
3.377 4.445 3.393 c 4.453 3.397 4.465 3.4 4.473 3.4 c 4.477 3.4 4.48 3.4
 4.48 3.4 c 4.488 3.393 4.5 3.377 4.504 3.361 c 4.504 3.361 4.5 3.357 4.5
 3.357 c 4.488 3.373 4.473 3.393 4.445 3.381 c 4.418 3.369 4.422 3.346 4.43
 3.33 c 4.438 3.311 4.457 3.299 4.469 3.299 c 4.5 3.291 l 4.523 3.283 4.547
 3.272 4.562 3.24 c 4.578 3.201 4.566 3.166 4.531 3.15 c h
f
4.543 3.404 m 4.547 3.404 l 4.547 3.412 l 4.551 3.412 l 4.551 3.416 l 4.555
 3.42 l 4.555 3.424 l 4.562 3.432 l 4.562 3.436 l 4.566 3.436 l 4.566 3.44
 l 4.57 3.44 l 4.57 3.443 l 4.574 3.443 l 4.574 3.447 l 4.578 3.447 l 4.578
 3.451 l 4.582 3.451 l 4.586 3.455 l 4.59 3.455 l 4.59 3.459 l 4.598 3.459
 l 4.598 3.463 l 4.605 3.463 l 4.617 3.471 4.641 3.475 4.656 3.479 c 4.66
 3.479 4.66 3.479 4.664 3.479 c 4.668 3.471 4.68 3.451 4.688 3.432 c 4.688
 3.428 4.684 3.428 4.684 3.428 c 4.668 3.451 4.645 3.471 4.605 3.451 c 4.562
 3.432 4.543 3.385 4.574 3.315 c 4.609 3.244 4.66 3.221 4.703 3.24 c 4.738
 3.26 4.742 3.295 4.738 3.315 c 4.738 3.318 4.746 3.318 4.746 3.318 c 4.754
 3.299 4.754 3.275 4.754 3.268 c 4.75 3.264 4.75 3.26 4.746 3.26 c 4.742
 3.252 4.727 3.24 4.707 3.232 c 4.684 3.221 4.656 3.217 4.629 3.225 c 4.602
 3.232 4.57 3.256 4.551 3.299 c 4.535 3.334 4.531 3.373 4.543 3.404 c h
f
4.723 3.451 m 4.723 3.455 l 4.719 3.459 l 4.719 3.463 l 4.715 3.467 l 4.715
 3.471 l 4.711 3.475 l 4.711 3.479 l 4.707 3.479 l 4.707 3.482 l 4.703 3.482
 l 4.703 3.486 l 4.688 3.486 l 4.684 3.482 l 4.68 3.486 4.68 3.49 4.68 3.494
 c 4.691 3.498 4.699 3.502 4.711 3.506 c 4.762 3.529 l 4.777 3.537 4.793
 3.545 4.797 3.549 c 4.801 3.541 4.816 3.518 4.824 3.506 c 4.824 3.502 4.816
 3.502 4.816 3.502 c 4.805 3.514 4.797 3.525 4.781 3.525 c 4.773 3.522 4.766
 3.518 4.754 3.514 c 4.734 3.506 l 4.727 3.502 4.727 3.502 4.734 3.486 c
 4.766 3.42 l 4.77 3.412 4.77 3.412 4.777 3.416 c 4.793 3.424 l 4.805 3.428
 4.812 3.432 4.816 3.436 c 4.816 3.44 4.816 3.44 4.816 3.451 c 4.812 3.463
 l 4.812 3.467 4.816 3.471 4.82 3.467 c 4.824 3.459 4.828 3.447 4.832 3.432
 c 4.84 3.42 4.848 3.408 4.848 3.4 c 4.848 3.4 4.844 3.397 4.844 3.397 c
 4.836 3.412 l 4.832 3.416 4.824 3.42 4.82 3.42 c 4.816 3.42 4.809 3.416
 4.797 3.412 c 4.781 3.404 l 4.773 3.4 4.773 3.4 4.777 3.393 c 4.801 3.346
 l 4.809 3.326 4.816 3.315 4.82 3.311 c 4.828 3.311 4.832 3.307 4.855 3.318
 c 4.879 3.33 4.887 3.334 4.891 3.338 c 4.895 3.346 4.895 3.361 4.895 3.381
 c 4.895 3.385 4.898 3.385 4.902 3.381 c 4.906 3.369 4.91 3.342 4.91 3.33
 c 4.887 3.318 4.863 3.307 4.84 3.299 c 4.816 3.287 l 4.801 3.279 4.793 
3.275 4.777 3.268 c 4.777 3.268 4.773 3.275 4.773 3.275 c 4.781 3.283 l 
4.797 3.291 4.797 3.295 4.781 3.33 c h
f
4.879 3.522 m 4.875 3.525 l 4.875 3.533 l 4.871 3.533 l 4.871 3.541 l 4.867
 3.541 l 4.867 3.549 l 4.863 3.549 l 4.863 3.553 l 4.859 3.553 l 4.859 3.557
 l 4.848 3.557 l 4.84 3.553 l 4.836 3.557 4.832 3.561 4.836 3.565 c 4.848
 3.572 4.867 3.58 4.895 3.592 c 4.91 3.6 4.926 3.607 4.941 3.604 c 4.957
 3.604 4.977 3.592 4.984 3.568 c 5 3.537 4.988 3.51 4.98 3.498 c 4.98 3.494
 4.98 3.49 4.984 3.49 c 5.027 3.455 5.051 3.436 5.078 3.424 c 5.086 3.424
 5.094 3.42 5.102 3.424 c 5.105 3.424 5.105 3.424 5.105 3.42 c 5.102 3.42
 5.098 3.416 5.094 3.412 c 5.07 3.4 5.055 3.404 5.02 3.428 c 5.008 3.44 
4.984 3.455 4.969 3.467 c 4.961 3.475 4.957 3.475 4.945 3.471 c 4.934 3.463
 4.934 3.463 4.938 3.455 c 4.957 3.412 l 4.973 3.377 4.977 3.373 4.992 3.381
 c 4.996 3.381 l 5 3.381 5.004 3.373 5 3.373 c 4.988 3.369 4.98 3.365 4.969
 3.357 c 4.957 3.354 4.949 3.35 4.938 3.342 c 4.934 3.342 4.93 3.346 4.934
 3.35 c 4.938 3.354 l 4.953 3.365 4.949 3.369 4.934 3.404 c h
f
1 g
4.922 3.486 m 4.922 3.482 l 4.926 3.482 l 4.926 3.475 l 4.93 3.475 l 4.93
 3.475 4.934 3.475 4.945 3.482 c 4.957 3.486 4.965 3.494 4.969 3.502 c 4.973
 3.514 4.977 3.529 4.965 3.553 c 4.953 3.576 4.926 3.596 4.898 3.584 c 4.879
 3.576 4.879 3.572 4.887 3.565 c h
f
0 0.466667 0.819608 rg
5.043 3.604 m 5.043 3.611 l 5.039 3.615 l 5.039 3.619 l 5.035 3.623 l 5.035
 3.627 l 5.031 3.631 l 5.031 3.635 l 5.027 3.635 l 5.027 3.639 l 5.023 3.639
 l 5.02 3.643 l 5.016 3.643 l 5.016 3.639 l 5.008 3.639 l 5.004 3.639 5 
3.647 5.004 3.647 c 5.016 3.65 5.023 3.654 5.035 3.658 c 5.086 3.682 l 5.105
 3.686 5.121 3.693 5.125 3.693 c 5.129 3.69 5.141 3.666 5.148 3.65 c 5.145
 3.65 5.141 3.647 5.141 3.647 c 5.129 3.662 5.121 3.674 5.105 3.674 c 5.102
 3.67 5.09 3.67 5.078 3.662 c 5.059 3.654 l 5.051 3.654 5.051 3.65 5.055
 3.639 c 5.082 3.568 l 5.086 3.561 5.09 3.561 5.098 3.565 c 5.113 3.572 
l 5.125 3.576 5.133 3.58 5.133 3.58 c 5.137 3.584 5.137 3.588 5.137 3.596
 c 5.133 3.611 l 5.133 3.615 5.137 3.615 5.141 3.615 c 5.145 3.607 5.148
 3.592 5.152 3.58 c 5.156 3.568 5.164 3.553 5.168 3.545 c 5.168 3.545 5.164
 3.541 5.16 3.545 c 5.152 3.557 l 5.148 3.561 5.145 3.565 5.141 3.565 c 
5.133 3.565 5.129 3.565 5.117 3.561 c 5.102 3.553 l 5.094 3.549 5.094 3.549
 5.094 3.541 c 5.113 3.49 l 5.121 3.475 5.129 3.463 5.133 3.459 c 5.141 
3.455 5.145 3.451 5.172 3.463 c 5.191 3.471 5.199 3.475 5.203 3.482 c 5.207
 3.486 5.211 3.502 5.211 3.522 c 5.211 3.525 5.215 3.525 5.219 3.522 c 5.219
 3.51 5.223 3.482 5.223 3.471 c 5.199 3.463 5.176 3.451 5.148 3.443 c 5.125
 3.432 l 5.113 3.428 5.105 3.424 5.09 3.416 c 5.086 3.416 5.082 3.424 5.086
 3.424 c 5.094 3.428 l 5.109 3.44 5.109 3.443 5.094 3.479 c h
f
5.293 3.693 m 5.293 3.701 l 5.289 3.701 l 5.289 3.713 l 5.285 3.713 l 5.285
 3.721 l 5.281 3.725 l 5.281 3.729 l 5.277 3.729 l 5.277 3.732 l 5.27 3.732
 l 5.258 3.729 l 5.258 3.732 5.254 3.736 5.258 3.74 c 5.273 3.744 5.293 
3.752 5.32 3.76 c 5.336 3.768 5.355 3.768 5.371 3.764 c 5.387 3.76 5.398
 3.748 5.406 3.721 c 5.418 3.69 5.402 3.662 5.391 3.65 c 5.391 3.65 5.391
 3.647 5.395 3.643 c 5.43 3.604 5.453 3.58 5.48 3.568 c 5.484 3.565 5.492
 3.561 5.5 3.565 c 5.504 3.565 5.504 3.561 5.504 3.557 c 5.5 3.557 5.496
 3.553 5.492 3.553 c 5.469 3.545 5.449 3.549 5.418 3.58 c 5.406 3.592 5.391
 3.611 5.375 3.623 c 5.367 3.631 5.363 3.635 5.352 3.631 c 5.34 3.627 5.34
 3.627 5.34 3.619 c 5.355 3.572 l 5.363 3.537 5.367 3.533 5.383 3.533 c 
5.391 3.537 l 5.395 3.533 5.395 3.529 5.391 3.525 c 5.379 3.522 5.371 3.522
 5.359 3.518 c 5.348 3.514 5.336 3.51 5.324 3.506 c 5.32 3.506 5.32 3.514
 5.32 3.514 c 5.328 3.518 l 5.344 3.525 5.344 3.529 5.332 3.568 c h
f
1 g
5.332 3.65 m 5.332 3.643 l 5.336 3.643 l 5.336 3.639 l 5.336 3.639 5.34
 3.639 5.355 3.643 c 5.367 3.647 5.375 3.65 5.383 3.662 c 5.387 3.67 5.391
 3.686 5.383 3.709 c 5.375 3.736 5.355 3.76 5.32 3.748 c 5.305 3.744 5.305
 3.744 5.309 3.732 c h
f
0 0.466667 0.819608 rg
5.469 3.744 m 5.469 3.752 l 5.465 3.756 l 5.465 3.772 l 5.461 3.772 l 5.461
 3.779 l 5.457 3.783 l 5.453 3.783 l 5.453 3.787 l 5.438 3.787 l 5.438 3.787
 5.438 3.795 5.438 3.795 c 5.449 3.799 5.461 3.799 5.473 3.799 c 5.527 3.811
 l 5.547 3.811 5.562 3.815 5.566 3.815 c 5.57 3.811 5.574 3.783 5.578 3.768
 c 5.578 3.768 5.574 3.764 5.57 3.768 c 5.562 3.783 5.559 3.795 5.543 3.799
 c 5.539 3.799 5.527 3.799 5.516 3.795 c 5.492 3.791 l 5.484 3.791 5.484
 3.791 5.488 3.775 c 5.5 3.705 l 5.5 3.693 5.5 3.693 5.512 3.693 c 5.527
 3.697 l 5.539 3.701 5.547 3.701 5.551 3.705 c 5.555 3.705 5.559 3.709 5.559
 3.717 c 5.559 3.732 l 5.559 3.736 5.562 3.736 5.562 3.732 c 5.566 3.725
 5.566 3.709 5.57 3.697 c 5.57 3.686 5.574 3.67 5.574 3.662 c 5.574 3.658
 5.57 3.658 5.57 3.662 c 5.562 3.674 l 5.562 3.682 5.559 3.686 5.551 3.686
 c 5.547 3.686 5.539 3.686 5.531 3.686 c 5.512 3.682 l 5.504 3.682 5.504
 3.682 5.504 3.67 c 5.512 3.619 l 5.516 3.6 5.52 3.588 5.523 3.584 c 5.527
 3.58 5.535 3.576 5.562 3.58 c 5.582 3.584 5.59 3.588 5.598 3.592 c 5.602
 3.596 5.609 3.611 5.613 3.631 c 5.613 3.631 5.617 3.631 5.621 3.627 c 5.621
 3.615 5.617 3.588 5.613 3.576 c 5.59 3.572 5.562 3.568 5.535 3.565 c 5.512
 3.561 l 5.5 3.557 5.488 3.557 5.473 3.553 c 5.469 3.553 5.469 3.561 5.469
 3.561 c 5.48 3.565 l 5.496 3.568 5.496 3.572 5.488 3.611 c h
f
5.633 3.76 m 5.633 3.795 l 5.629 3.795 l 5.629 3.799 l 5.625 3.799 l 5.625
 3.803 l 5.609 3.803 l 5.609 3.807 5.609 3.811 5.609 3.815 c 5.629 3.815
 5.648 3.815 5.676 3.815 c 5.695 3.815 5.711 3.815 5.727 3.807 c 5.742 3.795
 5.75 3.779 5.75 3.752 c 5.75 3.717 5.73 3.697 5.715 3.693 c 5.711 3.69 
5.715 3.686 5.715 3.682 c 5.738 3.635 5.754 3.604 5.773 3.584 c 5.781 3.58
 5.785 3.576 5.793 3.572 c 5.797 3.572 5.797 3.568 5.797 3.568 c 5.793 3.568
 5.789 3.568 5.781 3.568 c 5.758 3.568 5.742 3.576 5.723 3.611 c 5.715 3.627
 5.703 3.654 5.691 3.67 c 5.688 3.678 5.684 3.682 5.672 3.682 c 5.66 3.682
 5.656 3.682 5.656 3.674 c 5.656 3.627 l 5.656 3.588 5.66 3.584 5.676 3.58
 c 5.68 3.58 l 5.684 3.576 5.684 3.572 5.68 3.568 c 5.668 3.568 5.656 3.572
 5.645 3.572 c 5.633 3.572 5.621 3.568 5.609 3.568 c 5.605 3.572 5.605 3.576
 5.609 3.58 c 5.617 3.58 l 5.633 3.584 5.633 3.588 5.633 3.627 c h
f
1 g
5.656 3.705 m 5.656 3.697 l 5.66 3.697 l 5.66 3.693 l 5.66 3.693 5.664 
3.693 5.68 3.693 c 5.691 3.693 5.699 3.693 5.711 3.701 c 5.719 3.709 5.723
 3.721 5.723 3.748 c 5.723 3.775 5.711 3.803 5.676 3.803 c 5.66 3.803 5.656
 3.803 5.656 3.791 c h
f
0 0.466667 0.819608 rg
5.941 3.697 m 5.945 3.697 l 5.945 3.721 l 5.949 3.729 l 5.949 3.772 l 5.949
 3.779 5.941 3.783 5.938 3.783 c 5.93 3.787 l 5.93 3.787 5.93 3.791 5.93
 3.795 c 5.941 3.791 5.953 3.787 5.965 3.787 c 5.977 3.787 5.984 3.783 5.996
 3.783 c 5.996 3.783 5.996 3.775 5.996 3.775 c 5.988 3.775 l 5.98 3.775 
5.973 3.772 5.973 3.768 c 5.965 3.756 5.957 3.717 5.953 3.693 c 5.949 3.654
 l 5.941 3.623 5.934 3.588 5.914 3.568 c 5.898 3.557 5.875 3.549 5.855 3.553
 c 5.836 3.557 5.816 3.565 5.805 3.58 c 5.789 3.6 5.785 3.627 5.793 3.67
 c 5.809 3.756 l 5.812 3.795 5.816 3.803 5.797 3.807 c 5.789 3.807 l 5.789
 3.811 5.789 3.815 5.793 3.815 c 5.809 3.815 5.816 3.811 5.828 3.811 c 5.84
 3.807 5.852 3.807 5.863 3.803 c 5.867 3.803 5.867 3.795 5.863 3.795 c 5.855
 3.795 l 5.84 3.795 5.84 3.791 5.832 3.752 c 5.82 3.674 l 5.809 3.615 5.816
 3.576 5.863 3.568 c 5.906 3.561 5.926 3.6 5.938 3.654 c h
f
6.07 3.6 m 6.066 3.584 l 6.066 3.545 l 6.082 3.557 6.094 3.572 6.109 3.588
 c 6.164 3.639 l 6.191 3.662 6.207 3.678 6.215 3.693 c 6.223 3.69 6.227 
3.686 6.234 3.686 c 6.238 3.682 6.25 3.678 6.258 3.674 c 6.258 3.674 6.254
 3.666 6.254 3.666 c 6.246 3.666 l 6.23 3.674 6.227 3.666 6.215 3.643 c 
6.199 3.607 6.172 3.545 6.152 3.498 c 6.145 3.479 6.141 3.471 6.152 3.463
 c 6.16 3.459 l 6.164 3.455 6.16 3.451 6.156 3.451 c 6.148 3.455 6.137 3.463
 6.125 3.467 c 6.117 3.471 6.105 3.475 6.094 3.479 c 6.094 3.482 6.094 3.486
 6.098 3.486 c 6.105 3.486 l 6.117 3.482 6.121 3.486 6.129 3.51 c 6.191 
3.65 l 6.188 3.647 6.168 3.623 6.156 3.611 c 6.105 3.565 l 6.078 3.541 6.055
 3.514 6.043 3.502 c 6.039 3.502 6.039 3.502 6.039 3.502 c 6.039 3.502 6.035
 3.502 6.035 3.502 c 6.039 3.525 6.043 3.561 6.043 3.58 c 6.047 3.658 l 
6.051 3.674 6.051 3.693 6.051 3.713 c 6.039 3.693 6.031 3.674 6.023 3.654
 c 6.012 3.635 5.996 3.604 5.984 3.576 c 5.973 3.553 5.973 3.545 5.984 3.541
 c 5.992 3.533 l 5.992 3.533 5.992 3.525 5.988 3.525 c 5.98 3.529 5.969 
3.537 5.961 3.541 c 5.949 3.545 5.941 3.549 5.934 3.553 c 5.93 3.553 5.934
 3.561 5.934 3.561 c 5.941 3.561 l 5.953 3.557 5.957 3.557 5.969 3.58 c 
5.98 3.6 5.992 3.619 6.008 3.65 c 6.023 3.678 6.035 3.705 6.043 3.725 c 
6.055 3.744 6.055 3.752 6.039 3.76 c 6.035 3.764 l 6.035 3.768 6.035 3.772
 6.039 3.772 c 6.047 3.768 6.055 3.764 6.059 3.76 c 6.066 3.76 6.074 3.756
 6.082 3.752 c 6.078 3.74 6.074 3.717 6.074 3.69 c h
f
0.580392 0.552941 0.152941 rg
3.559 5.537 m 3.484 5.525 l 3.207 5.459 2.379 5.19 2.211 5.143 c 2.168 
5.131 2.125 5.178 2.129 5.221 c 2.129 5.244 2.141 5.268 2.164 5.279 c 2.418
 5.404 3.301 5.83 3.508 5.9 c 3.562 5.912 l 3.617 5.9 l 3.824 5.83 4.707
 5.404 4.965 5.279 c 4.988 5.268 4.996 5.244 4.996 5.221 c 5 5.178 4.957
 5.131 4.914 5.143 c 4.746 5.19 3.918 5.459 3.641 5.525 c h
f
7.199 8.67 13.773 -6.973 re f
1 g
18.934 7.42 m 18.934 4.494 l 18.934 3.799 18.934 3.033 17.883 3.033 c 16.895
 3.033 16.898 3.865 16.898 4.65 c 16.898 7.42 l 15.016 7.42 l 15.016 3.674
 l 15 3.674 l 12.832 7.42 l 11.379 7.42 l 11.379 7.272 l 11.969 7.15 12.066
 7.182 12.066 6.537 c 12.066 2.815 l 10.398 7.42 l 9.102 7.42 l 9.102 7.272
 l 9.379 7.229 9.633 7.221 9.633 6.947 c 9.633 6.897 9.559 6.658 9.516 6.537
 c 8.145 2.783 l 8.57 2.783 l 9.09 4.217 l 10.844 4.217 l 11.363 2.783 l
 12.5 2.783 l 12.5 6.705 l 12.516 6.705 l 14.789 2.783 l 15.449 2.783 l 
15.449 7.272 l 16.043 7.15 16.137 7.182 16.137 6.537 c 16.137 4.307 l 16.137
 3.279 16.578 2.709 17.793 2.709 c 19.348 2.709 19.434 3.647 19.434 4.568
 c 19.434 7.42 l h
f
0.584314 0.560784 0.152941 rg
9.207 4.541 m 9.941 6.553 l 10.727 4.541 l h
f
0 g
0.254 0.779 m 0.051 0.779 l 0.051 0.861 l 0.598 0.861 l 0.598 0.779 l 0.391
 0.779 l 0.391 0.014 l 0.254 0.014 l h
f
0.703 0.861 m 0.836 0.861 l 0.836 0.494 l 1.145 0.494 l 1.145 0.861 l 1.281
 0.861 l 1.281 0.014 l 1.145 0.014 l 1.145 0.416 l 0.836 0.416 l 0.836 0.014
 l 0.703 0.014 l h
f
1.48 0.861 m 1.93 0.861 l 1.93 0.779 l 1.617 0.779 l 1.617 0.494 l 1.91
 0.494 l 1.91 0.416 l 1.617 0.416 l 1.617 0.104 l 1.938 0.104 l 1.938 0.014
 l 1.48 0.014 l h
f
2.625 0.861 m 2.766 0.861 l 3.051 0.014 l 2.91 0.014 l 2.832 0.268 l 2.539
 0.268 l 2.461 0.014 l 2.344 0.014 l h
f
1 g
2.566 0.346 m 2.809 0.346 l 2.688 0.74 l 2.684 0.74 l h
f
0 g
3.73 0.315 m 3.73 0.256 l 3.727 0.244 l 3.727 0.229 l 3.723 0.213 l 3.723
 0.201 l 3.719 0.186 l 3.715 0.174 l 3.711 0.158 l 3.699 0.123 l 3.668 0.076
 l 3.66 0.068 l 3.648 0.061 l 3.637 0.049 l 3.613 0.033 l 3.605 0.029 l 
3.598 0.029 l 3.574 0.018 l 3.566 0.018 l 3.551 0.01 l 3.539 0.01 l 3.531
 0.006 l 3.512 0.006 l 3.5 0.002 l 3.453 0.002 l 3.441 -0.002 l 3.18 -0.002
 3.156 0.158 3.156 0.315 c 3.156 0.861 l 3.289 0.861 l 3.289 0.315 l 3.289
 0.178 3.301 0.072 3.441 0.072 c 3.586 0.072 3.594 0.178 3.594 0.315 c 3.594
 0.861 l 3.73 0.861 l h
f
4.348 0.736 m 4.344 0.74 l 4.336 0.74 l 4.328 0.748 l 4.324 0.748 l 4.32
 0.752 l 4.316 0.752 l 4.309 0.756 l 4.305 0.756 l 4.297 0.76 l 4.293 0.764
 l 4.285 0.764 l 4.281 0.768 l 4.273 0.772 l 4.266 0.772 l 4.258 0.775 l
 4.25 0.775 l 4.242 0.779 l 4.238 0.779 l 4.23 0.783 l 4.223 0.783 l 4.215
 0.787 l 4.203 0.787 l 4.195 0.791 l 4.172 0.791 l 4.164 0.795 l 4.137 0.795
 l 4.062 0.795 4.008 0.752 4.008 0.69 c 4.008 0.51 4.41 0.514 4.41 0.248
 c 4.41 0.068 4.27 -0.002 4.102 -0.002 c 4.004 -0.002 3.91 0.022 3.887 0.033
 c 3.887 0.162 l 3.922 0.143 4.023 0.088 4.121 0.088 c 4.211 0.088 4.273
 0.127 4.273 0.213 c 4.273 0.404 3.875 0.393 3.875 0.658 c 3.875 0.795 3.977
 0.877 4.152 0.877 c 4.23 0.877 4.316 0.861 4.348 0.854 c h
f
4.652 0.779 m 4.449 0.779 l 4.449 0.861 l 4.992 0.861 l 4.992 0.779 l 4.789
 0.779 l 4.789 0.014 l 4.652 0.014 l h
f
5.098 0.861 m 5.285 0.861 l 5.426 0.861 5.613 0.842 5.613 0.639 c 5.613
 0.502 5.504 0.455 5.434 0.443 c 5.434 0.44 l 5.562 0.416 5.578 0.334 5.598
 0.232 c 5.645 0.014 l 5.508 0.014 l 5.461 0.24 l 5.441 0.311 5.418 0.393
 5.285 0.393 c 5.234 0.393 l 5.234 0.014 l 5.098 0.014 l h
f
1 g
5.234 0.471 m 5.285 0.471 l 5.371 0.471 5.48 0.498 5.48 0.635 c 5.48 0.748
 5.414 0.779 5.285 0.779 c 5.234 0.779 l h
f
0 g
5.984 0.861 m 6.125 0.861 l 6.41 0.014 l 6.27 0.014 l 6.191 0.268 l 5.898
 0.268 l 5.82 0.014 l 5.703 0.014 l h
f
1 g
5.926 0.346 m 6.168 0.346 l 6.047 0.74 l h
f
0 g
6.523 0.861 m 6.66 0.861 l 6.66 0.104 l 6.973 0.104 l 6.973 0.014 l 6.523
 0.014 l h
f
7.082 0.861 0.137 -0.848 re f
7.621 0.861 m 7.762 0.861 l 8.047 0.014 l 7.906 0.014 l 7.828 0.268 l 7.535
 0.268 l 7.457 0.014 l 7.34 0.014 l h
f
1 g
7.562 0.346 m 7.805 0.346 l 7.684 0.74 l h
f
0 g
8.16 0.861 m 8.312 0.861 l 8.648 0.19 l 8.652 0.19 l 8.652 0.861 l 8.762
 0.861 l 8.762 0.014 l 8.621 0.014 l 8.277 0.705 l 8.273 0.705 l 8.273 0.014
 l 8.16 0.014 l h
f
9.312 0.861 m 9.465 0.861 l 9.801 0.19 l 9.805 0.19 l 9.805 0.861 l 9.914
 0.861 l 9.914 0.014 l 9.773 0.014 l 9.43 0.705 l 9.426 0.705 l 9.426 0.014
 l 9.312 0.014 l h
f
10.312 0.861 m 10.453 0.861 l 10.738 0.014 l 10.598 0.014 l 10.52 0.268
 l 10.227 0.268 l 10.148 0.014 l 10.031 0.014 l h
f
1 g
10.254 0.346 m 10.496 0.346 l 10.375 0.74 l h
f
0 g
10.938 0.779 m 10.73 0.779 l 10.73 0.861 l 11.277 0.861 l 11.277 0.779 
l 11.074 0.779 l 11.074 0.014 l 10.938 0.014 l h
f
11.391 0.861 0.133 -0.848 re f
11.691 0.44 m 11.691 0.506 l 11.699 0.553 l 11.699 0.572 l 11.703 0.592
 l 11.707 0.615 l 11.715 0.635 l 11.719 0.65 l 11.723 0.67 l 11.73 0.69 
l 11.746 0.721 l 11.758 0.736 l 11.766 0.752 l 11.777 0.768 l 11.789 0.779
 l 11.797 0.791 l 11.812 0.803 l 11.824 0.815 l 11.84 0.826 l 11.855 0.834
 l 11.867 0.842 l 11.883 0.85 l 11.902 0.857 l 11.922 0.861 l 11.938 0.865
 l 11.977 0.873 l 12 0.873 l 12.02 0.877 l 12.258 0.877 12.352 0.693 12.352
 0.44 c 12.352 0.182 12.258 -0.002 12.02 -0.002 c 11.781 -0.002 11.691 0.182
 11.691 0.44 c h
f
1 g
12.02 0.072 m 12.027 0.072 l 12.035 0.076 l 12.059 0.076 l 12.062 0.08 
l 12.07 0.08 l 12.078 0.084 l 12.082 0.084 l 12.09 0.088 l 12.094 0.092 
l 12.102 0.096 l 12.109 0.104 l 12.121 0.111 l 12.148 0.139 l 12.152 0.15
 l 12.168 0.174 l 12.172 0.186 l 12.176 0.201 l 12.184 0.213 l 12.188 0.229
 l 12.191 0.24 l 12.191 0.256 l 12.199 0.287 l 12.199 0.303 l 12.203 0.318
 l 12.203 0.334 l 12.207 0.35 l 12.207 0.393 l 12.211 0.408 l 12.211 0.44
 l 12.211 0.588 12.188 0.803 12.02 0.803 c 11.855 0.803 11.836 0.588 11.836
 0.44 c 11.836 0.287 11.855 0.072 12.02 0.072 c h
f
0 g
12.512 0.861 m 12.664 0.861 l 13 0.19 l 13.004 0.19 l 13.004 0.861 l 13.113
 0.861 l 13.113 0.014 l 12.973 0.014 l 12.629 0.705 l 12.625 0.705 l 12.625
 0.014 l 12.512 0.014 l h
f
13.512 0.861 m 13.652 0.861 l 13.938 0.014 l 13.797 0.014 l 13.719 0.268
 l 13.426 0.268 l 13.352 0.014 l 13.23 0.014 l h
f
1 g
13.453 0.346 m 13.695 0.346 l 13.574 0.74 l h
f
0 g
14.055 0.861 m 14.188 0.861 l 14.188 0.104 l 14.5 0.104 l 14.5 0.014 l 
14.055 0.014 l h
f
15.52 0.315 m 15.52 0.287 l 15.516 0.256 l 15.516 0.229 l 15.512 0.213 
l 15.512 0.201 l 15.508 0.186 l 15.508 0.174 l 15.5 0.158 l 15.488 0.123
 l 15.473 0.1 l 15.469 0.088 l 15.449 0.068 l 15.438 0.061 l 15.426 0.049
 l 15.402 0.033 l 15.395 0.029 l 15.387 0.029 l 15.363 0.018 l 15.355 0.018
 l 15.34 0.01 l 15.328 0.01 l 15.32 0.006 l 15.301 0.006 l 15.289 0.002 
l 15.242 0.002 l 15.23 -0.002 l 14.969 -0.002 14.945 0.158 14.945 0.315 
c 14.945 0.861 l 15.078 0.861 l 15.078 0.315 l 15.078 0.178 15.09 0.072 
15.23 0.072 c 15.375 0.072 15.383 0.178 15.383 0.315 c 15.383 0.861 l 15.52
 0.861 l h
f
15.711 0.861 m 15.863 0.861 l 16.199 0.19 l 16.203 0.19 l 16.203 0.861 
l 16.312 0.861 l 16.312 0.014 l 16.176 0.014 l 15.828 0.705 l 15.824 0.705
 l 15.824 0.014 l 15.711 0.014 l h
f
16.523 0.861 0.133 -0.848 re f
16.746 0.861 m 16.887 0.861 l 17.109 0.178 l 17.332 0.861 l 17.449 0.861
 l 17.164 0.014 l 17.027 0.014 l h
f
17.531 0.861 m 17.98 0.861 l 17.98 0.779 l 17.668 0.779 l 17.668 0.494 
l 17.961 0.494 l 17.961 0.416 l 17.668 0.416 l 17.668 0.104 l 17.988 0.104
 l 17.988 0.014 l 17.531 0.014 l h
f
18.133 0.861 m 18.316 0.861 l 18.461 0.861 18.648 0.842 18.648 0.639 c 
18.648 0.502 18.539 0.455 18.465 0.443 c 18.465 0.44 l 18.594 0.416 18.609
 0.334 18.633 0.232 c 18.676 0.014 l 18.539 0.014 l 18.492 0.24 l 18.473
 0.311 18.449 0.393 18.316 0.393 c 18.266 0.393 l 18.266 0.014 l 18.133 
0.014 l h
f
1 g
18.266 0.471 m 18.316 0.471 l 18.402 0.471 18.512 0.498 18.512 0.635 c 
18.512 0.748 18.445 0.779 18.316 0.779 c 18.266 0.779 l h
f
0 g
19.246 0.736 m 19.242 0.74 l 19.234 0.74 l 19.23 0.744 l 19.23 0.748 l 
19.223 0.748 l 19.219 0.752 l 19.215 0.752 l 19.207 0.756 l 19.203 0.756
 l 19.195 0.76 l 19.191 0.764 l 19.184 0.764 l 19.18 0.768 l 19.172 0.772
 l 19.164 0.772 l 19.156 0.775 l 19.148 0.775 l 19.141 0.779 l 19.137 0.779
 l 19.129 0.783 l 19.121 0.783 l 19.113 0.787 l 19.102 0.787 l 19.098 0.791
 l 19.07 0.791 l 19.062 0.795 l 19.035 0.795 l 18.961 0.795 18.91 0.752 
18.91 0.69 c 18.91 0.51 19.309 0.514 19.309 0.248 c 19.309 0.068 19.168 
-0.002 19 -0.002 c 18.902 -0.002 18.809 0.022 18.785 0.033 c 18.785 0.162
 l 18.824 0.143 18.918 0.088 19.02 0.088 c 19.109 0.088 19.172 0.127 19.172
 0.213 c 19.172 0.404 18.773 0.393 18.773 0.658 c 18.773 0.795 18.875 0.877
 19.051 0.877 c 19.129 0.877 19.211 0.861 19.246 0.854 c h
f
19.449 0.861 0.137 -0.848 re f
19.898 0.779 m 19.695 0.779 l 19.695 0.861 l 20.238 0.861 l 20.238 0.779
 l 20.035 0.779 l 20.035 0.014 l 19.898 0.014 l h
f
20.492 0.408 m 20.234 0.861 l 20.383 0.861 l 20.574 0.529 l 20.773 0.861
 l 20.902 0.861 l 20.629 0.408 l 20.629 0.014 l 20.492 0.014 l h
f
Q Q
showpage
%%Trailer
%%EOF
