%!PS-Adobe-3.0
%%Creator: cairo 1.12.2 (http://cairographics.org)
%%CreationDate: Mon Aug  6 13:42:41 2012
%%Pages: 1
%%DocumentData: Clean7Bit
%%LanguageLevel: 2
%%DocumentMedia: 56x19mm 159 54 0 () ()
%%BoundingBox: 0 -1 159 55
%%EndComments
%%BeginProlog
/languagelevel where
{ pop languagelevel } { 1 } ifelse
2 lt { /Helvetica findfont 12 scalefont setfont 50 500 moveto
  (This print job requires a PostScript Language Level 2 printer.) show
  showpage quit } if
/q { gsave } bind def
/Q { grestore } bind def
/cm { 6 array astore concat } bind def
/w { setlinewidth } bind def
/J { setlinecap } bind def
/j { setlinejoin } bind def
/M { setmiterlimit } bind def
/d { setdash } bind def
/m { moveto } bind def
/l { lineto } bind def
/c { curveto } bind def
/h { closepath } bind def
/re { exch dup neg 3 1 roll 5 3 roll moveto 0 rlineto
      0 exch rlineto 0 rlineto closepath } bind def
/S { stroke } bind def
/f { fill } bind def
/f* { eofill } bind def
/n { newpath } bind def
/W { clip } bind def
/W* { eoclip } bind def
/BT { } bind def
/ET { } bind def
/pdfmark where { pop globaldict /?pdfmark /exec load put }
    { globaldict begin /?pdfmark /pop load def /pdfmark
    /cleartomark load def end } ifelse
/BDC { mark 3 1 roll /BDC pdfmark } bind def
/EMC { mark /EMC pdfmark } bind def
/cairo_store_point { /cairo_point_y exch def /cairo_point_x exch def } def
/Tj { show currentpoint cairo_store_point } bind def
/TJ {
  {
    dup
    type /stringtype eq
    { show } { -0.001 mul 0 cairo_font_matrix dtransform rmoveto } ifelse
  } forall
  currentpoint cairo_store_point
} bind def
/cairo_selectfont { cairo_font_matrix aload pop pop pop 0 0 6 array astore
    cairo_font exch selectfont cairo_point_x cairo_point_y moveto } bind def
/Tf { pop /cairo_font exch def /cairo_font_matrix where
      { pop cairo_selectfont } if } bind def
/Td { matrix translate cairo_font_matrix matrix concatmatrix dup
      /cairo_font_matrix exch def dup 4 get exch 5 get cairo_store_point
      /cairo_font where { pop cairo_selectfont } if } bind def
/Tm { 2 copy 8 2 roll 6 array astore /cairo_font_matrix exch def
      cairo_store_point /cairo_font where { pop cairo_selectfont } if } bind def
/g { setgray } bind def
/rg { setrgbcolor } bind def
/d1 { setcachedevice } bind def
%%EndProlog
%%Page: 1 1
%%BeginPageSetup
%%PageMedia: 56x19mm
%%PageBoundingBox: 0 -1 159 55
%%EndPageSetup
q 0 -1 159 56 rectclip q
q
0 54.267 159 -55 re W n
[ 1 0 0 1 0 -0.733429 ] concat
  q
0.137255 0.121569 0.12549 rg
81.105 44.441 m 85.859 44.441 l 83.52 50.977 l 83.484 50.977 l h
82.504 52.664 m 84.562 52.664 l 90.039 38.648 l 87.977 38.648 l 86.445 
42.871 l 80.52 42.871 l 78.949 38.648 l 77.027 38.648 l 82.504 52.664 l f
99.047 38.648 m 97.473 38.648 l 97.473 40.258 l 97.438 40.258 l 96.727 
39.004 95.59 38.414 94.137 38.414 c 91.469 38.414 90.645 39.945 90.645 42.125
 c 90.645 48.797 l 92.312 48.797 l 92.312 41.926 l 92.312 40.691 93.098 
39.887 94.375 39.887 c 96.395 39.887 97.379 41.242 97.379 43.066 c 97.379
 48.797 l 99.047 48.797 l 99.047 38.648 l f
102.086 41.848 m 102.145 40.355 103.441 39.887 104.812 39.887 c 105.855
 39.887 107.266 40.121 107.266 41.398 c 107.266 42.695 105.617 42.91 103.949
 43.281 c 102.301 43.656 100.633 44.203 100.633 46.148 c 100.633 48.188 
102.652 49.031 104.422 49.031 c 106.66 49.031 108.445 48.328 108.582 45.852
 c 106.914 45.852 l 106.797 47.148 105.656 47.559 104.559 47.559 c 103.559
 47.559 102.398 47.285 102.398 46.266 c 102.398 45.066 104.164 44.871 105.715
 44.5 c 107.387 44.125 109.035 43.578 109.035 41.613 c 109.035 39.199 106.777
 38.414 104.715 38.414 c 102.438 38.414 100.516 39.336 100.418 41.848 c 
102.086 41.848 l f
112.801 48.797 m 114.82 48.797 l 114.82 47.324 l 112.801 47.324 l 112.801
 41.023 l 112.801 40.258 113.016 40.121 114.059 40.121 c 114.82 40.121 l
 114.82 38.648 l 113.547 38.648 l 111.82 38.648 111.133 39.004 111.133 40.867
 c 111.133 47.324 l 109.406 47.324 l 109.406 48.797 l 111.133 48.797 l 111.133
 51.84 l 112.801 51.84 l 112.801 48.797 l f
116.508 48.797 m 118.078 48.797 l 118.078 46.656 l 118.117 46.656 l 118.926
 48.285 120.043 49.09 121.848 49.031 c 121.848 47.266 l 119.156 47.266 118.176
 45.734 118.176 43.164 c 118.176 38.648 l 116.508 38.648 l 116.508 48.797
 l f
128.992 43.891 m 128.344 43.418 127.086 43.398 125.969 43.203 c 124.871
 43.008 123.926 42.613 123.926 41.379 c 123.926 40.277 124.871 39.887 125.891
 39.887 c 128.09 39.887 128.992 41.262 128.992 42.184 c h
131.699 38.688 m 131.406 38.512 131.031 38.414 130.504 38.414 c 129.637
 38.414 129.09 38.887 129.09 39.984 c 128.168 38.906 126.93 38.414 125.516
 38.414 c 123.672 38.414 122.16 39.238 122.16 41.262 c 122.16 43.559 123.867
 44.047 125.594 44.383 c 127.441 44.734 129.012 44.617 129.012 45.871 c 
129.012 47.324 127.812 47.559 126.754 47.559 c 125.34 47.559 124.301 47.129
 124.223 45.637 c 122.555 45.637 l 122.652 48.148 124.594 49.031 126.852
 49.031 c 128.676 49.031 130.66 48.621 130.66 46.246 c 130.66 41.023 l 130.66
 40.238 130.66 39.887 131.191 39.887 c 131.328 39.887 131.484 39.906 131.699
 39.984 c 131.699 38.688 l f
132.953 52.664 1.672 -14.016 re f
136.426 48.797 m 138.094 48.797 l 138.094 38.648 l 136.426 38.648 l h
138.094 50.621 m 136.426 50.621 l 136.426 52.664 l 138.094 52.664 l 138.094
 50.621 l f
146.379 43.891 m 145.73 43.418 144.473 43.398 143.355 43.203 c 142.258 
43.008 141.312 42.613 141.312 41.379 c 141.312 40.277 142.258 39.887 143.277
 39.887 c 145.473 39.887 146.379 41.262 146.379 42.184 c h
149.086 38.688 m 148.789 38.512 148.418 38.414 147.887 38.414 c 147.023
 38.414 146.477 38.887 146.477 39.984 c 145.555 38.906 144.316 38.414 142.902
 38.414 c 141.059 38.414 139.547 39.238 139.547 41.262 c 139.547 43.559 
141.254 44.047 142.98 44.383 c 144.828 44.734 146.395 44.617 146.395 45.871
 c 146.395 47.324 145.199 47.559 144.141 47.559 c 142.727 47.559 141.688
 47.129 141.609 45.637 c 139.938 45.637 l 140.035 48.148 141.98 49.031 144.238
 49.031 c 146.062 49.031 148.047 48.621 148.047 46.246 c 148.047 41.023 
l 148.047 40.238 148.047 39.887 148.574 39.887 c 148.715 39.887 148.871 
39.906 149.086 39.984 c 149.086 38.688 l f
150.242 48.797 m 151.812 48.797 l 151.812 47.188 l 151.852 47.188 l 152.559
 48.445 153.695 49.031 155.148 49.031 c 157.82 49.031 158.641 47.504 158.641
 45.324 c 158.641 38.648 l 156.973 38.648 l 156.973 45.52 l 156.973 46.758
 156.191 47.559 154.914 47.559 c 152.891 47.559 151.91 46.207 151.91 44.383
 c 151.91 38.648 l 150.242 38.648 l 150.242 48.797 l f
77.852 35.738 m 79.832 35.738 l 87.211 24.371 l 87.254 24.371 l 87.254 
35.738 l 89.02 35.738 l 89.02 21.723 l 86.977 21.723 l 79.656 32.969 l 79.617
 32.969 l 79.617 21.723 l 77.852 21.723 l 77.852 35.738 l f
97.555 26.961 m 96.906 26.492 95.648 26.473 94.531 26.277 c 93.434 26.082
 92.488 25.688 92.488 24.453 c 92.488 23.352 93.434 22.961 94.453 22.961
 c 96.652 22.961 97.555 24.336 97.555 25.258 c h
100.262 21.762 m 99.969 21.586 99.594 21.488 99.066 21.488 c 98.199 21.488
 97.652 21.961 97.652 23.059 c 96.73 21.977 95.492 21.488 94.078 21.488 
c 92.234 21.488 90.723 22.312 90.723 24.336 c 90.723 26.629 92.43 27.121
 94.156 27.453 c 96.004 27.809 97.574 27.691 97.574 28.945 c 97.574 30.398
 96.379 30.633 95.316 30.633 c 93.902 30.633 92.863 30.203 92.785 28.711
 c 91.117 28.711 l 91.215 31.223 93.156 32.105 95.414 32.105 c 97.238 32.105
 99.223 31.695 99.223 29.32 c 99.223 24.098 l 99.223 23.312 99.223 22.961
 99.754 22.961 c 99.891 22.961 100.047 22.98 100.262 23.059 c 100.262 21.762
 l f
103.734 31.871 m 105.758 31.871 l 105.758 30.398 l 103.734 30.398 l 103.734
 24.098 l 103.734 23.332 103.949 23.195 104.992 23.195 c 105.758 23.195 
l 105.758 21.723 l 104.48 21.723 l 102.754 21.723 102.066 22.078 102.066
 23.941 c 102.066 30.398 l 100.34 30.398 l 100.34 31.871 l 102.066 31.871
 l 102.066 34.914 l 103.734 34.914 l 103.734 31.871 l f
107.305 31.871 m 108.973 31.871 l 108.973 21.723 l 107.305 21.723 l h
108.973 33.695 m 107.305 33.695 l 107.305 35.738 l 108.973 35.738 l 108.973
 33.695 l f
115.156 22.961 m 116.902 22.961 118.316 24.336 118.316 26.789 c 118.316
 29.262 116.902 30.633 115.156 30.633 c 113.406 30.633 111.996 29.262 111.996
 26.789 c 111.996 24.336 113.406 22.961 115.156 22.961 c h
115.156 32.105 m 118.375 32.105 120.082 29.77 120.082 26.789 c 120.082 
23.824 118.375 21.488 115.156 21.488 c 111.938 21.488 110.227 23.824 110.227
 26.789 c 110.227 29.77 111.938 32.105 115.156 32.105 c f
121.551 31.871 m 123.121 31.871 l 123.121 30.262 l 123.16 30.262 l 123.867
 31.52 125.008 32.105 126.461 32.105 c 129.129 32.105 129.953 30.574 129.953
 28.398 c 129.953 21.723 l 128.285 21.723 l 128.285 28.594 l 128.285 29.832
 127.5 30.633 126.223 30.633 c 124.203 30.633 123.219 29.281 123.219 27.453
 c 123.219 21.723 l 121.551 21.723 l 121.551 31.871 l f
137.859 26.961 m 137.215 26.492 135.957 26.473 134.84 26.277 c 133.738 
26.082 132.797 25.688 132.797 24.453 c 132.797 23.352 133.738 22.961 134.758
 22.961 c 136.957 22.961 137.859 24.336 137.859 25.258 c h
140.57 21.762 m 140.273 21.586 139.902 21.488 139.371 21.488 c 138.508 
21.488 137.961 21.961 137.961 23.059 c 137.035 21.977 135.801 21.488 134.387
 21.488 c 132.543 21.488 131.031 22.312 131.031 24.336 c 131.031 26.629 
132.738 27.121 134.465 27.453 c 136.312 27.809 137.883 27.691 137.883 28.945
 c 137.883 30.398 136.684 30.633 135.625 30.633 c 134.211 30.633 133.172
 30.203 133.09 28.711 c 131.426 28.711 l 131.52 31.223 133.465 32.105 135.723
 32.105 c 137.547 32.105 139.531 31.695 139.531 29.32 c 139.531 24.098 l
 139.531 23.312 139.531 22.961 140.059 22.961 c 140.195 22.961 140.355 22.98
 140.57 23.059 c 140.57 21.762 l f
141.824 35.738 1.668 -14.016 re f
89.059 9.859 m 89.059 6.328 87.035 4.465 83.543 4.465 c 79.93 4.465 77.789
 6.133 77.789 9.859 c 77.789 18.812 l 79.656 18.812 l 79.656 9.859 l 79.656
 7.387 81.07 6.031 83.543 6.031 c 85.898 6.031 87.191 7.387 87.191 9.859
 c 87.191 18.812 l 89.059 18.812 l 89.059 9.859 l f
90.883 14.945 m 92.449 14.945 l 92.449 13.336 l 92.488 13.336 l 93.195 
14.59 94.336 15.18 95.785 15.18 c 98.457 15.18 99.281 13.648 99.281 11.469
 c 99.281 4.797 l 97.613 4.797 l 97.613 11.668 l 97.613 12.902 96.828 13.711
 95.551 13.711 c 93.531 13.711 92.551 12.355 92.551 10.527 c 92.551 4.797
 l 90.883 4.797 l 90.883 14.945 l f
101.008 14.945 m 102.676 14.945 l 102.676 4.797 l 101.008 4.797 l h
102.676 16.77 m 101.008 16.77 l 101.008 18.812 l 102.676 18.812 l 102.676
 16.77 l f
109.445 4.797 m 107.66 4.797 l 103.891 14.945 l 105.758 14.945 l 108.602
 6.484 l 108.641 6.484 l 111.406 14.945 l 113.156 14.945 l 109.445 4.797
 l f
120.613 10.844 m 120.535 12.434 119.336 13.711 117.688 13.711 c 115.941
 13.711 114.898 12.395 114.781 10.844 c h
122.223 8.016 m 121.77 5.777 120.16 4.562 117.883 4.562 c 114.645 4.562
 113.113 6.801 113.016 9.898 c 113.016 12.941 115.02 15.18 117.785 15.18
 c 121.379 15.18 122.477 11.824 122.379 9.371 c 114.781 9.371 l 114.723 
7.602 115.727 6.031 117.941 6.031 c 119.316 6.031 120.277 6.703 120.574 
8.016 c 122.223 8.016 l f
123.652 14.945 m 125.223 14.945 l 125.223 12.805 l 125.262 12.805 l 126.066
 14.434 127.188 15.238 128.992 15.18 c 128.992 13.414 l 126.301 13.414 125.32
 11.883 125.32 9.312 c 125.32 4.797 l 123.652 4.797 l 123.652 14.945 l f
131.266 7.996 m 131.324 6.504 132.621 6.031 133.996 6.031 c 135.035 6.031
 136.449 6.27 136.449 7.547 c 136.449 8.84 134.801 9.055 133.133 9.43 c 
131.484 9.801 129.812 10.352 129.812 12.293 c 129.812 14.336 131.836 15.18
 133.602 15.18 c 135.84 15.18 137.629 14.473 137.762 12 c 136.094 12 l 135.977
 13.297 134.84 13.711 133.738 13.711 c 132.738 13.711 131.582 13.434 131.582
 12.414 c 131.582 11.215 133.348 11.02 134.898 10.648 c 136.566 10.273 138.215
 9.723 138.215 7.762 c 138.215 5.348 135.957 4.562 133.898 4.562 c 131.621
 4.562 129.695 5.484 129.598 7.996 c 131.266 7.996 l f
139.371 14.945 m 141.039 14.945 l 141.039 4.797 l 139.371 4.797 l h
141.039 16.77 m 139.371 16.77 l 139.371 18.812 l 141.039 18.812 l 141.039
 16.77 l f
145.555 14.945 m 147.574 14.945 l 147.574 13.473 l 145.555 13.473 l 145.555
 7.172 l 145.555 6.406 145.77 6.27 146.809 6.27 c 147.574 6.27 l 147.574
 4.797 l 146.301 4.797 l 144.57 4.797 143.883 5.148 143.883 7.016 c 143.883
 13.473 l 142.156 13.473 l 142.156 14.945 l 143.883 14.945 l 143.883 17.988
 l 145.555 17.988 l 145.555 14.945 l f
153.402 3.441 m 152.637 1.461 151.949 0.734 150.457 0.734 c 150.066 0.734
 149.676 0.773 149.301 0.91 c 149.301 2.441 l 149.613 2.344 149.949 2.207
 150.281 2.207 c 150.969 2.207 151.34 2.539 151.656 3.129 c 152.344 4.855
 l 148.32 14.945 l 150.203 14.945 l 153.168 6.641 l 153.203 6.641 l 156.051
 14.945 l 157.82 14.945 l 153.402 3.441 l f
0.458824 0.317647 0.2 rg
65.555 9.312 m 65.336 8.492 65.27 7.426 65.266 6.543 c 64.031 7.949 61.48
 9.461 57.988 9.461 c 56.523 9.461 54.203 8.691 51.285 7.238 c 51.148 7.172
 l 49.926 6.594 45.617 4.59 41.449 3.176 c 37.5 1.832 34.637 1.699 34.09
 1.684 c 33.758 1.684 l 33.223 1.695 30.359 1.832 26.398 3.176 c 22.23 4.59
 17.918 6.594 16.699 7.172 c 16.562 7.238 l 13.641 8.691 11.324 9.461 9.855
 9.461 c 6.367 9.461 3.812 7.949 2.582 6.543 c 2.574 7.426 2.512 8.492 2.289
 9.312 c 1.992 10.414 1.215 11.824 0.875 12.41 c 1.469 12.965 3.164 14.492
 4.594 15.176 c 6.352 16.02 7.379 16.371 9.195 16.371 c 12.77 16.371 17.633
 14.246 22.336 12.191 c 25.773 10.691 29.023 9.27 31.742 8.664 c 31.949 
8.617 l 32.242 8.547 32.57 8.469 33.066 8.406 c 33.531 8.348 33.785 8.336
 33.949 8.336 c 34.059 8.336 34.312 8.348 34.781 8.406 c 35.273 8.469 35.605
 8.547 35.895 8.617 c 36.102 8.664 l 38.824 9.27 42.07 10.691 45.508 12.191
 c 50.211 14.246 55.078 16.371 58.648 16.371 c 60.469 16.371 61.496 16.02
 63.254 15.176 c 64.684 14.492 66.379 12.965 66.969 12.41 c 66.633 11.824
 65.852 10.414 65.555 9.312 c h
63.859 3.391 m 62.285 2.691 59.977 2.629 58.605 3.863 c 58.605 3.867 58.602
 3.867 58.594 3.875 c 58.539 3.93 58.129 4.34 57.719 5.312 c 57.379 6.109
 57.863 7.832 58.125 8.68 c 62.609 8.625 65.094 6.012 65.305 4.984 c 65.316
 4.844 l 65.312 4.344 64.754 3.785 63.859 3.391 c h
53.469 7.398 m 55.008 8.066 56.316 8.48 57.301 8.625 c 56.949 7.43 56.668
 6.105 56.934 5.211 c 56.066 5.848 54.887 6.633 53.469 7.398 c h
10.91 5.211 m 11.176 6.105 10.895 7.43 10.543 8.625 c 11.527 8.48 12.836
 8.066 14.379 7.398 c 12.961 6.633 11.781 5.848 10.91 5.211 c h
10.129 5.312 m 9.719 4.352 9.316 3.938 9.254 3.879 c 9.246 3.871 9.242 
3.867 9.238 3.863 c 7.867 2.629 5.559 2.688 3.988 3.391 c 3.09 3.785 2.535
 4.344 2.531 4.844 c 2.539 4.984 l 2.754 6.012 5.238 8.625 9.719 8.68 c 
9.984 7.832 10.465 6.109 10.129 5.312 c h
6.758 18.391 m 5.426 21.07 4.277 23.383 4.703 24.703 c 4.719 24.75 4.75
 24.805 4.77 24.855 c 4.91 25.066 5.5 25.793 6.773 25.277 c 7.738 24.887
 8.625 24.156 9.289 23.398 c 7.746 22.465 l 7.707 22.312 l 7.695 22.262 
7.582 21.809 7.73 21.273 c 7.977 20.387 8.836 19.445 9.914 19.504 c 9.992
 19.508 10.219 19.535 10.391 19.605 c 10.41 19.613 10.441 19.629 10.484 
19.652 c 10.496 19.656 10.508 19.66 10.516 19.668 c 12.391 20.836 l 14.344
 16.195 l 12.488 16.773 10.738 17.148 9.195 17.148 c 8.535 17.148 7.973 
17.098 7.438 17.004 c 7.211 17.473 6.98 17.941 6.758 18.391 c h
10.105 20.324 m 10.07 20.305 9.949 20.277 9.887 20.273 c 9.145 20.254 8.621
 20.965 8.477 21.48 c 8.422 21.676 8.422 21.855 8.434 21.977 c 9.77 22.785
 l 10.188 22.188 10.438 21.621 10.438 21.246 c 10.438 20.602 10.203 20.391
 10.137 20.34 c h
9.074 28.211 m 9.391 28.387 l 9.996 28.723 10.629 28.77 11.324 28.527 c
 12.992 27.941 14.434 25.859 14.836 24.871 c 15.242 23.875 14.754 23.266
 14.645 23.148 c 11.191 21 l 11.199 21.082 11.211 21.152 11.211 21.246 c
 11.211 22.598 9.258 25.109 7.062 25.996 c 6.605 26.18 6.199 26.242 5.844
 26.227 c 6.656 26.871 8.258 27.758 9.074 28.211 c h
55.457 20.836 m 57.301 19.688 l 57.301 19.688 57.305 19.688 57.305 19.684
 c 57.312 19.68 l 57.312 19.68 57.316 19.676 57.32 19.676 c 57.391 19.633
 57.449 19.605 57.469 19.602 c 57.648 19.531 57.855 19.504 57.934 19.504
 c 59.02 19.445 59.867 20.387 60.113 21.273 c 60.262 21.809 60.152 22.262
 60.141 22.312 c 60.098 22.465 l 58.559 23.398 l 59.219 24.156 60.109 24.887
 61.074 25.277 c 62.344 25.793 62.938 25.066 63.074 24.855 c 63.098 24.805
 63.125 24.75 63.141 24.703 c 63.57 23.383 62.422 21.066 61.09 18.391 c 
60.867 17.938 60.637 17.473 60.406 17.004 c 59.875 17.098 59.309 17.148 
58.648 17.148 c 57.109 17.148 55.359 16.773 53.504 16.195 c h
57.742 20.324 m 57.711 20.34 57.41 20.516 57.41 21.246 c 57.41 21.621 57.66
 22.188 58.078 22.785 c 59.41 21.977 l 59.422 21.855 59.422 21.676 59.371
 21.48 c 59.227 20.965 58.684 20.25 57.961 20.273 c 57.898 20.277 57.781
 20.305 57.742 20.324 c h
53.023 24.914 m 53.305 25.926 54.707 27.805 56.262 28.449 c 57.051 28.777
 57.789 28.758 58.453 28.387 c 58.77 28.211 l 59.59 27.758 61.188 26.871
 62.004 26.227 c 61.645 26.242 61.238 26.18 60.785 25.996 c 58.59 25.109
 56.637 22.598 56.637 21.246 c 56.637 21.152 56.645 21.082 56.652 21 c 53.168
 23.168 l 53.164 23.168 52.648 23.559 53.023 24.914 c h
67.73 12.75 m 67.711 12.773 65.488 14.961 63.586 15.875 c 62.68 16.309 
61.938 16.625 61.188 16.836 c 61.387 17.242 61.586 17.648 61.781 18.047 
c 63.188 20.875 64.402 23.32 63.879 24.941 c 63.852 25.023 63.812 25.102
 63.777 25.184 c 63.781 25.188 l 63.773 25.199 63.766 25.211 63.762 25.219
 c 63.555 25.68 63.207 26.176 62.797 26.57 c 62.047 27.285 60.16 28.328 
59.145 28.887 c 58.832 29.062 l 57.961 29.547 56.969 29.582 55.961 29.164
 c 54.102 28.391 52.602 26.281 52.277 25.121 c 51.742 23.191 52.652 22.574
 52.754 22.516 c 54.789 21.25 l 52.531 15.879 l 50.168 15.07 47.664 13.977
 45.199 12.898 c 41.797 11.414 38.582 10.008 35.934 9.418 c 35.719 9.367
 l 35.445 9.305 35.137 9.23 34.684 9.172 c 34.277 9.125 34.062 9.113 33.93
 9.113 c 33.91 9.113 l 33.824 9.113 33.625 9.117 33.164 9.172 c 32.711 9.23
 32.398 9.305 32.129 9.367 c 31.914 9.418 l 29.266 10.008 26.051 11.414 
22.648 12.898 c 20.184 13.977 17.68 15.07 15.316 15.879 c 13.055 21.246 
l 15.094 22.516 l 15.152 22.559 l 15.195 22.598 16.203 23.559 15.551 25.164
 c 15.035 26.434 13.414 28.613 11.578 29.258 c 10.676 29.574 9.812 29.508
 9.012 29.062 c 8.699 28.887 l 7.688 28.328 5.797 27.285 5.051 26.57 c 4.641
 26.176 4.293 25.68 4.086 25.219 c 4.078 25.211 4.07 25.199 4.066 25.188
 c 4.07 25.184 l 4.035 25.102 3.992 25.02 3.969 24.941 c 3.441 23.32 4.656
 20.875 6.062 18.047 c 6.258 17.652 6.461 17.242 6.66 16.836 c 5.906 16.625
 5.168 16.309 4.258 15.875 c 2.359 14.961 0.137 12.773 0.113 12.75 c -0.012
 12.625 -0.035 12.43 0.055 12.277 c 0.066 12.258 1.195 10.398 1.543 9.109
 c 1.898 7.793 1.809 5.719 1.773 5.078 c 1.758 4.996 1.758 4.922 1.758 4.848
 c 1.758 4.84 1.758 4.836 1.758 4.832 c 1.758 4.828 1.758 4.824 1.758 4.82
 c 1.758 4.816 1.762 4.812 1.762 4.809 c 1.785 4 2.492 3.207 3.672 2.684
 c 4.453 2.336 5.418 2.113 6.395 2.113 c 7.598 2.113 8.82 2.449 9.75 3.285
 c 9.75 3.281 l 9.754 3.285 9.754 3.285 9.754 3.289 c 9.758 3.289 9.758 
3.289 9.758 3.289 c 9.762 3.293 9.77 3.297 9.777 3.309 c 9.992 3.5 12.105
 5.371 15.277 6.996 c 15.586 6.855 15.895 6.707 16.219 6.547 c 16.367 6.473
 l 17.598 5.891 21.941 3.871 26.148 2.441 c 30.113 1.094 32.961 0.93 33.75
 0.91 c 34.105 0.91 l 34.883 0.93 37.73 1.094 41.695 2.441 c 45.906 3.871
 50.25 5.891 51.48 6.473 c 51.629 6.547 l 51.949 6.707 52.262 6.855 52.57
 6.996 c 55.742 5.371 57.855 3.496 58.066 3.309 c 58.078 3.297 58.082 3.293
 58.09 3.289 c 58.09 3.285 58.094 3.285 58.094 3.281 c 58.094 3.285 l 59.027
 2.449 60.25 2.113 61.449 2.113 c 62.426 2.113 63.391 2.336 64.172 2.684
 c 65.352 3.207 66.062 4 66.086 4.809 c 66.086 4.812 66.09 4.816 66.09 4.82
 c 66.09 4.832 l 66.09 4.836 66.09 4.84 66.09 4.848 c 66.086 4.848 l 66.09
 4.922 66.09 4.996 66.074 5.078 c 66.035 5.719 65.949 7.793 66.305 9.109
 c 66.652 10.398 67.777 12.258 67.789 12.277 c 67.883 12.43 67.859 12.625
 67.73 12.75 c f
16.457 54.191 m 16.387 52.668 16.141 46.98 16.141 39.965 c 16.141 31.531
 16.695 27.035 18.18 23.375 c 19.648 19.762 21.957 17.949 26.578 15.258 
c 31.02 12.672 32.859 12.34 33.961 12.34 c 33.969 12.34 l 35.074 12.34 36.91
 12.672 41.352 15.258 c 45.973 17.949 48.285 19.762 49.75 23.375 c 51.238
 27.035 51.789 31.531 51.789 39.965 c 51.789 46.98 51.543 52.668 51.473 
54.191 c 43.059 53.453 37.695 53.34 35.23 53.34 c 34.402 53.34 33.977 53.355
 33.953 53.355 c 33.953 53.355 33.527 53.34 32.699 53.34 c 30.234 53.34 
24.871 53.453 16.457 54.191 c h
33.969 11.566 m 33.961 11.566 l 32.688 11.566 30.762 11.926 26.188 14.59
 c 21.41 17.375 19.016 19.262 17.465 23.082 c 15.934 26.848 15.367 31.422
 15.367 39.965 c 15.367 48.172 15.703 54.57 15.707 54.633 c 15.711 54.738
 15.758 54.836 15.84 54.906 c 15.918 54.973 16.02 55.008 16.125 54.996 c
 24.742 54.23 30.207 54.113 32.699 54.113 c 33.531 54.113 33.949 54.129 
33.953 54.129 c 33.984 54.129 34.398 54.113 35.23 54.113 c 37.723 54.113
 43.191 54.23 51.805 54.996 c 51.906 55.008 52.012 54.973 52.09 54.906 c
 52.172 54.836 52.219 54.738 52.227 54.633 c 52.227 54.57 52.566 48.172 
52.566 39.965 c 52.566 31.422 51.996 26.848 50.469 23.082 c 48.914 19.262
 46.52 17.375 41.742 14.59 c 37.168 11.926 35.246 11.566 33.969 11.566 c
 f
47.539 27.594 m 45.746 27.594 44.516 26.816 43.43 26.129 c 42.535 25.566
 41.758 25.078 40.754 25.078 c 39.746 25.078 38.973 25.566 38.074 26.129
 c 36.988 26.816 35.758 27.594 33.965 27.594 c 32.172 27.594 30.941 26.816
 29.855 26.129 c 28.957 25.566 28.184 25.078 27.176 25.078 c 26.168 25.078
 25.395 25.566 24.5 26.129 c 23.414 26.816 22.184 27.594 20.387 27.594 c
 19.453 27.594 18.672 27.379 17.98 27.082 c 18.156 26.316 18.355 25.598 
18.586 24.922 c 19.133 25.195 19.703 25.383 20.391 25.383 c 21.543 25.383
 22.363 24.863 23.316 24.262 c 24.355 23.605 25.531 22.863 27.176 22.863
 c 28.824 22.863 30 23.605 31.035 24.262 c 31.988 24.863 32.809 25.383 33.965
 25.383 c 35.121 25.383 35.941 24.863 36.895 24.262 c 37.93 23.605 39.105
 22.863 40.754 22.863 c 42.398 22.863 43.574 23.605 44.613 24.262 c 45.562
 24.863 46.387 25.383 47.543 25.383 c 48.227 25.383 48.797 25.195 49.344
 24.922 c 49.574 25.598 49.773 26.312 49.949 27.078 c 49.258 27.379 48.477
 27.594 47.539 27.594 c f
23.316 29.234 m 24.355 28.582 25.531 27.84 27.176 27.84 c 28.824 27.84 
30 28.582 31.035 29.234 c 31.988 29.84 32.809 30.355 33.965 30.355 c 35.121
 30.355 35.941 29.84 36.895 29.234 c 37.93 28.582 39.105 27.84 40.754 27.84
 c 42.398 27.84 43.574 28.582 44.613 29.234 c 44.66 29.27 44.711 29.297 
44.758 29.328 c 43.84 29.617 37.324 31.566 37.316 31.57 c 35.633 32.043 
34.332 32.375 33.949 32.375 c 33.922 32.375 l 33.031 32.375 27.219 30.602
 23.164 29.332 c 23.215 29.301 23.266 29.27 23.316 29.234 c f
47.539 22.617 m 45.746 22.617 44.516 21.84 43.43 21.156 c 42.535 20.59 
41.758 20.102 40.754 20.102 c 39.746 20.102 38.973 20.59 38.074 21.156 c
 36.988 21.84 35.758 22.617 33.965 22.617 c 32.172 22.617 30.941 21.84 29.855
 21.156 c 28.957 20.59 28.184 20.102 27.176 20.102 c 26.168 20.102 25.395
 20.59 24.5 21.156 c 23.414 21.84 22.184 22.617 20.387 22.617 c 20.113 22.617
 19.855 22.594 19.602 22.562 c 20.066 21.719 20.605 20.984 21.246 20.305
 c 21.988 20.125 22.617 19.727 23.316 19.285 c 24.355 18.633 25.531 17.891
 27.176 17.891 c 28.824 17.891 30 18.633 31.035 19.285 c 31.988 19.887 32.809
 20.406 33.965 20.406 c 35.121 20.406 35.941 19.887 36.895 19.285 c 37.93
 18.633 39.105 17.891 40.754 17.891 c 42.398 17.891 43.574 18.633 44.613
 19.285 c 45.312 19.727 45.941 20.125 46.684 20.305 c 47.324 20.984 47.863
 21.719 48.328 22.562 c 48.074 22.594 47.816 22.617 47.539 22.617 c f
37.016 16.449 m 36.145 17.035 35.242 17.645 33.965 17.645 c 32.871 17.645
 32.066 17.086 31.289 16.547 c 30.547 16.031 29.785 15.508 28.613 15.266
 c 29.75 14.664 30.656 14.258 31.391 13.988 c 31.828 14.234 32.211 14.496
 32.551 14.73 c 33.195 15.18 33.578 15.434 33.965 15.434 c 34.539 15.434
 35.004 15.137 35.777 14.613 c 36.051 14.434 36.344 14.234 36.676 14.035
 c 37.395 14.312 38.273 14.711 39.359 15.289 c 38.406 15.52 37.723 15.973
 37.016 16.449 c f
41.723 51.473 m 42.074 50.223 l 43.332 50.477 l 42.562 49.43 l 43.559 48.598
 l 42.262 48.551 l 42.23 47.246 l 41.379 48.223 l 40.344 47.445 l 40.57 
48.711 l 39.324 49.043 l 40.453 49.652 l 39.938 50.836 l 41.129 50.336 l
 41.723 51.473 l f
36.34 47.137 m 35.242 47.812 l 35.566 46.562 l 34.359 46.137 l 35.535 45.617
 l 35.117 44.402 l 36.258 45.008 l 36.945 43.914 l 37.18 45.191 l 38.469
 45.035 l 37.613 46.016 l 38.539 46.93 l 37.258 46.875 l 37.102 48.164 l
 36.34 47.137 l f
45.562 46.418 m 44.402 46.973 l 44.852 45.766 l 43.695 45.215 l 44.922 
44.82 l 44.629 43.57 l 45.703 44.289 l 46.5 43.273 l 46.602 44.57 l 47.898
 44.547 l 46.949 45.434 l 47.77 46.438 l 46.5 46.25 l 46.215 47.516 l 45.562
 46.418 l f
41.535 43.996 m 40.305 43.949 l 41.281 43.195 l 40.93 42.02 l 41.941 42.715
 l 42.957 42.02 l 42.609 43.207 l 43.586 43.949 l 42.359 43.977 l 41.945
 45.141 l 41.535 43.996 l f
39.383 40.363 m 38.148 40.734 l 38.785 39.613 l 37.727 38.887 l 39 38.691
 l 38.906 37.406 l 39.855 38.285 l 40.801 37.406 l 40.695 38.707 l 41.98
 38.887 l 40.906 39.613 l 41.559 40.734 l 40.336 40.348 l 39.855 41.555 
l 39.383 40.363 l f
34.059 33.684 m 35.426 33.684 48.465 29.5 48.844 29.387 c 49.223 29.273
 50.465 28.77 50.465 29.832 c 50.465 30.891 48.734 31.406 43.672 33.832 
c 38.605 36.25 35.301 37.969 34.074 37.969 c 32.848 37.969 29.543 36.25 
24.477 33.832 c 19.414 31.406 17.684 30.891 17.684 29.832 c 17.684 28.77
 18.926 29.273 19.305 29.387 c 19.684 29.5 32.668 33.684 34.035 33.684 c
 34.059 33.684 l f
3.352 11.633 m 3.527 11.539 3.688 11.449 3.844 11.363 c 3.691 11.441 3.535
 11.52 3.371 11.602 c h
4.344 10.168 m 4.348 10.168 l 4.344 10.164 l 4.344 10.168 4.344 10.168 
4.344 10.168 c h
4.422 10.078 m h
2.723 11.906 m 2.723 11.898 l 2.719 11.906 l h
5.199 11.172 m 5.152 11.195 5.09 11.227 5.035 11.254 c 5.086 11.234 5.141
 11.211 5.188 11.199 c h
4.176 12.625 m 4.18 12.617 l 4.172 12.625 l h
4.777 12.953 m 4.777 12.949 4.773 12.949 4.773 12.949 c 4.773 12.949 4.777
 12.949 4.777 12.953 c h
4.863 12.316 m 4.773 12.504 4.723 12.629 4.715 12.695 c 4.715 12.703 4.742
 12.734 4.895 12.844 c 4.789 12.988 l 4.656 12.914 4.543 12.855 4.453 12.809
 c 4.363 12.766 4.266 12.719 4.137 12.637 c 4.238 12.492 l 4.363 12.551 
4.422 12.559 4.445 12.562 c 4.449 12.559 4.461 12.555 4.488 12.512 c 4.551
 12.414 4.719 12.086 4.996 11.523 c 5.117 11.34 l 5.18 11.211 l 4.988 11.301
 4.742 11.426 4.438 11.59 c 3.996 11.828 3.613 12.043 3.262 12.234 c 2.953
 12.07 l 2.898 12.043 2.816 12.008 2.684 11.918 c 2.785 11.773 l 2.91 11.824
 2.945 11.836 2.977 11.836 c 3.008 11.859 l 3.031 11.801 l 3.047 11.777 
3.074 11.73 3.109 11.656 c 3.594 10.699 l 3.66 10.559 3.715 10.445 3.754
 10.355 c 3.82 10.203 3.863 10.102 3.879 10.062 c 3.902 10.07 l 3.879 9.988
 l 3.875 9.984 3.84 9.961 3.703 9.852 c 3.781 9.691 l 3.809 9.707 l 3.953
 9.789 4.066 9.848 4.156 9.891 c 4.457 10.066 l 4.395 10.195 l 4.359 10.203
 l 4.332 10.191 l 4.309 10.176 4.262 10.164 4.203 10.145 c 4.211 10.117 
l 4.145 10.148 l 4.133 10.164 4.102 10.211 4.023 10.359 c 3.93 10.531 3.844
 10.699 3.766 10.863 c 3.531 11.273 l 3.375 11.59 l 4.258 11.105 4.941 10.738
 5.43 10.508 c 5.512 10.531 5.594 10.555 5.676 10.578 c 5.703 10.641 l 5.617
 10.785 5.402 11.211 5.059 11.898 c 5.016 11.988 4.949 12.129 4.863 12.316
 c f
7.855 11.352 m 7.855 11.355 l h
6.988 11.07 m 7.004 11.074 l h
6.371 10.918 m 6.371 10.922 l 6.375 10.918 l h
6.387 11.906 m 6.289 11.879 6.207 11.852 6.148 11.812 c 6.137 11.809 6.125
 11.805 6.117 11.801 c 6.152 12.676 l 6.555 12.16 l 6.672 11.992 l 6.59 
11.965 6.492 11.938 6.387 11.906 c h
6.086 11.797 m 6.098 12.004 l 6.094 11.797 l 6.094 11.797 6.09 11.797 6.086
 11.797 c h
6.688 11.969 m 6.684 11.969 6.676 11.965 6.672 11.965 c 6.676 11.969 6.684
 11.969 6.688 11.973 c h
7.754 11.48 m 7.703 11.473 7.676 11.469 7.676 11.469 c 6.176 13.43 l 5.953
 13.348 l 5.859 11.281 l 5.848 11.117 5.84 11.023 5.836 10.996 c 5.797 10.922
 l 5.793 10.918 5.773 10.902 5.656 10.832 c 5.703 10.664 l 6.406 10.898 
l 6.332 11.059 l 6.25 11.039 6.188 11.027 6.113 11.062 c 6.105 11.086 6.098
 11.156 6.102 11.363 c 6.086 11.555 l 6.793 11.781 l 7.023 11.449 l 7.074
 11.383 7.09 11.344 7.09 11.301 c 7.086 11.297 7.062 11.277 6.898 11.195
 c 6.973 11.035 l 7.891 11.332 l 7.82 11.492 l 7.754 11.48 l f
8.926 11.434 m 8.926 11.441 l 8.93 11.434 l h
9.141 13.883 m 9.09 13.926 l 9.043 13.914 9 13.902 8.953 13.898 c 8.871
 13.883 8.707 13.863 8.457 13.836 c 7.859 13.766 l 7.617 13.734 7.457 13.719
 7.371 13.711 c 7.32 13.707 7.27 13.707 7.223 13.707 c 7.184 13.652 l 7.199
 13.594 7.211 13.543 7.219 13.492 c 7.223 13.461 7.242 13.328 7.305 13.066
 c 7.453 13.113 l 7.441 13.211 7.438 13.301 7.441 13.383 c 7.484 13.441 
l 7.562 13.461 7.656 13.473 7.762 13.484 c 7.945 13.531 l 7.949 13.5 7.973
 13.34 8.004 13.059 c 8.125 12.016 l 8.164 11.707 8.168 11.602 8.164 11.57
 c 8.16 11.543 8.152 11.523 8.137 11.512 c 8.129 11.508 8.094 11.488 7.918
 11.434 c 7.938 11.262 l 7.969 11.266 l 8.148 11.297 8.309 11.324 8.449 
11.34 c 8.578 11.355 8.738 11.367 8.957 11.41 c 8.91 11.578 l 8.777 11.566
 8.715 11.578 8.711 11.578 c 8.691 11.586 8.68 11.602 8.672 11.625 c 8.66
 11.656 8.641 11.762 8.602 12.07 c 8.48 13.113 l 8.449 13.391 8.43 13.551
 8.406 13.562 c 8.617 13.586 l 8.73 13.598 8.824 13.605 8.938 13.609 c 8.938
 13.609 8.945 13.598 8.957 13.547 c 8.977 13.469 8.996 13.383 9.035 13.27
 c 9.184 13.316 l 9.16 13.555 9.145 13.68 9.145 13.695 c 9.141 13.75 9.141
 13.812 9.141 13.883 c f
9.348 13.891 m h
10.262 13.84 m 10.262 13.844 l h
10.281 13.723 m h
10.867 13.766 m 10.867 13.758 l 10.863 13.766 l h
11.531 13.734 m 11.523 13.734 l h
11.547 13.613 m 11.547 13.617 l h
11.383 13.551 m 11.391 13.555 11.41 13.566 11.465 13.566 c 11.488 13.566
 11.512 13.562 11.574 13.586 c 11.559 13.762 l 11.188 13.777 l 11.156 13.781
 11.051 13.805 10.84 13.793 c 10.852 13.617 l 10.984 13.605 11.031 13.586
 11.07 13.543 c 11.074 13.523 11.082 13.461 11.07 13.281 c 11.062 13.215
 11.047 13.027 11.023 12.719 c 10.992 12.363 l 10.973 12.121 10.941 11.957
 10.898 11.871 c 10.859 11.793 10.801 11.727 10.719 11.684 c 10.637 11.637
 10.527 11.621 10.398 11.633 c 10.285 11.641 10.188 11.668 10.117 11.715
 c 10.051 11.758 10 11.812 9.969 11.879 c 9.941 11.945 9.926 12.031 9.926
 12.141 c 9.926 12.188 9.934 12.32 9.953 12.531 c 10.004 13.145 l 10.023
 13.387 10.043 13.543 10.086 13.656 c 10.098 13.66 10.121 13.672 10.188 
13.672 c 10.215 13.672 10.242 13.672 10.305 13.691 c 10.293 13.867 l 9.324
 13.922 l 9.332 13.746 l 9.539 13.676 l 9.543 13.664 9.547 13.633 9.547 
13.574 c 9.539 13.441 9.531 13.297 9.516 13.133 c 9.449 12.352 l 9.434 12.168
 9.426 12.051 9.426 12.012 c 9.43 11.941 9.441 11.867 9.469 11.789 c 9.496
 11.711 9.539 11.633 9.594 11.57 c 9.652 11.5 9.73 11.445 9.824 11.398 c
 9.957 11.34 10.098 11.305 10.25 11.293 c 10.293 11.289 10.332 11.285 10.371
 11.285 c 10.453 11.285 10.531 11.293 10.605 11.312 c 10.707 11.336 10.801
 11.379 10.883 11.441 c 10.961 11.5 11.023 11.57 11.07 11.648 c 11.117 11.727
 11.156 11.824 11.176 11.938 c 11.199 12.051 11.215 12.156 11.227 12.266
 c 11.258 12.676 l 11.27 12.797 11.289 12.961 11.312 13.172 c 11.344 13.438
 11.355 13.504 11.383 13.551 c f
14.438 10.312 m 14.449 10.309 l h
13.852 10.559 m 13.852 10.562 l h
12.191 11.066 m 12.195 11.074 l 12.195 11.066 l 12.195 11.066 12.191 11.066
 12.191 11.066 c h
11.297 11.27 m 11.297 11.27 11.301 11.27 11.301 11.27 c 11.301 11.27 11.297
 11.27 11.297 11.27 c h
14.734 11.215 m 14.734 11.211 l 14.73 11.215 14.723 11.219 14.719 11.219
 c 14.723 11.219 14.73 11.215 14.734 11.215 c h
14.734 11.242 m 14.652 11.27 14.559 11.301 14.453 11.34 c 14.355 11.379
 14.266 11.414 14.191 11.414 c 14.188 11.418 14.18 11.418 14.176 11.422 
c 14.727 12.098 l 14.738 11.453 l h
14.148 11.434 m 14.281 11.594 l 14.156 11.43 l 14.152 11.43 14.148 11.43
 14.148 11.434 c h
15.293 10.184 m 15.238 10.211 15.227 10.219 15.223 10.223 c 15.203 10.203
 l 15.199 10.285 l 15.203 10.457 l 15.195 12.691 l 14.969 12.754 l 13.945
 11.508 l 13.801 11.332 13.707 11.215 13.656 11.156 c 13.551 11.031 13.488
 10.961 13.469 10.941 c 13.488 10.922 l 13.395 10.902 l 13.391 10.902 13.367
 10.906 13.285 10.914 c 13.289 10.945 l 13.234 10.961 13.219 10.969 13.184
 11.02 c 13.172 11.043 13.145 11.121 13.105 11.25 c 12.922 11.926 l 12.918
 11.941 12.906 11.977 12.891 12.039 c 12.875 12.098 12.859 12.148 12.828
 12.176 c 12.828 12.18 12.828 12.18 12.828 12.18 c 13 12.211 13.137 12.273
 13.242 12.367 c 13.348 12.465 13.418 12.586 13.457 12.73 c 13.484 12.848
 13.484 12.961 13.449 13.059 c 13.418 13.16 13.363 13.234 13.289 13.281 
c 13.219 13.328 13.105 13.371 12.949 13.41 c 12.871 13.434 12.773 13.453
 12.652 13.477 c 12.578 13.492 12.492 13.512 12.391 13.539 c 12.273 13.57
 12.184 13.594 12.109 13.613 c 11.984 13.652 11.91 13.676 11.855 13.66 c
 11.836 13.488 l 11.988 13.438 12.023 13.414 12.035 13.387 c 12.035 13.371
 12.031 13.32 11.988 13.137 c 11.602 11.652 l 11.574 11.566 11.555 11.5 
11.5 11.422 c 11.48 11.422 11.434 11.426 11.281 11.434 c 11.266 11.25 l 
11.395 11.223 11.531 11.191 11.684 11.152 c 11.852 11.109 12.016 11.062 
12.211 11.031 c 12.23 11.215 l 12.141 11.242 12.09 11.258 12.039 11.305 
c 12.035 11.316 12.035 11.344 12.055 11.426 c 12.059 11.457 12.09 11.59 
12.148 11.824 c 12.191 12.016 12.238 12.195 12.281 12.363 c 12.309 12.473
 12.367 12.684 12.457 13.004 c 12.496 13.148 12.52 13.234 12.508 13.258 
c 12.551 13.254 12.598 13.25 12.641 13.234 c 12.742 13.211 12.809 13.184
 12.844 13.16 c 12.895 13.121 12.93 13.062 12.953 12.988 c 12.977 12.914
 12.973 12.824 12.949 12.727 c 12.922 12.629 12.883 12.543 12.82 12.473 
c 12.766 12.406 12.703 12.363 12.645 12.348 c 12.582 12.332 12.508 12.344
 12.355 12.359 c 12.324 12.277 l 12.344 12.246 12.363 12.207 12.383 12.148
 c 12.418 12.035 12.457 11.883 12.5 11.688 c 12.656 11.012 l 12.664 10.969
 12.668 10.934 12.688 10.883 c 12.766 10.867 12.84 10.852 12.918 10.832 
c 12.977 10.816 13.07 10.789 13.191 10.754 c 13.191 10.746 l 13.867 10.523
 l 13.902 10.695 l 13.762 10.754 13.734 10.781 13.73 10.828 c 13.738 10.852
 13.773 10.914 13.898 11.078 c 14.004 11.242 l 14.707 11 l 14.691 10.594
 l 14.688 10.512 14.68 10.473 14.656 10.434 c 14.645 10.434 14.602 10.441
 14.438 10.465 c 14.402 10.293 l 14.895 10.125 l 15.305 9.957 l 15.355 10.152
 l 15.293 10.184 l f
17.086 9.188 m 17.098 9.184 l h
18.102 10.891 m 17.855 10.336 l 18.059 10.852 l h
16.531 11.594 m 16.52 11.113 l 16.508 11.543 l h
15.977 9.715 m 15.98 9.723 l h
15.348 9.969 m 15.352 9.965 15.355 9.965 15.355 9.965 c 15.355 9.965 15.348
 9.965 15.348 9.965 c h
16.316 12.191 m 16.312 12.188 l 16.312 12.191 l h
16.922 10.02 m 16.938 10.52 l 16.941 10.035 l 16.934 10.031 16.93 10.027
 16.922 10.02 c h
18.898 11.062 m 18.887 11.07 l 18.898 11.066 l h
18.879 10.883 m 18.934 11.078 l 18.523 11.25 l 18.492 11.266 18.418 11.301
 18.266 11.355 c 18.199 11.281 18.145 11.223 18.098 11.176 c 18.047 11.125
 17.918 11.004 17.707 10.801 c 17.332 10.438 l 17.254 10.363 17.152 10.258
 17.047 10.133 c 17.016 10.105 16.984 10.078 16.949 10.047 c 17.004 11.945
 l 16.906 11.977 16.812 12.016 16.719 12.059 c 16.648 12.09 16.523 12.152
 16.301 12.227 c 16.254 12.055 l 16.297 12.031 16.348 12.004 16.402 11.965
 c 16.426 11.91 l 16.426 11.891 16.406 11.828 16.312 11.609 c 16.242 11.445
 16.156 11.25 16.059 11.035 c 15.953 10.793 15.875 10.625 15.828 10.523 
c 15.73 10.324 15.668 10.195 15.633 10.137 c 15.617 10.105 15.605 10.094
 15.578 10.086 c 15.57 10.086 15.535 10.09 15.359 10.125 c 15.312 9.953 
l 15.398 9.922 15.508 9.875 15.648 9.816 c 15.754 9.77 15.855 9.719 15.988
 9.68 c 16.039 9.852 l 15.926 9.91 15.895 9.934 15.887 9.941 c 15.84 9.965
 l 15.871 10.02 l 15.879 10.043 15.922 10.148 16 10.328 c 16.078 10.512 
16.145 10.668 16.203 10.797 c 16.359 11.211 l 16.5 11.531 l 16.477 10.574
 l 16.473 10.418 16.461 10.184 16.449 9.871 c 16.441 9.688 16.434 9.543 
16.441 9.414 c 16.566 9.379 l 16.621 9.438 16.695 9.512 16.793 9.605 c 16.949
 9.758 17.066 9.875 17.152 9.957 c 17.68 10.496 l 18.051 10.84 l 17.555 
9.738 l 17.457 9.512 17.395 9.383 17.367 9.348 c 17.344 9.309 17.324 9.301
 17.316 9.297 c 17.305 9.297 17.266 9.305 17.094 9.344 c 17.051 9.172 l 
17.477 8.992 l 17.934 8.773 l 17.996 8.973 l 17.855 9.047 17.836 9.062 17.824
 9.117 c 17.832 9.148 17.863 9.234 17.914 9.371 c 17.922 9.395 17.961 9.473
 18.02 9.609 c 18.57 10.82 l 18.609 10.906 18.641 10.934 18.684 10.945 c
 18.719 10.945 18.77 10.93 18.832 10.898 c 18.879 10.883 l f
18.75 8.41 m 18.75 8.41 18.75 8.41 18.754 8.406 c 18.75 8.406 18.75 8.41
 18.75 8.41 c h
19.762 10.617 m 19.758 10.613 l 19.758 10.617 l h
20.863 9.109 m 20.961 9.191 21.039 9.297 21.098 9.418 c 21.156 9.543 21.18
 9.656 21.164 9.762 c 21.148 9.863 21.113 9.949 21.055 10.016 c 20.996 10.078
 20.906 10.141 20.785 10.195 c 19.746 10.652 l 19.695 10.484 l 19.871 10.359
 l 19.871 10.352 19.867 10.332 19.852 10.293 c 19.84 10.262 19.805 10.18
 19.746 10.051 c 19.348 9.191 l 19.25 8.984 19.156 8.801 19.066 8.637 c 
19.023 8.559 19.008 8.539 18.984 8.527 c 18.961 8.527 18.91 8.535 18.766
 8.574 c 18.715 8.398 l 18.832 8.348 18.957 8.297 19.082 8.234 c 19.199 
8.18 19.371 8.094 19.594 7.98 c 19.621 7.965 l 19.688 8.168 l 19.512 8.266
 l 19.5 8.242 l 19.484 8.316 l 19.488 8.332 19.5 8.379 19.551 8.488 c 19.621
 8.648 19.691 8.805 19.762 8.953 c 20.195 9.863 l 20.254 9.988 20.305 10.082
 20.309 10.133 c 20.375 10.117 20.434 10.098 20.48 10.074 c 20.582 10.027
 20.641 9.961 20.664 9.867 c 20.688 9.773 20.664 9.656 20.598 9.516 c 20.535
 9.383 20.461 9.297 20.379 9.254 c 20.293 9.211 20.258 9.18 20.094 9.273
 c 20.078 9.281 20.062 9.297 20.016 9.32 c 19.957 9.289 l 19.957 9.27 l 
19.957 9.215 19.957 9.172 19.961 9.113 c 19.988 9.094 20.012 9.074 20.039
 9.059 c 20.066 9.039 20.094 9.023 20.125 9.012 c 20.242 8.957 20.371 8.938
 20.508 8.957 c 20.645 8.973 20.766 9.027 20.863 9.109 c f
21.25 7.266 m 21.254 7.273 l 21.254 7.266 l h
20.406 7.625 m 20.406 7.625 20.406 7.625 20.41 7.625 c 20.406 7.625 20.406
 7.625 20.406 7.625 c h
21.395 9.84 m h
22.219 7.043 m 22.211 7.07 22.199 7.148 22.18 7.285 c 22.18 7.293 22.172
 7.359 22.164 7.48 c 22.121 7.984 l 22.121 7.996 22.117 8.035 22.109 8.098
 c 22.105 8.16 22.102 8.219 22.09 8.25 c 22.258 8.25 22.402 8.285 22.516
 8.359 c 22.637 8.438 22.727 8.543 22.789 8.676 c 22.84 8.789 22.859 8.898
 22.844 9.004 c 22.828 9.105 22.789 9.191 22.723 9.25 c 22.664 9.309 22.562
 9.371 22.414 9.438 c 22.34 9.473 22.246 9.512 22.129 9.559 c 22.062 9.586
 21.98 9.617 21.887 9.664 c 21.773 9.711 21.691 9.754 21.633 9.785 c 21.508
 9.848 21.43 9.887 21.379 9.879 c 21.332 9.711 l 21.477 9.633 21.504 9.605
 21.512 9.578 c 21.508 9.559 21.492 9.504 21.418 9.34 c 20.773 7.949 l 20.734
 7.867 20.699 7.809 20.637 7.738 c 20.625 7.738 20.59 7.746 20.418 7.789
 c 20.371 7.609 l 20.492 7.562 20.625 7.508 20.766 7.441 c 20.922 7.371 
21.078 7.293 21.266 7.23 c 21.316 7.406 l 21.285 7.422 21.188 7.469 21.141
 7.527 c 21.141 7.539 21.148 7.57 21.18 7.645 c 21.191 7.672 21.242 7.797
 21.34 8.02 c 21.422 8.199 21.496 8.367 21.57 8.527 c 21.617 8.629 21.711
 8.828 21.855 9.125 c 21.918 9.258 21.961 9.344 21.949 9.367 c 21.996 9.355
 22.039 9.34 22.078 9.32 c 22.195 9.27 22.242 9.23 22.262 9.211 c 22.305
 9.164 22.332 9.098 22.34 9.023 c 22.352 8.945 22.332 8.859 22.293 8.766
 c 22.25 8.672 22.191 8.594 22.121 8.539 c 22.051 8.48 21.984 8.449 21.906
 8.445 c 21.844 8.445 21.766 8.469 21.641 8.512 c 21.598 8.434 l 21.613 
8.402 21.625 8.355 21.629 8.297 c 21.645 8.18 21.656 8.023 21.668 7.824 
c 21.699 7.129 l 21.699 7.086 21.695 7.051 21.707 6.996 c 21.777 6.969 21.852
 6.938 21.922 6.902 c 21.984 6.875 22.082 6.828 22.223 6.762 c 22.246 6.746
 l 22.309 6.949 l 22.258 6.973 22.242 6.988 22.219 7.043 c f
22.379 6.727 m 22.383 6.723 22.383 6.723 22.387 6.723 c 22.383 6.723 22.383
 6.723 22.379 6.723 c h
23.324 8.961 m 23.32 8.953 l 23.32 8.961 l h
24.176 8.617 m 24.176 8.617 24.172 8.621 24.168 8.621 c 24.172 8.621 24.176
 8.621 24.176 8.617 c h
23.125 6.582 m 23.117 6.656 l 23.121 6.691 23.148 6.762 23.195 6.871 c 
23.602 7.816 l 23.609 7.836 23.672 7.977 23.793 8.238 c 23.824 8.316 23.852
 8.367 23.863 8.395 c 23.895 8.453 23.91 8.477 23.969 8.496 c 23.988 8.496
 24.09 8.457 24.168 8.453 c 24.211 8.633 l 24.059 8.691 23.902 8.754 23.734
 8.828 c 23.586 8.895 23.457 8.953 23.309 8.996 c 23.262 8.82 l 23.379 8.762
 23.414 8.742 23.438 8.691 c 23.43 8.652 23.398 8.57 23.344 8.434 c 23.316
 8.371 23.258 8.234 23.168 8.02 c 22.875 7.348 l 22.824 7.238 22.77 7.121
 22.707 6.996 c 22.664 6.914 22.641 6.863 22.59 6.844 c 22.574 6.848 22.52
 6.867 22.391 6.887 c 22.344 6.711 l 22.461 6.668 22.594 6.613 22.742 6.551
 c 22.91 6.477 23.066 6.406 23.211 6.332 c 23.234 6.32 l 23.297 6.523 l 
23.188 6.574 23.152 6.594 23.141 6.602 c 23.125 6.582 l f
25.234 5.551 m 25.25 5.543 l h
26.164 7.301 m 25.941 6.73 l 26.121 7.262 l h
24.535 7.871 m 24.555 7.926 l 24.57 7.441 l h
24.102 6.02 m 24.102 6.023 l 24.102 6.016 l 24.102 6.016 24.102 6.02 24.102
 6.02 c h
23.461 6.238 m 23.461 6.238 23.465 6.234 23.469 6.234 c 23.465 6.234 23.461
 6.238 23.461 6.234 c h
24.309 8.512 m 24.309 8.504 l h
25.027 6.371 m 25.016 7.043 l 25.047 6.391 l 25.039 6.383 25.035 6.379 
25.027 6.371 c h
26.949 7.516 m 26.934 7.523 l 26.949 7.52 l h
26.938 7.332 m 26.984 7.531 l 26.562 7.684 l 26.531 7.695 26.453 7.73 26.305
 7.777 c 26.242 7.699 26.188 7.637 26.141 7.586 c 26.098 7.535 25.973 7.402
 25.773 7.191 c 25.414 6.809 l 25.344 6.73 25.246 6.621 25.145 6.492 c 25.117
 6.461 25.09 6.434 25.055 6.398 c 25.012 8.297 l 24.914 8.328 24.816 8.359
 24.723 8.398 c 24.648 8.426 24.52 8.48 24.293 8.547 c 24.254 8.371 l 24.301
 8.352 24.352 8.32 24.41 8.289 c 24.422 8.309 l 24.438 8.234 l 24.434 8.203
 24.402 8.102 24.34 7.93 c 24.277 7.758 24.199 7.562 24.117 7.34 c 24.02
 7.094 23.949 6.922 23.91 6.82 c 23.824 6.613 23.766 6.48 23.734 6.422 c
 23.723 6.395 23.707 6.379 23.68 6.367 c 23.672 6.367 23.633 6.371 23.461
 6.398 c 23.426 6.219 l 23.512 6.195 23.625 6.156 23.766 6.102 c 23.875 
6.059 23.977 6.016 24.117 5.98 c 24.156 6.156 l 24.039 6.211 24.008 6.23
 24 6.238 c 23.949 6.262 l 23.98 6.316 l 23.988 6.344 24.023 6.449 24.09
 6.633 c 24.16 6.816 24.219 6.977 24.27 7.109 c 24.406 7.531 l 24.531 7.859
 l 24.555 6.902 l 24.559 6.746 24.562 6.512 24.562 6.199 c 24.562 6.016 
24.562 5.871 24.578 5.742 c 24.703 5.711 l 24.758 5.773 24.828 5.852 24.918
 5.949 c 25.066 6.113 25.18 6.234 25.262 6.32 c 25.762 6.887 l 26.113 7.25
 l 25.676 6.121 l 25.566 5.836 25.523 5.75 25.512 5.723 c 25.484 5.684 25.469
 5.676 25.461 5.672 c 25.441 5.672 25.395 5.68 25.238 5.707 c 25.199 5.531
 l 25.637 5.375 l 26.105 5.18 l 26.152 5.383 l 26.023 5.445 25.996 5.461
 25.977 5.516 c 25.98 5.551 26.008 5.637 26.055 5.773 c 26.062 5.801 26.094
 5.883 26.148 6.02 c 26.633 7.258 l 26.668 7.344 26.699 7.371 26.746 7.387
 c 26.781 7.387 26.828 7.375 26.891 7.348 c 26.938 7.332 l f
27.754 4.699 m 27.754 4.695 l h
27.078 7.449 m 27.074 7.445 l 27.074 7.449 l h
27.961 7.211 m 27.949 7.215 l 27.961 7.215 l h
28.535 7.016 m 28.535 7.008 l h
29.18 6.848 m 29.168 6.852 l 29.18 6.852 l h
29.172 6.73 m h
28.969 6.668 m 29.02 6.703 l 29.043 6.703 29.082 6.699 29.191 6.695 c 29.215
 6.867 l 28.855 6.961 l 28.824 6.973 28.723 7.008 28.516 7.047 c 28.492 
6.875 l 28.617 6.832 28.66 6.805 28.691 6.754 c 28.691 6.738 28.684 6.684
 28.637 6.5 c 28.617 6.438 28.562 6.254 28.477 5.961 c 28.371 5.617 l 28.301
 5.383 28.238 5.227 28.184 5.152 c 28.129 5.086 28.055 5.035 27.965 5.008
 c 27.879 4.977 27.766 4.984 27.641 5.023 c 27.531 5.055 27.445 5.102 27.387
 5.16 c 27.328 5.219 27.289 5.281 27.273 5.352 c 27.258 5.426 27.262 5.512
 27.281 5.613 c 27.293 5.664 27.328 5.789 27.391 5.996 c 27.562 6.582 l 
27.633 6.816 27.688 6.965 27.719 7.027 c 27.781 7.07 l 27.816 7.07 27.871
 7.062 27.973 7.059 c 28.016 7.199 l 27.969 7.238 l 27.059 7.484 l 27.031
 7.309 l 27.219 7.199 l 27.219 7.18 27.215 7.145 27.203 7.098 c 27.172 6.969
 27.133 6.828 27.086 6.672 c 26.859 5.922 l 26.805 5.742 26.773 5.633 26.77
 5.59 c 26.754 5.523 26.754 5.445 26.762 5.363 c 26.773 5.281 26.801 5.199
 26.844 5.125 c 26.887 5.047 26.949 4.977 27.035 4.914 c 27.148 4.828 27.281
 4.762 27.43 4.719 c 27.543 4.684 27.652 4.664 27.754 4.664 c 27.777 4.668
 l 27.883 4.668 27.984 4.691 28.074 4.734 c 28.164 4.777 28.242 4.836 28.305
 4.902 c 28.367 4.969 28.422 5.055 28.469 5.164 c 28.512 5.27 28.551 5.371
 28.582 5.473 c 28.699 5.867 l 28.734 5.984 28.785 6.141 28.852 6.34 c 28.938
 6.598 28.961 6.656 28.969 6.668 c f
32.012 6.297 m 32.004 6.297 l h
30.691 4.047 m 30.699 4.043 l h
31.277 5.941 m 31.168 5.344 l 31.246 5.891 l h
29.586 6.254 m 29.688 5.777 l 29.574 6.195 l h
29.488 4.297 m 29.488 4.305 l 29.492 4.293 l 29.492 4.293 29.488 4.293 
29.488 4.297 c h
28.82 4.395 m 28.82 4.395 28.824 4.395 28.824 4.395 c 28.824 4.395 28.82
 4.395 28.82 4.395 c h
29.234 6.781 m 29.234 6.777 l h
30.336 4.816 m 30.105 5.914 l 30.352 4.836 l 30.344 4.828 30.34 4.824 30.336
 4.816 c h
31.328 6.43 m 31.281 6.344 31.238 6.273 31.203 6.215 c 31.168 6.156 31.074
 6.008 30.918 5.758 c 30.633 5.316 l 30.578 5.227 30.504 5.102 30.43 4.957
 c 30.406 4.918 30.383 4.887 30.355 4.848 c 29.961 6.703 l 29.859 6.715 
29.758 6.73 29.66 6.75 c 29.582 6.762 29.445 6.793 29.211 6.816 c 29.207
 6.637 l 29.254 6.625 29.312 6.609 29.371 6.586 c 29.41 6.539 l 29.41 6.516
 29.406 6.441 29.371 6.219 c 29.34 6.039 29.301 5.832 29.258 5.598 c 29.211
 5.336 29.176 5.152 29.152 5.047 c 29.105 4.828 29.074 4.688 29.055 4.625
 c 29.047 4.602 29.039 4.582 28.984 4.559 c 28.949 4.559 28.895 4.562 28.793
 4.547 c 28.789 4.371 l 28.879 4.359 28.996 4.344 29.145 4.316 c 29.258 
4.293 29.367 4.27 29.512 4.266 c 29.52 4.441 l 29.391 4.477 29.359 4.488
 29.348 4.496 c 29.297 4.508 l 29.316 4.566 l 29.316 4.594 29.336 4.703 
29.367 4.898 c 29.398 5.09 29.43 5.262 29.457 5.402 c 29.508 5.844 l 29.57
 6.184 l 29.773 5.25 l 29.805 5.098 29.852 4.867 29.91 4.559 c 29.945 4.379
 29.973 4.238 30.012 4.113 c 30.141 4.105 l 30.18 4.176 30.238 4.27 30.309
 4.383 c 30.422 4.566 30.512 4.711 30.574 4.809 c 30.961 5.457 l 31.238 
5.883 l 31.02 4.691 l 30.973 4.449 30.945 4.309 30.93 4.27 c 30.914 4.223
 30.898 4.211 30.867 4.207 c 30.832 4.207 30.773 4.211 30.664 4.203 c 30.66
 4.023 l 31.613 3.844 l 31.625 4.051 l 31.477 4.09 31.453 4.102 31.426 4.148
 c 31.426 4.184 31.434 4.273 31.453 4.418 c 31.457 4.445 31.473 4.531 31.5
 4.676 c 31.75 5.984 l 31.766 6.074 31.793 6.109 31.809 6.121 c 31.824 6.133
 31.887 6.141 31.984 6.121 c 32.031 6.113 l 32.043 6.32 l 31.602 6.387 l
 31.566 6.395 31.484 6.414 31.328 6.43 c f
34.035 3.715 m h
34.066 6.039 m 34.191 6.039 34.297 6.02 34.375 5.977 c 34.453 5.938 34.523
 5.879 34.578 5.812 c 34.586 5.738 34.59 5.633 34.617 5.48 c 34.762 5.504
 l 34.766 5.617 34.777 5.738 34.797 5.867 c 34.805 5.949 34.82 6.016 34.836
 6.07 c 34.812 6.125 l 34.672 6.188 34.547 6.234 34.438 6.258 c 34.328 6.281
 34.203 6.297 34.039 6.301 c 33.656 6.301 33.355 6.184 33.137 5.953 c 32.914
 5.719 32.801 5.41 32.793 5.039 c 32.789 4.82 32.824 4.613 32.895 4.43 c
 32.941 4.305 33.012 4.188 33.102 4.078 c 33.188 3.969 33.297 3.883 33.43
 3.816 c 33.594 3.734 33.785 3.691 33.996 3.688 c 34.035 3.688 l 34.172 
3.688 34.285 3.699 34.375 3.727 c 34.477 3.754 34.594 3.805 34.73 3.895 
c 34.797 4.098 l 34.746 4.156 l 34.727 4.148 l 34.621 4.086 34.523 4.039
 34.438 4.016 c 34.352 3.992 34.262 3.98 34.156 3.98 c 34.008 3.98 33.879
 4.012 33.777 4.066 c 33.699 4.109 33.625 4.176 33.551 4.266 c 33.477 4.355
 33.414 4.469 33.371 4.605 c 33.328 4.742 33.309 4.906 33.309 5.09 c 33.316
 5.395 33.387 5.633 33.523 5.797 c 33.66 5.961 33.836 6.039 34.066 6.039
 c f
36.711 4.574 m 36.676 4.406 36.613 4.285 36.531 4.207 c 36.445 4.133 36.34
 4.086 36.223 4.074 c 36.094 4.059 35.98 4.078 35.879 4.141 c 35.777 4.199
 35.684 4.309 35.602 4.477 c 35.52 4.641 35.465 4.859 35.434 5.129 c 35.414
 5.312 35.414 5.488 35.445 5.645 c 35.469 5.797 35.527 5.922 35.617 6.008
 c 35.703 6.094 35.816 6.148 35.953 6.16 c 35.984 6.164 36.016 6.168 36.043
 6.168 c 36.125 6.168 36.195 6.152 36.254 6.125 c 36.332 6.086 36.402 6.023
 36.465 5.938 c 36.531 5.852 36.586 5.742 36.629 5.617 c 36.676 5.484 36.707
 5.34 36.727 5.18 c 36.754 4.945 36.746 4.742 36.711 4.574 c h
37.152 5.68 m 37.117 5.785 37.07 5.883 37.02 5.969 c 36.961 6.055 36.887
 6.137 36.793 6.215 c 36.695 6.293 36.586 6.352 36.473 6.383 c 36.316 6.426
 36.145 6.438 35.961 6.418 c 35.777 6.398 35.609 6.344 35.461 6.266 c 35.344
 6.199 35.238 6.105 35.148 5.98 c 35.055 5.855 34.992 5.707 34.953 5.539
 c 34.918 5.375 34.91 5.18 34.934 4.965 c 34.965 4.688 35.039 4.457 35.152
 4.277 c 35.266 4.102 35.414 3.969 35.59 3.895 c 35.719 3.832 35.867 3.805
 36.027 3.805 c 36.082 3.805 36.137 3.805 36.191 3.812 c 36.402 3.836 36.586
 3.898 36.738 3.996 c 36.852 4.07 36.949 4.168 37.031 4.289 c 37.109 4.41
 37.168 4.547 37.199 4.695 c 37.242 4.891 37.254 5.102 37.227 5.324 c 37.211
 5.453 37.188 5.574 37.152 5.68 c f
39.172 6.258 m h
38.785 5.359 m 38.785 5.355 l h
39.621 5.59 m 39.613 5.59 l h
39.613 5.309 m 39.602 5.375 39.605 5.391 39.605 5.395 c 39.609 5.406 39.629
 5.43 39.703 5.492 c 39.641 5.625 l 38.754 5.379 l 38.816 5.219 l 38.953
 5.242 39.039 5.254 39.121 5.246 c 39.125 5.242 39.141 5.211 39.176 5.066
 c 39.211 4.906 l 39.23 4.82 39.242 4.762 39.254 4.754 c 39.203 4.711 39.152
 4.672 39.098 4.645 c 39.043 4.613 38.98 4.59 38.922 4.578 c 38.707 4.523
 38.504 4.578 38.309 4.73 c 38.113 4.887 37.973 5.133 37.895 5.461 c 37.82
 5.762 37.832 6.02 37.93 6.223 c 38.031 6.426 38.195 6.555 38.426 6.613 
c 38.527 6.637 38.621 6.648 38.707 6.641 c 38.793 6.633 38.871 6.609 38.945
 6.578 c 38.977 6.562 39.008 6.543 39.027 6.523 c 39.043 6.492 39.059 6.453
 39.074 6.402 c 39.094 6.336 39.109 6.281 39.152 6.227 c 39.289 6.285 l 
39.246 6.539 39.223 6.723 39.223 6.828 c 39.184 6.883 l 39.09 6.906 38.973
 6.918 38.816 6.918 c 38.664 6.918 38.504 6.898 38.34 6.859 c 38.203 6.824
 38.082 6.781 37.977 6.727 c 37.867 6.672 37.77 6.598 37.68 6.512 c 37.59
 6.422 37.52 6.312 37.461 6.191 c 37.402 6.07 37.371 5.934 37.355 5.789 
c 37.344 5.645 37.359 5.477 37.406 5.297 c 37.457 5.082 37.539 4.895 37.652
 4.734 c 37.727 4.633 37.816 4.543 37.926 4.465 c 38.035 4.387 38.156 4.332
 38.293 4.297 c 38.383 4.273 38.473 4.266 38.566 4.266 c 38.68 4.266 38.797
 4.277 38.914 4.309 c 39.047 4.34 39.18 4.391 39.309 4.457 c 39.434 4.523
 39.582 4.617 39.754 4.77 c 39.723 4.855 39.695 4.945 39.676 5.027 c 39.66
 5.086 39.641 5.18 39.613 5.309 c f
39.988 6.68 m 40.148 6.566 40.297 6.461 40.445 6.359 c 40.301 6.453 40.156
 6.547 40 6.648 c h
40.809 5.113 m 40.809 5.113 40.805 5.113 40.805 5.113 c 40.805 5.113 40.809
 5.113 40.809 5.117 c h
40.875 5.016 m 40.875 5.02 l h
39.391 7.023 m 39.391 7.02 l 39.387 7.023 l h
41.77 6.016 m 41.727 6.043 41.668 6.082 41.617 6.113 c 41.664 6.09 41.715
 6.062 41.762 6.043 c h
40.914 7.574 m 40.918 7.566 l h
41.551 7.832 m 41.547 7.832 41.547 7.828 41.543 7.828 c 41.543 7.832 41.547
 7.832 41.551 7.836 c h
41.562 7.191 m 41.496 7.387 41.461 7.516 41.457 7.586 c 41.465 7.594 41.492
 7.621 41.652 7.711 c 41.566 7.867 l 41.422 7.809 41.305 7.762 41.215 7.727
 c 41.117 7.695 41.016 7.66 40.879 7.59 c 40.965 7.438 l 41.082 7.477 41.133
 7.48 41.176 7.48 c 41.18 7.48 41.191 7.473 41.215 7.426 c 41.262 7.328 
41.395 6.98 41.605 6.391 c 41.707 6.191 l 41.754 6.059 l 41.574 6.168 41.344
 6.32 41.059 6.516 c 40.648 6.805 40.289 7.062 39.965 7.289 c 39.637 7.16
 l 39.582 7.141 39.492 7.113 39.355 7.043 c 39.438 6.887 l 39.57 6.922 39.605
 6.926 39.621 6.926 c 39.668 6.945 l 39.688 6.883 l 39.699 6.859 39.719 
6.809 39.75 6.734 c 40.121 5.727 l 40.172 5.582 40.215 5.461 40.242 5.367
 c 40.293 5.207 40.32 5.105 40.332 5.062 c 40.359 5.066 l 40.328 4.988 l
 40.32 4.984 40.289 4.965 40.137 4.871 c 40.195 4.703 l 40.223 4.715 l 40.375
 4.777 40.496 4.828 40.586 4.859 c 40.773 4.926 l 40.91 5 l 40.859 5.133
 l 40.824 5.148 l 40.797 5.141 l 40.77 5.129 40.727 5.117 40.664 5.105 c
 40.645 5.078 l 40.637 5.078 l 40.609 5.121 l 40.594 5.141 40.559 5.215 
40.512 5.34 c 40.438 5.523 40.371 5.699 40.309 5.871 c 40.125 6.301 l 40.004
 6.637 l 40.84 6.043 41.465 5.617 41.922 5.328 c 42.008 5.344 42.094 5.359
 42.176 5.371 c 42.211 5.434 l 42.141 5.582 41.977 6.027 41.711 6.754 c 
41.68 6.848 41.629 6.996 41.562 7.191 c f
43.27 6.148 m 43.23 6.148 43.191 6.156 43.156 6.164 c 43.043 6.191 42.918
 6.27 42.793 6.402 c 42.664 6.535 42.543 6.73 42.438 6.977 c 42.359 7.145
 42.312 7.312 42.293 7.469 c 42.27 7.625 42.289 7.762 42.348 7.871 c 42.406
 7.977 42.5 8.062 42.625 8.117 c 42.711 8.156 42.789 8.176 42.859 8.176 
c 42.879 8.176 42.898 8.172 42.918 8.172 c 43.008 8.156 43.094 8.117 43.18
 8.055 c 43.266 7.996 43.352 7.906 43.434 7.797 c 43.516 7.688 43.59 7.559
 43.652 7.41 c 43.75 7.195 43.805 7 43.82 6.828 c 43.836 6.66 43.816 6.523
 43.758 6.426 c 43.699 6.328 43.613 6.254 43.504 6.203 c 43.426 6.168 43.348
 6.148 43.27 6.148 c h
43.914 8.016 m 43.848 8.105 43.773 8.184 43.695 8.25 c 43.621 8.316 43.523
 8.371 43.406 8.418 c 43.297 8.461 43.176 8.488 43.051 8.484 c 42.891 8.477
 42.723 8.438 42.555 8.363 c 42.387 8.289 42.238 8.191 42.121 8.07 c 42.031
 7.973 41.957 7.848 41.906 7.703 c 41.859 7.555 41.84 7.395 41.855 7.227
 c 41.867 7.055 41.922 6.867 42.008 6.672 c 42.121 6.414 42.262 6.215 42.422
 6.082 c 42.586 5.945 42.766 5.863 42.953 5.844 c 42.992 5.836 43.027 5.836
 43.066 5.836 c 43.223 5.836 43.387 5.875 43.555 5.949 c 43.746 6.031 43.902
 6.148 44.02 6.285 c 44.105 6.391 44.168 6.516 44.211 6.652 c 44.25 6.793
 44.266 6.938 44.25 7.09 c 44.234 7.289 44.18 7.496 44.09 7.695 c 44.035
 7.816 43.977 7.922 43.914 8.016 c f
44.621 7.336 m 44.617 7.336 l h
45.723 8.234 m 45.672 8.289 45.625 8.332 45.574 8.363 c 45.527 8.391 45.469
 8.41 45.406 8.422 c 45.344 8.43 45.27 8.43 45.184 8.414 c 45.152 8.406 
45.086 8.391 44.98 8.363 c 44.883 8.336 44.801 8.32 44.746 8.309 c 44.672
 8.297 44.613 8.293 44.566 8.301 c 44.523 8.309 44.484 8.328 44.449 8.359
 c 44.414 8.391 44.379 8.438 44.344 8.504 c 44.301 8.594 44.293 8.688 44.32
 8.785 c 44.352 8.883 44.422 8.961 44.535 9.016 c 44.609 9.051 44.699 9.086
 44.777 9.07 c 44.859 9.066 44.922 9.051 44.961 9.031 c 44.992 8.984 45.035
 8.902 45.137 8.77 c 45.258 8.859 l 45.211 8.969 45.172 9.055 45.148 9.125
 c 45.121 9.191 45.098 9.262 45.078 9.336 c 45.047 9.375 l 44.973 9.391 
l 44.898 9.391 44.82 9.379 44.742 9.359 c 44.641 9.336 44.539 9.301 44.445
 9.254 c 44.352 9.207 44.266 9.148 44.191 9.082 c 44.113 9.016 44.051 8.934
 44.008 8.84 c 43.965 8.75 43.945 8.641 43.953 8.516 c 43.961 8.395 43.992
 8.27 44.051 8.148 c 44.094 8.066 44.148 7.988 44.207 7.926 c 44.27 7.859
 44.34 7.812 44.414 7.781 c 44.488 7.754 44.578 7.742 44.672 7.754 c 44.73
 7.762 44.852 7.785 45.035 7.824 c 45.133 7.844 45.207 7.852 45.305 7.852
 c 45.359 7.844 45.402 7.824 45.445 7.793 c 45.484 7.758 45.523 7.707 45.551
 7.645 c 45.59 7.57 45.609 7.496 45.609 7.426 c 45.609 7.355 45.586 7.285
 45.539 7.223 c 45.496 7.16 45.43 7.105 45.352 7.066 c 45.273 7.031 45.191
 7.012 45.059 7.012 c 44.957 7.023 44.875 7.051 44.82 7.086 c 44.754 7.195
 44.703 7.281 44.633 7.371 c 44.508 7.281 l 44.625 7.039 44.699 6.848 44.754
 6.699 c 44.797 6.695 44.836 6.695 44.875 6.695 c 44.961 6.695 45.035 6.699
 45.105 6.711 c 45.207 6.73 45.312 6.766 45.422 6.824 c 45.574 6.898 45.695
 6.988 45.781 7.094 c 45.836 7.16 45.879 7.242 45.914 7.34 c 45.945 7.441
 45.961 7.535 45.957 7.633 c 45.957 7.766 45.922 7.898 45.852 8.035 c 45.816
 8.113 45.77 8.18 45.723 8.234 c f
46.922 7.738 m h
47.938 8.625 m 47.926 8.605 l 47.859 8.504 47.797 8.418 47.73 8.355 c 47.664
 8.293 47.586 8.238 47.496 8.195 c 47.367 8.129 47.242 8.094 47.121 8.094
 c 47.035 8.094 46.938 8.117 46.828 8.164 c 46.723 8.207 46.613 8.281 46.512
 8.383 c 46.41 8.484 46.316 8.617 46.23 8.781 c 46.094 9.055 46.047 9.297
 46.09 9.508 c 46.137 9.715 46.258 9.875 46.461 9.973 c 46.57 10.031 46.668
 10.059 46.766 10.062 c 46.852 10.062 46.941 10.043 47.02 10.012 c 47.059
 9.949 47.109 9.859 47.207 9.734 c 47.324 9.824 l 47.277 9.926 47.23 10.039
 47.184 10.16 c 47.152 10.238 47.133 10.305 47.125 10.359 c 47.078 10.398
 l 46.922 10.387 46.793 10.367 46.684 10.34 c 46.578 10.312 46.461 10.266
 46.34 10.207 c 45.988 10.023 45.762 9.777 45.676 9.465 c 45.59 9.152 45.629
 8.828 45.801 8.496 c 45.898 8.301 46.023 8.137 46.172 8.004 c 46.273 7.914
 46.387 7.84 46.516 7.789 c 46.645 7.734 46.781 7.711 46.922 7.711 c 46.93
 7.711 l 47.113 7.711 47.301 7.762 47.492 7.859 c 47.625 7.926 47.734 7.996
 47.812 8.07 c 47.887 8.141 47.965 8.242 48.047 8.387 c 48.008 8.598 l 47.938
 8.625 l f
48.719 10.402 m 48.715 10.402 l 48.715 10.406 l h
49.07 9.754 m 49.066 9.758 l h
49 9.688 m 49.004 9.688 l 49 9.684 l h
49.387 9.586 m 49.379 9.586 l 49.387 9.59 l 49.387 9.59 49.387 9.586 49.387
 9.586 c h
49.277 9.535 m 49.328 9.391 49.355 9.289 49.367 9.211 c 49.359 9.203 49.34
 9.176 49.242 9.117 c 49.164 9.066 49.078 9.02 48.984 8.973 c 48.887 8.926
 48.801 8.887 48.758 8.848 c 48.73 8.898 48.695 8.961 48.66 9.031 c 48.324
 9.656 l 48.375 9.691 48.445 9.73 48.531 9.773 c 48.625 9.82 48.707 9.852
 48.828 9.867 c 48.844 9.852 48.879 9.809 48.988 9.648 c 49.109 9.738 l 
48.73 10.441 l 48.609 10.352 l 48.652 10.262 48.68 10.191 48.688 10.125 
c 48.688 10.125 48.676 10.113 48.617 10.086 c 48.492 10.016 48.422 9.977
 48.402 9.969 c 48.336 9.938 48.273 9.906 48.246 9.871 c 48.086 10.195 l
 47.992 10.379 47.926 10.531 47.867 10.621 c 47.945 10.668 48.023 10.715
 48.102 10.754 c 48.184 10.793 48.273 10.832 48.367 10.863 c 48.43 10.887
 48.457 10.891 48.484 10.875 c 48.5 10.859 48.531 10.809 48.645 10.648 c
 48.762 10.734 l 48.578 11.203 l 48.527 11.238 l 48.473 11.223 l 48.371 
11.176 48.305 11.148 48.27 11.133 c 48.004 10.988 l 47.855 10.91 47.723 
10.844 47.602 10.781 c 47.102 10.5 l 47.199 10.367 l 47.324 10.418 47.371
 10.434 47.406 10.426 c 47.422 10.414 47.453 10.367 47.527 10.227 c 48.035
 9.215 l 48.074 9.133 48.137 9 48.219 8.816 c 48.262 8.719 48.293 8.645 
48.309 8.617 c 48.293 8.57 48.266 8.52 48.227 8.441 c 48.281 8.328 l 48.305
 8.344 l 48.578 8.488 48.723 8.562 48.746 8.574 c 48.824 8.613 48.973 8.684
 49.184 8.785 c 49.406 8.887 l 49.512 8.941 49.59 8.984 49.645 9.02 c 49.66
 9.086 l 49.594 9.219 49.52 9.395 49.398 9.625 c 49.277 9.535 l f
51.707 10.02 m 51.707 10.023 l h
50.711 9.566 m 50.711 9.574 l 50.715 9.566 l h
51.566 10.137 m 51.562 10.109 l 51.512 10.152 l 51.488 10.164 51.422 10.207
 51.309 10.281 c 50.738 10.695 l 50.727 10.703 50.695 10.723 50.645 10.762
 c 50.598 10.797 50.551 10.832 50.512 10.832 c 50.508 10.832 50.508 10.832
 50.508 10.836 c 50.621 10.961 50.691 11.098 50.711 11.238 c 50.734 11.379
 50.711 11.52 50.652 11.652 c 50.602 11.766 50.531 11.852 50.441 11.906 
c 50.363 11.957 50.289 11.977 50.176 11.98 c 50.09 11.969 49.977 11.934 
49.832 11.867 c 49.758 11.836 49.664 11.789 49.555 11.73 c 49.488 11.695
 49.41 11.656 49.316 11.613 c 49.203 11.562 49.117 11.527 49.055 11.5 c 
48.93 11.449 48.855 11.418 48.82 11.375 c 48.914 11.227 l 49.043 11.273 
49.094 11.285 49.133 11.273 c 49.145 11.266 49.172 11.219 49.254 11.051 
c 49.883 9.652 l 49.918 9.57 49.941 9.504 49.953 9.41 c 49.945 9.402 49.914
 9.379 49.773 9.277 c 49.848 9.113 l 49.875 9.125 l 49.992 9.188 50.121 
9.25 50.262 9.316 c 50.418 9.387 50.578 9.453 50.75 9.555 c 50.648 9.707
 l 50.562 9.672 50.508 9.656 50.441 9.652 c 50.434 9.664 50.414 9.688 50.379
 9.758 c 50.363 9.785 50.305 9.91 50.203 10.129 c 50.117 10.305 50.039 10.473
 49.965 10.633 c 49.922 10.734 49.832 10.938 49.699 11.238 c 49.641 11.375
 49.605 11.461 49.582 11.469 c 49.621 11.496 49.66 11.52 49.699 11.539 c
 49.816 11.59 49.875 11.605 49.91 11.605 c 49.973 11.605 50.035 11.582 50.098
 11.539 c 50.164 11.496 50.215 11.426 50.258 11.336 c 50.301 11.242 50.32
 11.148 50.32 11.055 c 50.316 10.965 50.297 10.898 50.258 10.848 c 50.223
 10.797 50.148 10.746 50.027 10.676 c 50.055 10.594 l 50.09 10.582 50.129
 10.562 50.18 10.527 c 50.277 10.461 50.406 10.367 50.562 10.246 c 51.109
 9.812 l 51.141 9.785 51.164 9.762 51.215 9.734 c 51.281 9.773 51.352 9.805
 51.426 9.836 c 51.488 9.867 51.59 9.91 51.742 10.004 c 51.645 10.16 l 51.598
 10.141 51.574 10.137 51.566 10.137 c f
52.387 12.004 m 52.383 12.004 l h
52.68 11.32 m 52.676 11.328 l h
52.602 11.262 m h
52.977 11.129 m 52.969 11.125 l h
53.004 11.137 m 53 11.148 52.996 11.152 52.992 11.164 c 52.863 11.086 l
 52.898 10.934 52.922 10.832 52.922 10.754 c 52.914 10.742 52.891 10.719
 52.789 10.668 c 52.707 10.629 52.617 10.59 52.52 10.555 c 52.418 10.516
 52.328 10.484 52.281 10.449 c 52.258 10.5 52.23 10.566 52.203 10.641 c 
51.926 11.293 l 51.98 11.324 52.051 11.355 52.141 11.391 c 52.242 11.43 
52.324 11.453 52.445 11.457 c 52.457 11.445 52.488 11.398 52.586 11.223 
c 52.715 11.305 l 52.402 12.039 l 52.273 11.961 l 52.309 11.863 52.328 11.793
 52.328 11.727 c 52.328 11.727 52.316 11.715 52.258 11.691 c 52.031 11.594
 l 51.961 11.57 51.898 11.547 51.867 11.512 c 51.734 11.852 l 51.66 12.039
 51.609 12.199 51.559 12.297 c 51.641 12.336 51.723 12.375 51.805 12.402
 c 51.891 12.438 51.98 12.465 52.078 12.488 c 52.137 12.504 52.164 12.508
 52.199 12.492 c 52.215 12.465 52.25 12.391 52.336 12.25 c 52.461 12.324
 l 52.32 12.809 l 52.273 12.848 l 52.215 12.84 l 52.109 12.805 52.043 12.777
 52.008 12.766 c 51.73 12.648 l 51.574 12.586 51.434 12.531 51.309 12.48
 c 50.785 12.246 l 50.871 12.105 l 50.992 12.145 51.043 12.148 51.082 12.145
 c 51.094 12.133 51.121 12.086 51.184 11.934 c 51.598 10.879 l 51.629 10.793
 51.676 10.656 51.742 10.465 c 51.777 10.363 51.801 10.289 51.816 10.258
 c 51.793 10.215 51.762 10.172 51.715 10.09 c 51.758 9.977 l 51.785 9.988
 l 52.07 10.105 52.223 10.168 52.246 10.176 c 52.328 10.211 52.48 10.266
 52.703 10.348 c 52.93 10.43 l 53.039 10.473 53.125 10.508 53.184 10.539
 c 53.203 10.602 l 53.152 10.734 53.094 10.91 53.004 11.137 c f
56.039 11.371 m 56.039 11.375 l h
54.977 11.113 m 54.977 11.117 l 54.98 11.113 l h
53.488 13.219 m h
55.934 11.512 m 55.914 11.488 l 55.875 11.539 l 55.852 11.555 55.793 11.609
 55.695 11.703 c 55.688 11.711 55.641 11.758 55.555 11.848 c 55.211 12.215
 l 55.203 12.223 55.176 12.254 55.133 12.301 c 55.09 12.34 55.055 12.383
 55.016 12.391 c 55.012 12.391 55.012 12.395 55.012 12.395 c 55.148 12.5
 55.242 12.621 55.289 12.754 c 55.332 12.891 55.34 13.031 55.305 13.172 
c 55.273 13.293 55.223 13.391 55.145 13.461 c 55.066 13.535 54.984 13.574
 54.852 13.586 c 54.773 13.586 54.668 13.57 54.539 13.539 c 54.461 13.52
 54.359 13.492 54.242 13.457 c 54.172 13.434 54.086 13.406 53.984 13.383
 c 53.867 13.355 53.773 13.332 53.711 13.32 c 53.574 13.293 53.496 13.277
 53.453 13.238 c 53.52 13.078 l 53.605 13.09 53.664 13.098 53.742 13.086
 c 53.75 13.07 53.773 13.023 53.82 12.84 c 54.18 11.352 l 54.199 11.262 
54.211 11.195 54.203 11.098 c 54.188 11.09 54.125 11.066 54 11.004 c 54.043
 10.824 l 54.074 10.836 l 54.199 10.871 54.336 10.91 54.488 10.949 c 54.656
 10.988 54.824 11.027 55.012 11.09 c 54.941 11.262 l 54.852 11.242 54.797
 11.23 54.727 11.25 c 54.723 11.258 54.707 11.285 54.688 11.363 c 54.676
 11.395 54.641 11.523 54.578 11.758 c 54.531 11.949 54.484 12.129 54.441
 12.297 c 54.418 12.406 54.367 12.621 54.293 12.945 c 54.262 13.086 54.242
 13.18 54.219 13.191 c 54.262 13.211 54.305 13.227 54.348 13.238 c 54.43
 13.258 54.484 13.266 54.562 13.266 c 54.625 13.254 54.684 13.219 54.738
 13.164 c 54.797 13.109 54.836 13.031 54.859 12.934 c 54.883 12.832 54.887
 12.738 54.867 12.648 c 54.848 12.562 54.816 12.496 54.77 12.453 c 54.723
 12.41 54.641 12.379 54.508 12.328 c 54.52 12.242 l 54.555 12.227 54.594
 12.195 54.633 12.156 c 54.719 12.074 54.824 11.957 54.957 11.805 c 55.414
 11.281 l 55.445 11.242 55.461 11.215 55.5 11.184 c 55.574 11.207 55.652
 11.227 55.727 11.246 c 55.797 11.262 55.902 11.285 56.074 11.352 c 56.004
 11.523 l 55.969 11.516 55.945 11.512 55.934 11.512 c f
57.195 13.121 m 57.191 13.121 l h
57.312 12.387 m 57.309 12.395 l h
57.555 12.129 m 57.547 12.125 l h
57.582 12.133 m 57.578 12.141 57.578 12.148 57.578 12.156 c 57.434 12.113
 l 57.43 11.961 57.426 11.855 57.406 11.777 c 57.402 11.773 57.371 11.754
 57.258 11.73 c 57.172 11.711 57.074 11.695 56.969 11.684 c 56.859 11.668
 56.766 11.664 56.715 11.641 c 56.703 11.695 56.691 11.766 56.684 11.848
 c 56.574 12.547 l 56.637 12.562 56.715 12.574 56.809 12.586 c 56.887 12.598
 56.957 12.602 57.016 12.602 c 57.121 12.578 l 57.129 12.562 57.148 12.512
 57.199 12.316 c 57.344 12.363 l 57.219 13.152 l 57.074 13.105 l 57.086 
13.008 57.086 12.934 57.074 12.867 c 57.07 12.867 57.059 12.859 56.996 12.852
 c 56.855 12.832 56.773 12.816 56.75 12.816 c 56.68 12.805 56.609 12.801
 56.57 12.773 c 56.527 13.133 l 56.504 13.336 56.488 13.504 56.465 13.609
 c 56.555 13.629 56.645 13.645 56.73 13.652 c 56.816 13.664 56.895 13.672
 57.016 13.668 c 57.105 13.668 57.121 13.66 57.133 13.641 c 57.141 13.621
 57.156 13.562 57.207 13.371 c 57.348 13.414 l 57.328 13.922 l 57.297 13.961
 l 57.242 13.977 l 57.238 13.973 l 57.129 13.965 57.055 13.961 57.02 13.953
 c 56.719 13.91 l 56.555 13.887 56.402 13.867 56.27 13.852 c 55.707 13.75
 l 55.75 13.594 l 55.883 13.602 55.938 13.598 55.969 13.578 c 55.977 13.562
 55.992 13.508 56.012 13.348 c 56.152 12.227 l 56.164 12.137 56.18 11.992
 56.195 11.789 c 56.203 11.684 56.207 11.602 56.215 11.574 c 56.184 11.535
 56.141 11.496 56.074 11.434 c 56.09 11.312 l 56.242 11.332 l 56.469 11.367
 56.59 11.383 56.609 11.387 c 56.699 11.398 56.859 11.414 57.094 11.438 
c 57.336 11.461 l 57.453 11.477 57.543 11.492 57.605 11.508 c 57.645 11.562
 l 57.629 11.703 57.613 11.887 57.582 12.129 c 57.582 12.133 l f
58.703 11.559 m 58.703 11.562 l h
57.781 11.551 m 57.785 11.551 l h
59.68 11.738 m 59.664 11.758 59.617 11.828 59.547 11.945 c 59.215 12.562
 l 59.211 12.574 59.191 12.609 59.16 12.664 c 59.133 12.715 59.105 12.766
 59.07 12.785 c 59.07 12.785 59.066 12.785 59.066 12.789 c 59.227 12.855
 59.352 12.949 59.43 13.066 c 59.508 13.184 59.551 13.316 59.555 13.465 
c 59.555 13.59 59.531 13.695 59.477 13.785 c 59.418 13.875 59.348 13.934
 59.266 13.965 c 59.184 13.992 59.066 14.012 58.906 14.016 c 58.816 14.016
 l 58.754 14.016 58.684 14.016 58.598 14.012 c 58.559 14.012 58.512 14.008
 58.457 14.008 c 58.332 14.012 l 58.211 14.012 58.117 14.016 58.02 14.023
 c 57.902 14.031 57.832 14.035 57.785 14.008 c 57.805 13.836 l 57.965 13.82
 58.004 13.805 58.02 13.781 c 58.027 13.766 58.035 13.707 58.031 13.527 
c 57.992 11.996 l 57.988 11.906 57.98 11.836 57.949 11.746 c 57.945 11.746
 57.91 11.738 57.73 11.707 c 57.758 11.523 l 57.836 11.527 57.922 11.527
 58.012 11.527 c 58.188 11.527 l 58.359 11.523 58.531 11.516 58.73 11.531
 c 58.707 11.711 l 58.668 11.715 58.562 11.719 58.496 11.754 c 58.492 11.766
 58.488 11.797 58.484 11.875 c 58.484 11.906 58.484 12.043 58.484 12.285
 c 58.488 12.48 58.492 12.668 58.492 12.844 c 58.496 12.953 58.504 13.176
 58.52 13.504 c 58.523 13.652 58.527 13.746 58.512 13.762 c 58.551 13.77
 58.586 13.773 58.648 13.773 c 58.75 13.773 58.82 13.762 58.859 13.746 c
 58.918 13.719 58.969 13.668 59.008 13.602 c 59.047 13.535 59.062 13.449
 59.062 13.348 c 59.059 13.246 59.039 13.152 58.996 13.07 c 58.957 12.992
 58.906 12.938 58.852 12.906 c 58.805 12.883 58.738 12.871 58.656 12.871
 c 58.566 12.855 l 58.555 12.77 l 58.582 12.742 58.613 12.707 58.641 12.656
 c 58.699 12.555 58.773 12.414 58.863 12.234 c 59.168 11.609 l 59.184 11.57
 59.195 11.539 59.227 11.492 c 59.461 11.492 l 59.531 11.492 59.641 11.488
 59.793 11.48 c 59.824 11.477 l 59.824 11.508 l 59.801 11.688 l 59.742 11.691
 59.723 11.699 59.68 11.738 c f
60.066 13.91 m 60.066 13.906 l h
60.965 13.734 m 60.949 13.738 l h
60.965 13.613 m 60.965 13.617 l h
61.551 13.578 m 61.551 13.57 l h
62.203 13.457 m 62.195 13.461 l h
61.703 12.043 m 61.793 12.445 l 61.82 12.562 61.859 12.723 61.91 12.926
 c 61.977 13.18 62 13.25 62.008 13.262 c 61.984 13.277 l 62.066 13.301 l
 62.098 13.301 62.137 13.293 62.227 13.305 c 62.238 13.477 l 61.871 13.547
 l 61.84 13.555 61.738 13.582 61.531 13.609 c 61.52 13.434 l 61.652 13.398
 61.695 13.375 61.723 13.328 c 61.727 13.309 61.723 13.246 61.688 13.074
 c 61.672 13.004 61.633 12.824 61.562 12.523 c 61.484 12.172 l 61.43 11.934
 61.379 11.773 61.328 11.699 c 61.277 11.625 61.207 11.57 61.121 11.535 
c 61.035 11.5 60.926 11.5 60.797 11.527 c 60.684 11.555 60.598 11.594 60.531
 11.648 c 60.469 11.703 60.43 11.762 60.406 11.832 c 60.387 11.898 60.383
 11.988 60.398 12.094 c 60.406 12.145 60.434 12.273 60.48 12.48 c 60.613
 13.078 l 60.664 13.316 60.707 13.469 60.734 13.535 c 60.809 13.582 l 60.844
 13.582 60.891 13.574 60.984 13.582 c 61.02 13.723 l 60.969 13.762 l 60.043
 13.941 l 60.031 13.77 l 60.223 13.672 l 60.227 13.656 60.227 13.625 60.215
 13.566 c 60.191 13.438 60.164 13.293 60.129 13.133 c 59.953 12.371 l 59.914
 12.191 59.891 12.078 59.887 12.035 c 59.879 11.965 59.883 11.891 59.898
 11.809 c 59.914 11.727 59.945 11.648 59.992 11.574 c 60.043 11.5 60.109
 11.434 60.199 11.375 c 60.316 11.301 60.453 11.242 60.605 11.211 c 60.699
 11.188 60.789 11.18 60.871 11.18 c 60.902 11.18 60.93 11.18 60.957 11.184
 c 61.066 11.195 61.164 11.223 61.25 11.273 c 61.336 11.32 61.41 11.383 
61.465 11.453 c 61.523 11.523 61.574 11.613 61.609 11.727 c 61.648 11.832
 61.68 11.938 61.703 12.043 c f
63.238 10.332 m 63.25 10.328 l h
64.289 12.016 m 64.031 11.465 l 64.246 11.973 l h
62.73 12.75 m 62.711 12.266 l 62.707 12.695 l h
62.141 10.883 m 62.145 10.887 l 62.141 10.879 l 62.141 10.883 62.141 10.883
 62.141 10.883 c h
61.516 11.145 m 61.52 11.145 61.523 11.145 61.523 11.145 c 61.523 11.145
 61.52 11.145 61.516 11.145 c h
62.527 13.352 m 62.527 13.348 l h
63.09 11.168 m 63.148 12.301 l 63.109 11.184 l 63.105 11.176 63.098 11.172
 63.09 11.168 c h
65.09 12.172 m 65.078 12.176 l h
64.715 12.363 m 64.684 12.379 64.609 12.418 64.465 12.477 c 64.395 12.402
 64.336 12.344 64.289 12.297 c 64.238 12.25 64.109 12.129 63.895 11.93 c
 63.508 11.574 l 63.434 11.504 63.328 11.402 63.219 11.277 c 63.188 11.25
 63.156 11.223 63.121 11.191 c 63.211 13.086 l 63.113 13.125 63.02 13.164
 62.93 13.207 c 62.859 13.242 62.734 13.305 62.516 13.387 c 62.465 13.215
 l 62.508 13.191 62.559 13.16 62.609 13.121 c 62.629 13.145 l 62.637 13.066
 l 62.633 13.043 62.605 12.973 62.516 12.77 c 62.441 12.602 62.352 12.414
 62.25 12.199 c 62.137 11.961 62.055 11.789 62.008 11.691 c 61.906 11.492
 61.84 11.363 61.805 11.309 c 61.789 11.281 61.777 11.27 61.746 11.258 c
 61.742 11.258 61.707 11.262 61.531 11.301 c 61.48 11.129 l 61.566 11.098
 61.676 11.051 61.812 10.988 c 61.918 10.938 62.02 10.887 62.152 10.844 
c 62.203 11.016 l 62.094 11.078 62.062 11.098 62.055 11.109 c 62.008 11.137
 l 62.043 11.188 l 62.051 11.211 62.094 11.312 62.176 11.492 c 62.258 11.672
 62.328 11.828 62.391 11.957 c 62.555 12.371 l 62.699 12.684 l 62.656 11.73
 l 62.648 11.574 62.637 11.34 62.613 11.027 c 62.602 10.844 62.594 10.703
 62.598 10.57 c 62.723 10.531 l 62.777 10.586 62.855 10.66 62.953 10.754
 c 63.113 10.902 63.234 11.02 63.32 11.098 c 63.855 11.625 l 64.234 11.965
 l 63.719 10.871 l 63.613 10.648 63.551 10.52 63.523 10.484 c 63.496 10.445
 63.48 10.438 63.473 10.438 c 63.461 10.438 63.422 10.445 63.254 10.488 
c 63.203 10.316 l 64.078 9.902 l 64.145 10.098 l 64.109 10.121 64 10.18 
63.973 10.246 c 63.984 10.277 64.016 10.363 64.07 10.496 c 64.082 10.523
 64.117 10.602 64.18 10.734 c 64.758 11.934 l 64.797 12.02 64.828 12.047
 64.871 12.059 c 64.902 12.059 64.953 12.039 65.02 12.008 c 65.062 11.988
 l 65.125 12.184 l 64.715 12.363 l f
  Q
Q
Q Q
showpage
%%Trailer
%%EOF
