%!PS-Adobe-3.0
%%Creator: cairo 1.12.2 (http://cairographics.org)
%%CreationDate: Mon Aug  6 13:42:43 2012
%%Pages: 1
%%DocumentData: Clean7Bit
%%LanguageLevel: 2
%%DocumentMedia: 60x20mm 171 56 0 () ()
%%BoundingBox: 0 -1 172 56
%%EndComments
%%BeginProlog
/languagelevel where
{ pop languagelevel } { 1 } ifelse
2 lt { /Helvetica findfont 12 scalefont setfont 50 500 moveto
  (This print job requires a PostScript Language Level 2 printer.) show
  showpage quit } if
/q { gsave } bind def
/Q { grestore } bind def
/cm { 6 array astore concat } bind def
/w { setlinewidth } bind def
/J { setlinecap } bind def
/j { setlinejoin } bind def
/M { setmiterlimit } bind def
/d { setdash } bind def
/m { moveto } bind def
/l { lineto } bind def
/c { curveto } bind def
/h { closepath } bind def
/re { exch dup neg 3 1 roll 5 3 roll moveto 0 rlineto
      0 exch rlineto 0 rlineto closepath } bind def
/S { stroke } bind def
/f { fill } bind def
/f* { eofill } bind def
/n { newpath } bind def
/W { clip } bind def
/W* { eoclip } bind def
/BT { } bind def
/ET { } bind def
/pdfmark where { pop globaldict /?pdfmark /exec load put }
    { globaldict begin /?pdfmark /pop load def /pdfmark
    /cleartomark load def end } ifelse
/BDC { mark 3 1 roll /BDC pdfmark } bind def
/EMC { mark /EMC pdfmark } bind def
/cairo_store_point { /cairo_point_y exch def /cairo_point_x exch def } def
/Tj { show currentpoint cairo_store_point } bind def
/TJ {
  {
    dup
    type /stringtype eq
    { show } { -0.001 mul 0 cairo_font_matrix dtransform rmoveto } ifelse
  } forall
  currentpoint cairo_store_point
} bind def
/cairo_selectfont { cairo_font_matrix aload pop pop pop 0 0 6 array astore
    cairo_font exch selectfont cairo_point_x cairo_point_y moveto } bind def
/Tf { pop /cairo_font exch def /cairo_font_matrix where
      { pop cairo_selectfont } if } bind def
/Td { matrix translate cairo_font_matrix matrix concatmatrix dup
      /cairo_font_matrix exch def dup 4 get exch 5 get cairo_store_point
      /cairo_font where { pop cairo_selectfont } if } bind def
/Tm { 2 copy 8 2 roll 6 array astore /cairo_font_matrix exch def
      cairo_store_point /cairo_font where { pop cairo_selectfont } if } bind def
/g { setgray } bind def
/rg { setrgbcolor } bind def
/d1 { setcachedevice } bind def
%%EndProlog
%%Page: 1 1
%%BeginPageSetup
%%PageMedia: 60x20mm
%%PageBoundingBox: 0 -1 172 56
%%EndPageSetup
q 0 -1 172 57 rectclip q
0.137255 0.121569 0.12549 rg
37.941 30.461 m 37.879 17.68 31.516 11.258 19.848 11.258 c 8.305 11.258
 1.566 16.438 1.566 28.34 c 1.566 40.434 l 1.566 47.168 0.82 52.652 0.57
 55.52 c 1.941 55.332 4.188 55.207 5.5 55.207 c 6.809 55.207 8.18 55.332
 9.43 55.52 c 8.805 49.598 8.617 41.68 8.617 33.453 c 8.617 21.609 10.801
 14.879 21.781 14.879 c 33.637 14.879 33.949 26.66 33.949 36.383 c 33.949
 45.172 33.883 51.406 33.512 55.52 c 34.445 55.332 35.445 55.207 36.383 
55.207 c 37.254 55.207 38.066 55.332 38.875 55.52 c 38.441 50.781 38.004
 40.371 37.941 30.461 c f
78.586 34.359 m 78.461 27.699 78.523 17.551 78.586 11.609 c 78.152 11.738
 77.531 11.801 77.098 11.801 c 76.664 11.801 76.047 11.738 75.672 11.609
 c 66.621 22.285 56.383 33.301 46.266 44.012 c 46.141 40.523 46.078 36.039
 46.078 30.438 c 46.078 22.781 46.328 14.438 46.578 12.055 c 45.707 12.246
 44.84 12.375 44.035 12.375 c 43.168 12.375 42.297 12.246 41.422 12.055 
c 41.859 14.438 42.734 30.438 42.734 40.898 c 42.734 47.621 42.609 52.539
 42.484 55.402 c 42.918 55.34 43.664 55.277 44.098 55.277 c 44.594 55.277
 45.273 55.34 45.77 55.402 c 55.32 44.945 66.684 32.555 75.113 23.777 c 
75.113 34.297 75.113 48.801 74.613 55.027 c 75.426 54.84 76.293 54.719 77.098
 54.719 c 77.902 54.719 78.648 54.84 79.457 55.027 c 79.086 48.988 78.648
 39.715 78.586 34.359 c f
94.359 11.02 m 88.93 11.02 83.316 13.645 80.633 15.578 c 81.691 16.453 
82.129 16.703 83.316 18.266 c 84.188 19.453 84.75 21.391 84.75 21.391 c 
85.871 18.078 89.242 14.828 95.297 14.828 c 101.348 14.828 105.594 19.391
 105.594 23.637 c 105.594 34.133 82.629 29.324 82.629 43.754 c 82.629 51.562
 89.492 55.875 98.602 55.875 c 103.473 55.875 107.527 54.344 110.402 52.438
 c 109.09 51.375 108.902 51.312 108.09 50.125 c 107.465 49.188 106.719 47.188
 106.719 47.188 c 105.531 50.125 102.973 52.812 98.105 52.812 c 93.176 52.812
 89.68 49.75 89.68 45.938 c 89.68 35.508 113.523 39.691 113.461 26.137 c
 113.398 15.453 105.781 11.02 94.359 11.02 c f
157.18 11.992 m 156.305 12.117 155.43 12.305 154.621 12.305 c 153.746 12.305
 152.875 12.117 152 11.992 c 149.008 22.902 145.574 33.875 141.77 45.16 
c 141.645 45.16 l 139.336 38.051 133.785 22.219 130.727 11.992 c 129.855
 12.117 129.043 12.305 128.105 12.305 c 127.297 12.305 126.359 12.117 125.551
 11.992 c 123.805 18.727 121.246 28.574 118 39.172 c 117.004 42.539 113.32
 52.703 112.324 55.008 c 113.695 54.82 115.758 54.695 117.062 54.695 c 118.375
 54.695 119.684 54.82 120.996 55.008 c 123.738 43.352 126.547 33.062 130.102
 20.785 c 130.227 20.785 l 133.035 29.449 139.523 48.898 141.082 55.008 
c 141.895 54.82 142.707 54.695 143.578 54.695 c 144.391 54.695 145.199 54.82
 146.012 55.008 c 147.445 48.836 154.371 28.141 156.492 20.785 c 156.617
 20.785 l 159.051 28.824 165.289 49.832 166.41 55.008 c 167.16 54.82 167.973
 54.695 168.719 54.695 c 169.531 54.695 170.277 54.82 171.152 55.008 c 169.156
 49.648 160.109 22.156 157.18 11.992 c f
2.738 0.086 m 2.598 0.094 2.473 0.121 2.352 0.121 c 2.215 0.121 2.082 0.094
 1.961 0.086 c 1.961 5.727 l 1.059 5.727 0.512 5.672 0 5.621 c 0.012 5.711
 0.031 5.797 0.031 5.887 c 0.031 5.973 0.012 6.055 0 6.152 c 4.609 6.152
 l 4.602 6.055 4.578 5.973 4.578 5.887 c 4.578 5.797 4.602 5.711 4.609 5.621
 c 4.16 5.672 3.535 5.727 2.738 5.727 c 2.738 0.086 l f
10.156 6.152 m 10.277 6.145 10.414 6.121 10.547 6.121 c 10.668 6.121 10.793
 6.145 10.934 6.152 c 10.934 0.102 l 10.793 0.109 10.668 0.133 10.547 0.133
 c 10.414 0.133 10.277 0.109 10.156 0.102 c 10.156 3.152 l 9.52 3.168 8.902
 3.191 8.273 3.191 c 7.648 3.191 7.031 3.168 6.387 3.152 c 6.387 0.102 l
 6.246 0.109 6.121 0.133 5.996 0.133 c 5.863 0.133 5.73 0.109 5.605 0.102
 c 5.605 6.152 l 5.73 6.145 5.863 6.121 5.996 6.121 c 6.121 6.121 6.246 
6.145 6.387 6.152 c 6.387 3.617 l 7.031 3.602 7.656 3.578 8.273 3.578 c 
8.902 3.578 9.52 3.602 10.156 3.617 c 10.156 6.152 l f
13.098 3.52 m 14.484 3.52 l 14.75 3.52 15.012 3.555 15.277 3.562 c 15.27
 3.492 15.242 3.414 15.242 3.336 c 15.242 3.266 15.27 3.188 15.277 3.09 
c 15.012 3.098 14.75 3.133 14.484 3.133 c 13.098 3.133 l 13.098 0.543 l 
13.641 0.527 14.18 0.562 14.715 0.578 c 14.992 0.59 15.262 0.613 15.539 
0.66 c 15.527 0.562 15.512 0.48 15.512 0.395 c 15.512 0.309 15.527 0.219
 15.539 0.133 c 12.316 0.133 l 12.316 6.152 l 15.484 6.152 l 15.477 6.055
 15.449 5.977 15.449 5.891 c 15.449 5.801 15.477 5.715 15.484 5.625 c 15.215
 5.676 14.949 5.703 14.68 5.723 c 13.785 5.738 l 13.098 5.738 l 13.098 3.52
 l f
20.832 2.77 m 20.832 1.215 21.277 0.41 22.812 0.41 c 24.234 0.41 24.746
 1.426 24.746 2.855 c 24.746 6.152 l 24.828 6.145 24.906 6.121 24.996 6.121
 c 25.078 6.121 25.156 6.145 25.246 6.152 c 25.246 2.637 l 25.246 0.887 
24.211 0 22.633 0 c 21.746 0 21.152 0.207 20.691 0.621 c 20.129 1.125 20.059
 1.91 20.051 2.617 c 20.051 6.152 l 20.176 6.145 20.309 6.121 20.441 6.121
 c 20.566 6.121 20.691 6.145 20.832 6.152 c 20.832 2.77 l f
31.801 0.102 m 31.531 0.102 l 31.434 0.227 31.258 0.438 31.066 0.641 c 
27.211 4.867 l 27.121 4.867 l 27.121 0.102 l 27.031 0.109 26.949 0.133 26.871
 0.133 c 26.781 0.133 26.699 0.109 26.621 0.102 c 26.621 6.152 l 26.969 
6.152 l 31.211 1.598 l 31.301 1.598 l 31.301 6.152 l 31.383 6.145 31.461
 6.121 31.551 6.121 c 31.633 6.121 31.711 6.145 31.801 6.152 c 31.801 0.102
 l f
33.371 6.152 m 33.496 6.145 33.629 6.121 33.762 6.121 c 33.887 6.121 34.012
 6.145 34.152 6.152 c 34.152 0.102 l 34.012 0.109 33.887 0.133 33.762 0.133
 c 33.629 0.133 33.496 0.109 33.371 0.102 c 33.371 6.152 l f
39.41 4.535 m 39.945 6.012 l 40.008 6.152 l 40.117 6.145 40.223 6.121 40.34
 6.121 c 40.438 6.121 40.543 6.145 40.66 6.152 c 40.375 5.613 38.398 1.086
 38.074 0.102 c 38.012 0.109 37.949 0.133 37.898 0.133 c 37.836 0.133 37.77
 0.109 37.707 0.102 c 36.688 2.18 35.383 5.402 34.988 6.152 c 35.125 6.145
 35.273 6.121 35.418 6.121 c 35.562 6.121 35.695 6.145 35.855 6.152 c 35.973
 5.879 36.078 5.586 36.188 5.293 c 36.785 3.746 l 37.887 1.066 l 37.969 
1.066 l 38.141 1.43 38.328 1.773 38.469 2.137 c 39.41 4.535 l f
42.312 3.52 m 43.695 3.52 l 43.965 3.52 44.223 3.555 44.492 3.562 c 44.484
 3.492 44.457 3.414 44.457 3.336 c 44.457 3.266 44.484 3.188 44.492 3.09
 c 44.223 3.098 43.965 3.133 43.695 3.133 c 42.312 3.133 l 42.312 0.543 
l 42.855 0.527 43.395 0.562 43.93 0.578 c 44.207 0.59 44.477 0.613 44.754
 0.66 c 44.746 0.562 44.727 0.48 44.727 0.395 c 44.727 0.309 44.746 0.219
 44.754 0.133 c 41.531 0.133 l 41.531 6.152 l 44.699 6.152 l 44.691 6.055
 44.664 5.977 44.664 5.891 c 44.664 5.801 44.691 5.715 44.699 5.625 c 44.43
 5.676 44.164 5.703 43.895 5.723 c 43 5.738 l 42.312 5.738 l 42.312 3.52
 l f
46.555 5.824 m 46.93 5.844 47.539 5.871 47.871 5.816 c 48.539 5.711 48.852
 5.312 48.852 4.707 c 48.852 4.02 48.359 3.578 47.707 3.445 c 47.254 3.355
 46.68 3.391 46.555 3.402 c h
45.773 0.102 m 45.898 0.109 46.031 0.133 46.164 0.133 c 46.289 0.133 46.414
 0.109 46.555 0.102 c 46.555 3.062 l 46.895 3.062 l 47.609 2.227 l 48.664
 0.871 l 48.852 0.625 49.031 0.375 49.227 0.102 c 49.387 0.109 49.566 0.133
 49.734 0.133 c 49.906 0.133 50.066 0.109 50.254 0.102 c 50.086 0.324 l 
49.656 0.82 l 47.816 3.133 l 48.719 3.293 49.645 3.789 49.645 4.812 c 49.645
 5.703 49.039 6.152 47.664 6.152 c 45.773 6.152 l 45.773 0.102 l f
51.094 1.301 m 51.441 0.734 51.844 0.383 52.543 0.383 c 53.266 0.383 53.789
 0.973 53.789 1.672 c 53.789 3.312 50.988 2.59 50.988 4.586 c 50.988 5.727
 51.895 6.285 52.973 6.285 c 53.402 6.285 53.922 6.152 54.254 5.859 c 54.145
 5.629 54.082 5.383 54.012 5.133 c 53.922 5.133 l 53.734 5.609 53.34 5.902
 52.809 5.902 c 52.191 5.902 51.68 5.496 51.68 4.867 c 51.68 3.242 54.504
 3.898 54.504 2.016 c 54.504 0.75 53.508 0 52.289 0 c 51.852 0 51.141 0.188
 50.836 0.512 c 50.926 0.77 50.973 1.035 51.008 1.301 c 51.094 1.301 l f
55.477 6.152 m 55.602 6.145 55.734 6.121 55.867 6.121 c 55.992 6.121 56.113
 6.145 56.258 6.152 c 56.258 0.102 l 56.113 0.109 55.992 0.133 55.867 0.133
 c 55.734 0.133 55.602 0.109 55.477 0.102 c 55.477 6.152 l f
59.793 0.086 m 59.648 0.094 59.523 0.121 59.402 0.121 c 59.27 0.121 59.137
 0.094 59.012 0.086 c 59.012 5.727 l 58.109 5.727 57.562 5.672 57.055 5.621
 c 57.062 5.711 57.086 5.797 57.086 5.887 c 57.086 5.973 57.062 6.055 57.055
 6.152 c 61.66 6.152 l 61.652 6.055 61.633 5.973 61.633 5.887 c 61.633 5.797
 61.652 5.711 61.66 5.621 c 61.215 5.672 60.586 5.727 59.793 5.727 c 59.793
 0.086 l f
65 0.102 m 64.855 0.109 64.734 0.133 64.609 0.133 c 64.477 0.133 64.344
 0.109 64.219 0.102 c 64.219 2.652 l 62.027 6.152 l 62.188 6.145 62.359 
6.121 62.527 6.121 c 62.68 6.121 62.84 6.145 63.02 6.152 c 63.371 5.473 
64.43 3.613 64.715 3.188 c 65.016 3.543 66.16 5.684 66.422 6.152 c 66.527
 6.145 66.652 6.121 66.77 6.121 c 66.879 6.121 66.992 6.145 67.117 6.152
 c 66.895 5.871 66.68 5.57 66.484 5.27 c 65.5 3.703 l 65.293 3.391 65.113
 3.066 65 2.816 c 65 0.102 l f
76.059 3.188 m 76.121 2.219 75.441 0.293 73.555 0.293 c 72.223 0.293 71.109
 1.23 71.109 3.023 c 71.109 4.816 72.059 5.992 73.633 5.992 c 74.352 5.992
 75.047 5.691 75.496 5.133 c 75.961 4.543 76.059 3.922 76.059 3.188 c h
73.527 0 m 75.523 0 76.938 1.289 76.938 3.262 c 76.938 5.383 75.227 6.285
 73.547 6.285 c 71.691 6.285 70.23 5.062 70.23 3.129 c 70.23 1.238 71.551
 0 73.527 0 c f
77.918 6.152 m 81.086 6.152 l 81.074 6.055 81.051 5.977 81.051 5.891 c 
81.051 5.801 81.074 5.715 81.086 5.625 c 80.816 5.676 80.547 5.703 80.281
 5.723 c 79.387 5.738 l 78.695 5.738 l 78.695 3.52 l 80.082 3.52 l 80.352
 3.52 80.609 3.555 80.879 3.562 c 80.871 3.492 80.844 3.414 80.844 3.336
 c 80.844 3.266 80.871 3.188 80.879 3.09 c 80.609 3.098 80.352 3.137 80.082
 3.137 c 78.695 3.137 l 78.695 0.105 l 78.555 0.113 78.43 0.129 78.309 0.129
 c 78.176 0.129 78.043 0.113 77.918 0.105 c 77.918 6.152 l f
90.605 0.102 m 90.336 0.102 l 90.238 0.227 90.059 0.438 89.875 0.641 c 
86.016 4.867 l 85.926 4.867 l 85.926 0.102 l 85.836 0.109 85.758 0.133 85.676
 0.133 c 85.586 0.133 85.508 0.109 85.426 0.102 c 85.426 6.152 l 85.773 
6.152 l 90.016 1.598 l 90.105 1.598 l 90.105 6.152 l 90.184 6.145 90.266
 6.121 90.355 6.121 c 90.434 6.121 90.516 6.145 90.605 6.152 c 90.605 0.102
 l f
92.719 3.52 m 94.105 3.52 l 94.375 3.52 94.633 3.555 94.902 3.562 c 94.891
 3.492 94.863 3.414 94.863 3.336 c 94.863 3.266 94.891 3.188 94.902 3.09
 c 94.633 3.098 94.375 3.133 94.105 3.133 c 92.719 3.133 l 92.719 0.543 
l 93.266 0.527 93.801 0.562 94.336 0.578 c 94.613 0.59 94.883 0.613 95.16
 0.66 c 95.152 0.562 95.137 0.48 95.137 0.395 c 95.137 0.309 95.152 0.219
 95.16 0.133 c 91.938 0.133 l 91.938 6.152 l 95.105 6.152 l 95.098 6.055
 95.07 5.977 95.07 5.891 c 95.07 5.801 95.098 5.715 95.105 5.625 c 94.84
 5.676 94.57 5.703 94.301 5.723 c 93.406 5.738 l 92.719 5.738 l 92.719 3.52
 l f
96.082 6.152 m 96.215 6.145 96.355 6.121 96.504 6.121 c 96.625 6.121 96.762
 6.145 96.91 6.152 c 97.012 5.852 97.09 5.535 97.18 5.215 c 97.711 3.418
 l 98.457 1.086 l 98.535 1.086 l 99.105 2.703 100.055 5.402 100.266 6.152
 c 100.348 6.145 100.438 6.121 100.527 6.121 c 100.609 6.121 100.688 6.145
 100.777 6.152 c 100.949 5.523 101.672 3.508 102.477 1.086 c 102.559 1.086
 l 102.691 1.418 102.809 1.758 102.918 2.094 c 103.961 5.426 l 104.18 6.152
 l 104.273 6.145 104.383 6.121 104.488 6.121 c 104.59 6.121 104.688 6.145
 104.805 6.152 c 104.641 5.789 104.488 5.41 104.355 5.02 c 102.648 0.102
 l 102.543 0.109 102.449 0.133 102.352 0.133 c 102.254 0.133 102.156 0.109
 102.059 0.102 c 101.949 0.445 101.004 3.332 100.438 5.066 c 100.367 5.066
 l 98.633 0.102 l 98.523 0.109 98.426 0.133 98.34 0.133 c 98.234 0.133 98.137
 0.109 98.039 0.102 c 97.914 0.508 97.809 0.891 97.68 1.27 c 96.082 6.152
 l f
108.621 1.301 m 108.969 0.734 109.367 0.383 110.066 0.383 c 110.793 0.383
 111.312 0.973 111.312 1.672 c 111.312 3.312 108.516 2.59 108.516 4.586 
c 108.516 5.727 109.422 6.285 110.496 6.285 c 110.926 6.285 111.445 6.152
 111.777 5.859 c 111.672 5.629 111.609 5.383 111.535 5.133 c 111.445 5.133
 l 111.258 5.609 110.863 5.902 110.336 5.902 c 109.719 5.902 109.207 5.496
 109.207 4.867 c 109.207 3.242 112.031 3.898 112.031 2.016 c 112.031 0.75
 111.035 0 109.816 0 c 109.379 0 108.668 0.188 108.363 0.512 c 108.453 0.77
 108.496 1.035 108.531 1.301 c 108.621 1.301 l f
118.625 3.188 m 118.688 2.219 118.008 0.293 116.117 0.293 c 114.785 0.293
 113.676 1.23 113.676 3.023 c 113.676 4.816 114.625 5.992 116.199 5.992 
c 116.914 5.992 117.613 5.691 118.059 5.133 c 118.523 4.543 118.625 3.922
 118.625 3.188 c h
116.094 0 m 118.09 0 119.504 1.289 119.504 3.262 c 119.504 5.383 117.793
 6.285 116.109 6.285 c 114.258 6.285 112.797 5.062 112.797 3.129 c 112.797
 1.238 114.113 0 116.094 0 c f
121.234 2.77 m 121.234 1.215 121.684 0.41 123.215 0.41 c 124.641 0.41 125.148
 1.426 125.148 2.855 c 125.148 6.152 l 125.23 6.145 125.312 6.121 125.398
 6.121 c 125.48 6.121 125.562 6.145 125.652 6.152 c 125.652 2.637 l 125.652
 0.887 124.613 0 123.035 0 c 122.148 0 121.559 0.207 121.094 0.621 c 120.535
 1.125 120.465 1.91 120.453 2.617 c 120.453 6.152 l 120.578 6.145 120.711
 6.121 120.848 6.121 c 120.969 6.121 121.094 6.145 121.234 6.152 c 121.234
 2.77 l f
129.324 0.086 m 129.184 0.094 129.059 0.121 128.938 0.121 c 128.805 0.121
 128.672 0.094 128.547 0.086 c 128.547 5.727 l 127.645 5.727 127.098 5.672
 126.59 5.621 c 126.598 5.711 126.621 5.797 126.621 5.887 c 126.621 5.973
 126.598 6.055 126.59 6.152 c 131.195 6.152 l 131.184 6.055 131.168 5.973
 131.168 5.887 c 131.168 5.797 131.184 5.711 131.195 5.621 c 130.75 5.672
 130.125 5.727 129.324 5.727 c 129.324 0.086 l f
136.742 6.152 m 136.867 6.145 137 6.121 137.133 6.121 c 137.258 6.121 137.379
 6.145 137.52 6.152 c 137.52 0.102 l 137.379 0.109 137.258 0.133 137.133
 0.133 c 137 0.133 136.867 0.109 136.742 0.102 c 136.742 3.152 l 136.105
 3.168 135.488 3.191 134.863 3.191 c 134.234 3.191 133.617 3.168 132.973
 3.152 c 132.973 0.102 l 132.832 0.109 132.707 0.133 132.582 0.133 c 132.449
 0.133 132.316 0.109 132.195 0.102 c 132.195 6.152 l 132.316 6.145 132.449
 6.121 132.582 6.121 c 132.707 6.121 132.832 6.145 132.973 6.152 c 132.973
 3.617 l 133.617 3.602 134.246 3.578 134.863 3.578 c 135.488 3.578 136.105
 3.602 136.742 3.617 c 136.742 6.152 l f
141.758 6.152 m 141.891 6.145 142.035 6.121 142.18 6.121 c 142.305 6.121
 142.438 6.145 142.59 6.152 c 142.688 5.852 142.766 5.535 142.859 5.215 
c 143.387 3.418 l 144.133 1.086 l 144.211 1.086 l 144.781 2.703 145.73 5.402
 145.945 6.152 c 146.027 6.145 146.117 6.121 146.207 6.121 c 146.285 6.121
 146.367 6.145 146.457 6.152 c 146.625 5.523 147.348 3.508 148.156 1.086
 c 148.234 1.086 l 148.371 1.418 148.484 1.758 148.594 2.094 c 149.641 5.426
 l 149.855 6.152 l 149.953 6.145 150.059 6.121 150.168 6.121 c 150.266 6.121
 150.363 6.145 150.48 6.152 c 150.32 5.789 150.168 5.41 150.031 5.02 c 148.324
 0.102 l 148.219 0.109 148.129 0.133 148.031 0.133 c 147.934 0.133 147.832
 0.109 147.734 0.102 c 147.629 0.445 146.68 3.332 146.117 5.066 c 146.043
 5.066 l 144.309 0.102 l 144.203 0.109 144.105 0.133 144.016 0.133 c 143.91
 0.133 143.812 0.109 143.715 0.102 c 143.59 0.508 143.484 0.891 143.359 
1.27 c 141.758 6.152 l f
153.617 2.867 m 151.652 2.867 l 152.625 5.129 l h
152.945 6.285 m 152.742 6.285 l 149.953 0.102 l 150.055 0.109 150.152 0.133
 150.266 0.133 c 150.375 0.133 150.473 0.109 150.598 0.102 c 150.848 0.934
 151.172 1.719 151.484 2.5 c 153.75 2.5 l 154.105 1.691 154.43 0.84 154.688
 0.102 c 154.84 0.109 154.992 0.133 155.164 0.133 c 155.312 0.133 155.457
 0.109 155.629 0.102 c 152.945 6.285 l f
157.531 0.543 m 158.078 0.527 158.613 0.562 159.148 0.578 c 159.438 0.59
 159.715 0.625 160 0.66 c 159.992 0.562 159.98 0.48 159.98 0.395 c 159.98
 0.309 159.992 0.219 160 0.133 c 156.754 0.133 l 156.754 6.152 l 156.875
 6.145 157.008 6.121 157.141 6.121 c 157.266 6.121 157.391 6.145 157.531
 6.152 c 157.531 0.543 l f
161.754 3.52 m 163.141 3.52 l 163.406 3.52 163.668 3.555 163.934 3.562 
c 163.926 3.492 163.898 3.414 163.898 3.336 c 163.898 3.266 163.926 3.188
 163.934 3.09 c 163.668 3.098 163.406 3.133 163.141 3.133 c 161.754 3.133
 l 161.754 0.543 l 162.301 0.527 162.836 0.562 163.371 0.578 c 163.648 0.59
 163.918 0.613 164.195 0.66 c 164.184 0.562 164.168 0.48 164.168 0.395 c
 164.168 0.309 164.184 0.219 164.195 0.133 c 160.973 0.133 l 160.973 6.152
 l 164.141 6.152 l 164.133 6.055 164.105 5.977 164.105 5.891 c 164.105 5.801
 164.133 5.715 164.141 5.625 c 163.871 5.676 163.602 5.703 163.336 5.723
 c 162.441 5.738 l 161.754 5.738 l 161.754 3.52 l f
165.316 1.301 m 165.66 0.734 166.062 0.383 166.762 0.383 c 167.484 0.383
 168.008 0.973 168.008 1.672 c 168.008 3.312 165.207 2.59 165.207 4.586 
c 165.207 5.727 166.113 6.285 167.191 6.285 c 167.621 6.285 168.141 6.152
 168.473 5.859 c 168.363 5.629 168.305 5.383 168.23 5.133 c 168.141 5.133
 l 167.953 5.609 167.559 5.902 167.027 5.902 c 166.41 5.902 165.898 5.496
 165.898 4.867 c 165.898 3.242 168.727 3.898 168.727 2.016 c 168.727 0.75
 167.73 0 166.512 0 c 166.07 0 165.359 0.188 165.055 0.512 c 165.145 0.77
 165.191 1.035 165.227 1.301 c 165.316 1.301 l f
Q Q
showpage
%%Trailer
%%EOF
