%!PS-Adobe-3.0
%%Creator: cairo 1.12.2 (http://cairographics.org)
%%CreationDate: Mon Aug  6 13:42:42 2012
%%Pages: 1
%%DocumentData: Clean7Bit
%%LanguageLevel: 3
%%DocumentMedia: 67x22mm 190 63 0 () ()
%%BoundingBox: 0 0 190 63
%%EndComments
%%BeginProlog
/languagelevel where
{ pop languagelevel } { 1 } ifelse
3 lt { /Helvetica findfont 12 scalefont setfont 50 500 moveto
  (This print job requires a PostScript Language Level 3 printer.) show
  showpage quit } if
/q { gsave } bind def
/Q { grestore } bind def
/cm { 6 array astore concat } bind def
/w { setlinewidth } bind def
/J { setlinecap } bind def
/j { setlinejoin } bind def
/M { setmiterlimit } bind def
/d { setdash } bind def
/m { moveto } bind def
/l { lineto } bind def
/c { curveto } bind def
/h { closepath } bind def
/re { exch dup neg 3 1 roll 5 3 roll moveto 0 rlineto
      0 exch rlineto 0 rlineto closepath } bind def
/S { stroke } bind def
/f { fill } bind def
/f* { eofill } bind def
/n { newpath } bind def
/W { clip } bind def
/W* { eoclip } bind def
/BT { } bind def
/ET { } bind def
/pdfmark where { pop globaldict /?pdfmark /exec load put }
    { globaldict begin /?pdfmark /pop load def /pdfmark
    /cleartomark load def end } ifelse
/BDC { mark 3 1 roll /BDC pdfmark } bind def
/EMC { mark /EMC pdfmark } bind def
/cairo_store_point { /cairo_point_y exch def /cairo_point_x exch def } def
/Tj { show currentpoint cairo_store_point } bind def
/TJ {
  {
    dup
    type /stringtype eq
    { show } { -0.001 mul 0 cairo_font_matrix dtransform rmoveto } ifelse
  } forall
  currentpoint cairo_store_point
} bind def
/cairo_selectfont { cairo_font_matrix aload pop pop pop 0 0 6 array astore
    cairo_font exch selectfont cairo_point_x cairo_point_y moveto } bind def
/Tf { pop /cairo_font exch def /cairo_font_matrix where
      { pop cairo_selectfont } if } bind def
/Td { matrix translate cairo_font_matrix matrix concatmatrix dup
      /cairo_font_matrix exch def dup 4 get exch 5 get cairo_store_point
      /cairo_font where { pop cairo_selectfont } if } bind def
/Tm { 2 copy 8 2 roll 6 array astore /cairo_font_matrix exch def
      cairo_store_point /cairo_font where { pop cairo_selectfont } if } bind def
/g { setgray } bind def
/rg { setrgbcolor } bind def
/d1 { setcachedevice } bind def
%%EndProlog
%%Page: 1 1
%%BeginPageSetup
%%PageMedia: 67x22mm
%%PageBoundingBox: 0 0 190 63
%%EndPageSetup
q 0 0 190 63 rectclip q
Q q
q
0 63 190 -63 re W n
  q
1 g
57.266 38.219 m 57.266 38.219 57.113 38.328 56.836 38.52 c 56.633 38.664
 l 55.824 39.234 54.379 40.258 52.352 41.332 c 55.277 45.137 55.711 47.5
 55.77 48.145 c 55.773 48.254 l 55.773 48.652 55.66 49.027 55.453 49.336
 c 55.109 49.863 54.535 50.203 53.914 50.234 c 53.891 50.234 53.188 50.27
 51.977 50.258 c 50.875 50.246 49.555 50.176 47.957 50.051 c 47.93 50.125
 47.93 50.219 47.93 50.375 c 47.93 50.406 l 47.93 52.445 47.801 54.023 47.723
 54.777 c 47.629 55.848 47.535 56.469 47.527 56.512 c 47.387 57.305 46.836
 57.809 46.074 57.832 c 45.852 57.832 45.637 57.789 45.426 57.703 c 45.426
 57.703 45.242 57.633 44.91 57.488 c 44.633 57.363 44.293 57.203 43.859 
56.996 c 43.012 56.59 41.898 56.055 40.531 55.492 c 39.988 57.973 39.352
 59.598 39.09 60.215 c 39.086 60.227 l 38.84 60.898 38.332 61.281 37.695
 61.281 c 37.609 61.281 37.527 61.273 37.441 61.262 c 37.227 61.234 37.023
 61.156 36.812 61.027 c 36.504 60.832 l 36.504 60.824 l 36.207 60.633 35.715
 60.301 35.082 59.844 c 34.258 59.254 33.352 58.555 32.461 57.816 c 32.098
 58.344 31.801 58.855 31.535 59.324 c 31.383 59.586 31.242 59.832 31.094
 60.066 c 30.922 60.348 30.766 60.602 30.629 60.824 c 30.484 61.051 30.363
 61.25 30.262 61.418 c 30.086 61.699 29.996 61.852 29.992 61.855 c 29.969
 61.895 l 29.68 62.328 29.309 62.574 28.945 62.574 c 28.871 62.57 l 28.523
 62.547 28.168 62.305 27.895 61.895 c 27.875 61.859 l 27.871 61.855 27.781
 61.699 27.594 61.406 c 27.52 61.277 27.418 61.125 27.305 60.953 c 27.148
 60.707 26.953 60.398 26.742 60.051 c 26.633 59.863 26.52 59.664 26.402 
59.457 c 26.117 58.953 25.801 58.395 25.398 57.812 c 24.496 58.559 23.594
 59.262 22.781 59.844 c 22.152 60.297 21.652 60.629 21.359 60.82 c 21.047
 61.023 l 20.832 61.156 20.629 61.234 20.418 61.258 c 19.672 61.371 19.051
 60.98 18.777 60.223 c 18.773 60.215 l 18.508 59.594 17.875 57.969 17.328
 55.488 c 15.953 56.059 14.828 56.598 13.977 57.004 c 13.574 57.199 13.223
 57.363 12.949 57.484 c 12.625 57.629 12.441 57.699 12.441 57.699 c 12.223
 57.785 12.012 57.832 11.789 57.832 c 11.77 57.832 l 11.027 57.805 10.477
 57.301 10.332 56.492 c 10.328 56.465 10.23 55.844 10.141 54.781 c 10.062
 54.023 9.934 52.441 9.934 50.402 c 9.934 50.375 l 9.934 50.215 9.934 50.121
 9.902 50.047 c 8.305 50.176 6.988 50.242 5.883 50.258 c 4.684 50.27 3.973
 50.234 3.941 50.23 c 3.324 50.199 2.75 49.859 2.414 49.344 c 2.199 49.027
 2.086 48.652 2.086 48.254 c 2.09 48.145 l 2.152 47.5 2.578 45.141 5.508
 41.328 c 3.477 40.25 2.031 39.227 1.219 38.652 c 1.035 38.523 l 0.75 38.328
 0.602 38.219 0.598 38.219 c 0 37.777 0 37.09 0 36.633 c 0 36.242 0.109 
35.867 0.316 35.543 c 0.527 35.238 l 0.578 35.238 l 0.711 35.09 0.926 34.867
 1.227 34.621 c 1.352 34.516 l 1.91 34.039 2.605 33.453 4.105 32.777 c 6.32
 31.82 8.137 31.184 10.559 30.766 c 10.555 30.758 10.551 30.754 10.551 30.75
 c 10.242 30.402 10.129 29.922 10.211 29.289 c 10.215 29.258 l 10.598 27.023
 13.273 26.766 15.258 26.766 c 17.18 26.766 18.723 27.082 20.219 27.387 
c 21.797 27.711 23.434 28.047 25.629 28.047 c 26.328 28.047 27.031 28.016
 27.785 27.949 c 28.508 27.883 l 28.508 28.281 l 28.613 28.32 28.754 28.363
 28.934 28.418 c 29.109 28.367 29.25 28.32 29.355 28.281 c 29.355 27.887
 l 30.078 27.949 l 30.82 28.016 31.547 28.047 32.234 28.047 c 34.43 28.047
 36.062 27.715 37.645 27.391 c 39.137 27.086 40.68 26.77 42.605 26.77 c 
44.586 26.77 47.266 27.027 47.648 29.262 c 47.652 29.289 l 47.73 29.926 
47.621 30.402 47.312 30.754 c 47.309 30.758 47.305 30.762 47.301 30.766 
c 49.723 31.188 51.543 31.824 53.77 32.781 c 55.258 33.457 55.953 34.043
 56.516 34.52 c 56.633 34.621 l 56.945 34.879 57.156 35.094 57.285 35.242
 c 57.348 35.242 l 57.547 35.547 l 57.754 35.867 57.859 36.246 57.859 36.633
 c 57.859 37.09 57.859 37.781 57.266 38.219 c f
0.12549 0.215686 0.490196 rg
52.094 25.203 m 49.59 14.438 l 46.961 25.203 l 43.344 25.203 l 40.668 14.559
 l 38.242 25.203 l 34.289 25.203 l 38.66 8.395 l 42.551 8.395 l 45.117 19.027
 l 47.727 8.395 l 51.547 8.395 l 51.586 8.535 l 55.988 25.203 l h
15.852 14.461 m 6.703 25.203 l 2.828 25.203 l 2.828 8.391 l 6.602 8.391
 l 6.602 19.109 l 15.723 8.391 l 19.625 8.391 l 19.625 25.203 l 15.852 25.203
 l 15.852 14.461 l f
2.426 3.234 m 2.426 3.246 l 2.426 4.707 3.539 5.938 5.109 5.938 c 6.016
 5.938 6.574 5.688 7.109 5.234 c 6.531 4.543 l 6.125 4.883 5.734 5.098 5.074
 5.098 c 4.113 5.098 3.387 4.262 3.387 3.262 c 3.387 3.246 l 3.387 2.18 
4.09 1.391 5.156 1.391 c 5.645 1.391 6.09 1.547 6.41 1.785 c 6.41 2.758 
l 5.078 2.758 l 5.078 3.555 l 7.297 3.555 l 7.297 1.367 l 6.781 0.93 6.047
 0.559 5.125 0.559 c 3.496 0.559 2.426 1.719 2.426 3.234 c f
12.332 3.234 m 12.332 3.246 l 12.332 4.262 11.594 5.098 10.559 5.098 c 
9.527 5.098 8.809 4.273 8.809 3.262 c 8.809 3.246 l 8.809 2.234 9.543 1.398
 10.578 1.398 c 11.609 1.398 12.332 2.223 12.332 3.234 c 7.848 3.234 m 7.848
 3.246 l 7.848 4.715 8.98 5.938 10.578 5.938 c 12.176 5.938 13.289 4.727
 13.289 3.262 c 13.289 3.246 l 13.289 1.785 12.16 0.559 10.559 0.559 c 8.961
 0.559 7.848 1.77 7.848 3.234 c f
13.223 5.852 m 14.234 5.852 l 15.801 1.852 l 17.363 5.852 l 18.352 5.852
 l 16.191 0.609 l 15.387 0.609 l 13.223 5.852 l f
18.969 5.852 m 22.828 5.852 l 22.828 5.031 l 19.883 5.031 l 19.883 3.68
 l 22.492 3.68 l 22.492 2.859 l 19.883 2.859 l 19.883 1.465 l 22.867 1.465
 l 22.867 0.648 l 18.969 0.648 l 18.969 5.852 l f
26.008 3.27 m 26.66 3.27 27.078 3.613 27.078 4.141 c 27.078 4.156 l 27.078
 4.715 26.676 5.02 25.996 5.02 c 24.668 5.02 l 24.668 3.27 l h
23.754 5.852 m 26.074 5.852 l 26.727 5.852 27.238 5.656 27.574 5.332 c 
27.848 5.047 28.004 4.66 28.004 4.207 c 28.004 4.191 l 28.004 3.336 27.492
 2.824 26.766 2.617 c 28.168 0.648 l 27.09 0.648 l 25.812 2.461 l 24.668
 2.461 l 24.668 0.648 l 23.754 0.648 l 23.754 5.852 l f
28.812 5.852 m 29.656 5.852 l 32.445 2.254 l 32.445 5.852 l 33.344 5.852
 l 33.344 0.648 l 32.578 0.648 l 29.711 4.352 l 29.711 0.648 l 28.812 0.648
 l 28.812 5.852 l f
34.273 5.852 m 35.246 5.852 l 36.832 3.391 l 38.414 5.852 l 39.391 5.852
 l 39.391 0.648 l 38.473 0.648 l 38.473 4.379 l 36.832 1.926 l 36.801 1.926
 l 35.176 4.363 l 35.176 0.648 l 34.273 0.648 l 34.273 5.852 l f
40.262 5.852 m 44.117 5.852 l 44.117 5.031 l 41.176 5.031 l 41.176 3.68
 l 43.785 3.68 l 43.785 2.859 l 41.176 2.859 l 41.176 1.465 l 44.156 1.465
 l 44.156 0.648 l 40.262 0.648 l 40.262 5.852 l f
45.055 5.852 m 45.906 5.852 l 48.691 2.254 l 48.691 5.852 l 49.594 5.852
 l 49.594 0.648 l 48.828 0.648 l 45.957 4.352 l 45.957 0.648 l 45.055 0.648
 l 45.055 5.852 l f
51.969 5.004 m 50.316 5.004 l 50.316 5.852 l 54.539 5.852 l 54.539 5.004
 l 52.891 5.004 l 52.891 0.648 l 51.969 0.648 l 51.969 5.004 l f
20.664 10.73 m 22.883 13.391 l 24.422 12.121 26.031 11.316 27.984 11.316
 c 29.523 11.316 30.449 11.926 30.449 12.926 c 30.449 12.977 l 30.449 13.93
 29.863 14.418 27.008 15.148 c 23.566 16.027 21.348 16.977 21.348 20.371
 c 21.348 20.418 l 21.348 23.516 23.836 25.566 27.328 25.566 c 29.816 25.566
 31.938 24.785 33.672 23.395 c 31.719 20.566 l 30.207 21.613 28.719 22.25
 27.277 22.25 c 25.836 22.25 25.082 21.59 25.082 20.762 c 25.082 20.711 
l 25.082 19.59 25.812 19.223 28.766 18.465 c 32.23 17.562 34.184 16.32 34.184
 13.344 c 34.184 13.293 l 34.184 9.902 31.598 8 27.91 8 c 25.324 8 22.715
 8.902 20.664 10.73 c f
  Q
Q
Q q
10 58 12 -27 re W n
11.816 57.113 m 11.465 57.102 11.254 56.895 11.176 56.484 c 11.176 56.484
 11.094 55.871 10.996 54.832 c 10.906 53.879 10.801 52.367 10.801 50.57 
c 10.801 46.523 11.332 40.773 13.848 36.363 c 15.781 33.004 18.516 31.109
 21.559 31.008 c 20.371 31.918 18.961 33.422 18.207 35.766 c 17.5 37.988
 17.141 40.617 17.141 43.578 c 17.141 47.664 17.824 51.168 18.031 52.145
 c 18.039 52.172 18.043 52.188 18.043 52.195 c 18.168 52.766 18.496 53.219
 18.934 53.449 c 15.828 55.441 13.156 56.613 12.637 56.836 c 12.328 56.977
 12.16 57.039 12.16 57.039 c 12.156 57.039 l 12.152 57.043 l 12.039 57.09
 11.926 57.113 11.816 57.113 c h
W n
q
10 58 12 -27 re W n
  q
q
11.816 57.113 m 11.465 57.102 11.254 56.895 11.176 56.484 c 11.176 56.484
 11.094 55.871 10.996 54.832 c 10.906 53.879 10.801 52.367 10.801 50.57 
c 10.801 46.523 11.332 40.773 13.848 36.363 c 15.781 33.004 18.516 31.109
 21.559 31.008 c 20.371 31.918 18.961 33.422 18.207 35.766 c 17.5 37.988
 17.141 40.617 17.141 43.578 c 17.141 47.664 17.824 51.168 18.031 52.145
 c 18.039 52.172 18.043 52.188 18.043 52.195 c 18.168 52.766 18.496 53.219
 18.934 53.449 c 15.828 55.441 13.156 56.613 12.637 56.836 c 12.328 56.977
 12.16 57.039 12.16 57.039 c 12.156 57.039 l 12.152 57.043 l 12.039 57.09
 11.926 57.113 11.816 57.113 c W n
[1.16678 0 0 -1.16678 1.24854 4.40616] concat
/CairoFunction
   << /FunctionType 2
      /Domain [ 0 1 ]
      /C0 [ 0.898039 0.0784314 0.235294 ]
      /C1 [ 0.72549 0.0666667 0.203922 ]
      /N 1
   >>
def
   << /ShadingType 3
      /ColorSpace /DeviceRGB
      /Coords [ 0 0 0 0 0 1 ]
      /Extend [ true true ]
      /Function CairoFunction
   >>
shfill
Q
  Q
Q
Q q
28 53 12 -23 re W n
38.285 52.387 m 38.207 52.387 38.121 52.352 38.023 52.277 c 38.02 52.273
 37.926 52.203 37.75 52.051 c 37.574 51.91 37.32 51.691 36.973 51.383 c 
36.508 50.969 35.559 50.09 34.453 48.875 c 32.699 46.922 30.379 43.848 29.273
 40.289 c 28.637 38.211 28.32 36.414 28.332 34.941 c 28.32 33.844 28.496
 32.914 28.852 32.176 c 29.188 31.457 29.703 30.945 30.426 30.613 c 30.73
 30.477 31.117 30.41 31.574 30.41 c 31.594 30.41 l 33.719 30.41 37.266 32.18
 38.488 36.125 c 39.148 38.25 39.48 40.758 39.48 43.578 c 39.48 47.082 38.973
 50.133 38.754 51.281 c 38.668 51.707 38.617 51.938 38.617 51.938 c 38.566
 52.137 38.469 52.387 38.285 52.387 c h
W n
q
28 53 12 -23 re W n
  q
q
38.285 52.387 m 38.207 52.387 38.121 52.352 38.023 52.277 c 38.02 52.273
 37.926 52.203 37.75 52.051 c 37.574 51.91 37.32 51.691 36.973 51.383 c 
36.508 50.969 35.559 50.09 34.453 48.875 c 32.699 46.922 30.379 43.848 29.273
 40.289 c 28.637 38.211 28.32 36.414 28.332 34.941 c 28.32 33.844 28.496
 32.914 28.852 32.176 c 29.188 31.457 29.703 30.945 30.426 30.613 c 30.73
 30.477 31.117 30.41 31.574 30.41 c 31.594 30.41 l 33.719 30.41 37.266 32.18
 38.488 36.125 c 39.148 38.25 39.48 40.758 39.48 43.578 c 39.48 47.082 38.973
 50.133 38.754 51.281 c 38.668 51.707 38.617 51.938 38.617 51.938 c 38.566
 52.137 38.469 52.387 38.285 52.387 c W n
[0.91402 0 0 -0.91402 3.39063 4.13985] concat
/CairoFunction
   << /FunctionType 2
      /Domain [ 0 1 ]
      /C0 [ 0.898039 0.0784314 0.235294 ]
      /C1 [ 0.72549 0.0666667 0.203922 ]
      /N 1
   >>
def
   << /ShadingType 3
      /ColorSpace /DeviceRGB
      /Coords [ 0 0 0 0 0 1 ]
      /Extend [ true true ]
      /Function CairoFunction
   >>
shfill
Q
  Q
Q
Q q
18 53 11 -23 re W n
19.586 52.387 m 19.402 52.387 19.289 52.141 19.227 51.93 c 19.219 51.891
 19.172 51.664 19.094 51.281 c 19.035 50.988 18.918 50.359 18.793 49.477
 c 18.594 48.09 18.355 45.945 18.355 43.578 c 18.355 40.711 18.691 38.207
 19.355 36.137 c 20.605 32.184 24.238 30.41 26.422 30.41 c 26.445 30.41 
l 26.906 30.41 27.309 30.48 27.645 30.625 c 27.824 30.699 27.996 30.793 
28.188 30.922 c 28.027 31.141 27.887 31.383 27.754 31.652 c 27.332 32.535
 27.117 33.609 27.102 34.941 c 27.117 36.578 27.461 38.496 28.121 40.645
 c 28.18 40.84 28.25 41.039 28.316 41.234 c 28.344 41.312 28.371 41.387 
28.398 41.465 c 26.078 47.227 20.754 51.57 20.152 52.047 c 19.961 52.199
 19.863 52.273 19.863 52.273 c 19.758 52.348 19.66 52.387 19.586 52.387 
c h
W n
q
18 53 11 -23 re W n
  q
q
19.586 52.387 m 19.402 52.387 19.289 52.141 19.227 51.93 c 19.219 51.891
 19.172 51.664 19.094 51.281 c 19.035 50.988 18.918 50.359 18.793 49.477
 c 18.594 48.09 18.355 45.945 18.355 43.578 c 18.355 40.711 18.691 38.207
 19.355 36.137 c 20.605 32.184 24.238 30.41 26.422 30.41 c 26.445 30.41 
l 26.906 30.41 27.309 30.48 27.645 30.625 c 27.824 30.699 27.996 30.793 
28.188 30.922 c 28.027 31.141 27.887 31.383 27.754 31.652 c 27.332 32.535
 27.117 33.609 27.102 34.941 c 27.117 36.578 27.461 38.496 28.121 40.645
 c 28.18 40.84 28.25 41.039 28.316 41.234 c 28.344 41.312 28.371 41.387 
28.398 41.465 c 26.078 47.227 20.754 51.57 20.152 52.047 c 19.961 52.199
 19.863 52.273 19.863 52.273 c 19.758 52.348 19.66 52.387 19.586 52.387 
c W n
[0.917586 0 0 -0.917586 2.26968 4.13985] concat
/CairoFunction
   << /FunctionType 2
      /Domain [ 0 1 ]
      /C0 [ 0.898039 0.0784314 0.235294 ]
      /C1 [ 0.72549 0.0666667 0.203922 ]
      /N 1
   >>
def
   << /ShadingType 3
      /ColorSpace /DeviceRGB
      /Coords [ 0 0 0 0 0 1 ]
      /Extend [ true true ]
      /Function CairoFunction
   >>
shfill
Q
  Q
Q
Q q
23 62 12 -19 re W n
28.918 61.816 m 28.789 61.816 28.656 61.715 28.523 61.512 c 28.52 61.508
 28.41 61.352 28.234 61.059 c 27.969 60.613 27.715 60.18 27.457 59.73 c 
26.883 58.715 26.012 57.07 25.113 55.023 c 24.496 53.625 23.938 52.172 23.445
 50.703 c 25.172 48.977 27.484 46.289 29.027 43.023 c 30.215 45.582 32.023
 48.129 34.402 50.602 c 32.777 55.531 30.496 59.551 29.59 61.059 c 29.395
 61.359 29.297 61.52 29.297 61.52 c 29.113 61.793 28.961 61.816 28.918 61.816
 c h
W n
q
23 62 12 -19 re W n
  q
q
28.918 61.816 m 28.789 61.816 28.656 61.715 28.523 61.512 c 28.52 61.508
 28.41 61.352 28.234 61.059 c 27.969 60.613 27.715 60.18 27.457 59.73 c 
26.883 58.715 26.012 57.07 25.113 55.023 c 24.496 53.625 23.938 52.172 23.445
 50.703 c 25.172 48.977 27.484 46.289 29.027 43.023 c 30.215 45.582 32.023
 48.129 34.402 50.602 c 32.777 55.531 30.496 59.551 29.59 61.059 c 29.395
 61.359 29.297 61.52 29.297 61.52 c 29.113 61.793 28.961 61.816 28.918 61.816
 c W n
[1.23601 0 0 -1.23601 2.89365 5.83492] concat
/CairoFunction
   << /FunctionType 2
      /Domain [ 0 1 ]
      /C0 [ 0.898039 0.0784314 0.235294 ]
      /C1 [ 0.72549 0.0666667 0.203922 ]
      /N 1
   >>
def
   << /ShadingType 3
      /ColorSpace /DeviceRGB
      /Coords [ 0 0 0 0 0 1 ]
      /Extend [ true true ]
      /Function CairoFunction
   >>
shfill
Q
  Q
Q
Q q
36 58 12 -27 re W n
45.992 57.113 m 45.926 57.113 45.812 57.102 45.672 57.043 c 45.668 57.039
 l 45.664 57.039 l 45.66 57.039 45.496 56.977 45.191 56.836 c 44.895 56.715
 44.5 56.531 44 56.297 c 43.828 56.215 l 42.293 55.473 40.797 54.645 39.387
 53.754 c 39.227 53.66 39.066 53.559 38.906 53.457 c 39.344 53.234 39.68
 52.773 39.801 52.203 c 39.805 52.188 39.809 52.172 39.816 52.145 c 40.023
 51.168 40.695 47.664 40.695 43.578 c 40.695 40.633 40.344 38.008 39.652
 35.77 c 38.91 33.414 37.531 31.914 36.371 31.012 c 39.375 31.152 42.066
 33.043 43.973 36.367 c 46.492 40.773 47.023 46.523 47.023 50.57 c 47.023
 52.004 46.957 53.441 46.828 54.844 c 46.73 55.875 46.648 56.484 46.645 
56.492 c 46.57 56.895 46.355 57.102 45.992 57.113 c h
W n
q
36 58 12 -27 re W n
  q
q
45.992 57.113 m 45.926 57.113 45.812 57.102 45.672 57.043 c 45.668 57.039
 l 45.664 57.039 l 45.66 57.039 45.496 56.977 45.191 56.836 c 44.895 56.715
 44.5 56.531 44 56.297 c 43.828 56.215 l 42.293 55.473 40.797 54.645 39.387
 53.754 c 39.227 53.66 39.066 53.559 38.906 53.457 c 39.344 53.234 39.68
 52.773 39.801 52.203 c 39.805 52.188 39.809 52.172 39.816 52.145 c 40.023
 51.168 40.695 47.664 40.695 43.578 c 40.695 40.633 40.344 38.008 39.652
 35.77 c 38.91 33.414 37.531 31.914 36.371 31.012 c 39.375 31.152 42.066
 33.043 43.973 36.367 c 46.492 40.773 47.023 46.523 47.023 50.57 c 47.023
 52.004 46.957 53.441 46.828 54.844 c 46.73 55.875 46.648 56.484 46.645 
56.492 c 46.57 56.895 46.355 57.102 45.992 57.113 c W n
[1.18492 0 0 -1.18492 4.54507 4.40635] concat
/CairoFunction
   << /FunctionType 2
      /Domain [ 0 1 ]
      /C0 [ 0.898039 0.0784314 0.235294 ]
      /C1 [ 0.72549 0.0666667 0.203922 ]
      /N 1
   >>
def
   << /ShadingType 3
      /ColorSpace /DeviceRGB
      /Coords [ 0 0 0 0 0 1 ]
      /Extend [ true true ]
      /Function CairoFunction
   >>
shfill
Q
  Q
Q
Q q
33 61 7 -9 re W n
37.664 60.535 m 37.625 60.535 37.586 60.531 37.543 60.527 c 37.535 60.527
 l 37.445 60.516 37.348 60.477 37.25 60.41 c 37.242 60.402 l 37.234 60.398
 36.574 59.996 35.559 59.266 c 34.992 58.859 34.098 58.191 33.004 57.285
 c 33.797 55.633 34.512 53.945 35.125 52.262 c 36.434 53.293 37.867 54.277
 39.496 55.258 c 39.035 57.594 38.508 59.332 38.301 59.98 c 38.293 60.004
 38.285 60.02 38.281 60.031 c 38.156 60.367 37.949 60.535 37.664 60.535 
c h
W n
q
33 61 7 -9 re W n
  q
q
37.664 60.535 m 37.625 60.535 37.586 60.531 37.543 60.527 c 37.535 60.527
 l 37.445 60.516 37.348 60.477 37.25 60.41 c 37.242 60.402 l 37.234 60.398
 36.574 59.996 35.559 59.266 c 34.992 58.859 34.098 58.191 33.004 57.285
 c 33.797 55.633 34.512 53.945 35.125 52.262 c 36.434 53.293 37.867 54.277
 39.496 55.258 c 39.035 57.594 38.508 59.332 38.301 59.98 c 38.293 60.004
 38.285 60.02 38.281 60.031 c 38.156 60.367 37.949 60.535 37.664 60.535 
c W n
[0.371881 0 0 -0.371881 3.62495 5.63995] concat
/CairoFunction
   << /FunctionType 2
      /Domain [ 0 1 ]
      /C0 [ 0.898039 0.0784314 0.235294 ]
      /C1 [ 0.72549 0.0666667 0.203922 ]
      /N 1
   >>
def
   << /ShadingType 3
      /ColorSpace /DeviceRGB
      /Coords [ 0 0 0 0 0 1 ]
      /Extend [ true true ]
      /Function CairoFunction
   >>
shfill
Q
  Q
Q
Q q
18 61 7 -9 re W n
20.16 60.535 m 19.875 60.535 19.668 60.367 19.539 60.031 c 19.535 60.02
 19.531 60.004 19.523 59.98 c 19.316 59.332 18.785 57.594 18.328 55.258 
c 19.957 54.277 21.391 53.293 22.699 52.262 c 23.281 53.895 23.992 55.582
 24.82 57.285 c 23.957 58.004 23.094 58.668 22.266 59.266 c 21.246 59.996
 20.59 60.398 20.582 60.402 c 20.574 60.41 l 20.477 60.477 20.383 60.516
 20.289 60.527 c 20.281 60.527 l 20.238 60.531 20.199 60.535 20.16 60.535
 c h
W n
q
18 61 7 -9 re W n
  q
q
20.16 60.535 m 19.875 60.535 19.668 60.367 19.539 60.031 c 19.535 60.02
 19.531 60.004 19.523 59.98 c 19.316 59.332 18.785 57.594 18.328 55.258 
c 19.957 54.277 21.391 53.293 22.699 52.262 c 23.281 53.895 23.992 55.582
 24.82 57.285 c 23.957 58.004 23.094 58.668 22.266 59.266 c 21.246 59.996
 20.59 60.398 20.582 60.402 c 20.574 60.41 l 20.477 60.477 20.383 60.516
 20.289 60.527 c 20.281 60.527 l 20.238 60.531 20.199 60.535 20.16 60.535
 c W n
[1.10743 0 0 -1.10743 1.71953 6.54961] concat
/CairoFunction
   << /FunctionType 2
      /Domain [ 0 1 ]
      /C0 [ 0.898039 0.0784314 0.235294 ]
      /C1 [ 0.72549 0.0666667 0.203922 ]
      /N 1
   >>
def
   << /ShadingType 3
      /ColorSpace /DeviceRGB
      /Coords [ 0 0 0 0 0 1 ]
      /Extend [ true true ]
      /Function CairoFunction
   >>
shfill
Q
  Q
Q
Q q
3 50 8 -8 re W n
5.461 49.602 m 4.582 49.602 4.07 49.574 4.062 49.574 c 3.719 49.555 3.395
 49.363 3.184 49.051 c 3.059 48.863 2.996 48.633 3.008 48.402 c 3.066 47.793
 3.473 45.594 6.102 42.281 c 7.445 42.949 8.781 43.535 10.078 44.027 c 9.809
 45.68 9.648 47.484 9.602 49.395 c 7.996 49.543 6.73 49.586 5.941 49.598
 c 5.77 49.598 5.613 49.602 5.461 49.602 c h
W n
q
3 50 8 -8 re W n
  q
q
5.461 49.602 m 4.582 49.602 4.07 49.574 4.062 49.574 c 3.719 49.555 3.395
 49.363 3.184 49.051 c 3.059 48.863 2.996 48.633 3.008 48.402 c 3.066 47.793
 3.473 45.594 6.102 42.281 c 7.445 42.949 8.781 43.535 10.078 44.027 c 9.809
 45.68 9.648 47.484 9.602 49.395 c 7.996 49.543 6.73 49.586 5.941 49.598
 c 5.77 49.598 5.613 49.602 5.461 49.602 c W n
[1.05947 0 0 -1.05947 -0.173828 5.14927] concat
/CairoFunction
   << /FunctionType 2
      /Domain [ 0 1 ]
      /C0 [ 0.898039 0.0784314 0.235294 ]
      /C1 [ 0.72549 0.0666667 0.203922 ]
      /N 1
   >>
def
   << /ShadingType 3
      /ColorSpace /DeviceRGB
      /Coords [ 0 0 0 0 0 1 ]
      /Extend [ true true ]
      /Function CairoFunction
   >>
shfill
Q
  Q
Q
Q q
47 50 8 -8 re W n
52.355 49.602 m 52.207 49.602 52.051 49.598 51.883 49.598 c 51.094 49.586
 49.828 49.543 48.219 49.395 c 48.176 47.555 48.016 45.75 47.746 44.027 
c 49.039 43.535 50.379 42.949 51.723 42.281 c 54.355 45.602 54.758 47.805
 54.82 48.406 c 54.84 48.613 54.727 48.926 54.641 49.051 c 54.426 49.363
 54.105 49.555 53.758 49.574 c 53.754 49.574 53.234 49.602 52.355 49.602
 c h
W n
q
47 50 8 -8 re W n
  q
q
52.355 49.602 m 52.207 49.602 52.051 49.598 51.883 49.598 c 51.094 49.586
 49.828 49.543 48.219 49.395 c 48.176 47.555 48.016 45.75 47.746 44.027 
c 49.039 43.535 50.379 42.949 51.723 42.281 c 54.355 45.602 54.758 47.805
 54.82 48.406 c 54.84 48.613 54.727 48.926 54.641 49.051 c 54.426 49.363
 54.105 49.555 53.758 49.574 c 53.754 49.574 53.234 49.602 52.355 49.602
 c W n
[1.06088 0 0 -1.06088 5.95669 5.15215] concat
/CairoFunction
   << /FunctionType 2
      /Domain [ 0 1 ]
      /C0 [ 0.898039 0.0784314 0.235294 ]
      /C1 [ 0.72549 0.0666667 0.203922 ]
      /N 1
   >>
def
   << /ShadingType 3
      /ColorSpace /DeviceRGB
      /Coords [ 0 0 0 0 0 1 ]
      /Extend [ true true ]
      /Function CairoFunction
   >>
shfill
Q
  Q
Q
Q q
40 43 18 -12 re W n
47.527 42.801 m 46.984 40.09 46.145 37.723 45.023 35.758 c 43.852 33.703
 42.391 32.145 40.664 31.113 c 53.168 31.793 56.699 35.816 57.066 36.281
 c 57.066 36.285 l 57.191 36.473 57.254 36.68 57.254 36.902 c 57.254 37.262
 57.086 37.613 56.809 37.812 c 56.809 37.812 56.664 37.91 56.402 38.09 c
 56.395 38.098 l 56.199 38.246 55.91 38.434 55.547 38.672 c 55.453 38.734
 55.352 38.801 55.246 38.867 c 54.352 39.441 52.91 40.316 51.148 41.199 
c 49.926 41.812 48.711 42.352 47.527 42.801 c h
W n
q
40 43 18 -12 re W n
  q
q
47.527 42.801 m 46.984 40.09 46.145 37.723 45.023 35.758 c 43.852 33.703
 42.391 32.145 40.664 31.113 c 53.168 31.793 56.699 35.816 57.066 36.281
 c 57.066 36.285 l 57.191 36.473 57.254 36.68 57.254 36.902 c 57.254 37.262
 57.086 37.613 56.809 37.812 c 56.809 37.812 56.664 37.91 56.402 38.09 c
 56.395 38.098 l 56.199 38.246 55.91 38.434 55.547 38.672 c 55.453 38.734
 55.352 38.801 55.246 38.867 c 54.352 39.441 52.91 40.316 51.148 41.199 
c 49.926 41.812 48.711 42.352 47.527 42.801 c W n
[1.09958 0 0 -1.09958 5.39346 3.61602] concat
/CairoFunction
   << /FunctionType 2
      /Domain [ 0 1 ]
      /C0 [ 0.898039 0.0784314 0.235294 ]
      /C1 [ 0.72549 0.0666667 0.203922 ]
      /N 1
   >>
def
   << /ShadingType 3
      /ColorSpace /DeviceRGB
      /Coords [ 0 0 0 0 0 1 ]
      /Extend [ true true ]
      /Function CairoFunction
   >>
shfill
Q
  Q
Q
Q q
0 43 18 -12 re W n
10.297 42.801 m 6.082 41.203 2.688 38.98 1.41 38.094 c 1.156 37.91 1.012
 37.812 1.008 37.809 c 0.738 37.613 0.57 37.262 0.57 36.902 c 0.57 36.68
 0.633 36.473 0.754 36.285 c 0.766 36.273 0.77 36.262 0.777 36.254 c 0.801
 36.227 0.828 36.195 0.859 36.156 c 0.875 36.141 0.891 36.121 0.906 36.098
 c 0.996 36.004 1.195 35.797 1.508 35.535 c 2.035 35.082 2.98 34.406 4.5
 33.719 c 7.648 32.293 12.016 31.391 17.16 31.102 c 15.457 32.129 13.957
 33.727 12.801 35.758 c 11.676 37.723 10.836 40.094 10.297 42.801 c h
W n
q
0 43 18 -12 re W n
  q
q
10.297 42.801 m 6.082 41.203 2.688 38.98 1.41 38.094 c 1.156 37.91 1.012
 37.812 1.008 37.809 c 0.738 37.613 0.57 37.262 0.57 36.902 c 0.57 36.68
 0.633 36.473 0.754 36.285 c 0.766 36.273 0.77 36.262 0.777 36.254 c 0.801
 36.227 0.828 36.195 0.859 36.156 c 0.875 36.141 0.891 36.121 0.906 36.098
 c 0.996 36.004 1.195 35.797 1.508 35.535 c 2.035 35.082 2.98 34.406 4.5
 33.719 c 7.648 32.293 12.016 31.391 17.16 31.102 c 15.457 32.129 13.957
 33.727 12.801 35.758 c 11.676 37.723 10.836 40.094 10.297 42.801 c W n
[0.717717 0 0 -0.717717 0.886426 3.69522] concat
/CairoFunction
   << /FunctionType 2
      /Domain [ 0 1 ]
      /C0 [ 0.898039 0.0784314 0.235294 ]
      /C1 [ 0.72549 0.0666667 0.203922 ]
      /N 1
   >>
def
   << /ShadingType 3
      /ColorSpace /DeviceRGB
      /Coords [ 0 0 0 0 0 1 ]
      /Extend [ true true ]
      /Function CairoFunction
   >>
shfill
Q
  Q
Q
Q q
30 31 18 -4 re W n
45.957 30.199 m 45.316 30.199 44.367 30.07 42.934 29.871 c 42.723 29.84
 42.5 29.812 42.27 29.777 c 41.641 29.691 40.875 29.648 39.859 29.648 c 
39.238 29.648 38.594 29.664 37.914 29.68 c 37.852 29.68 l 37.203 29.695 
36.469 29.711 35.73 29.711 c 34.199 29.711 32.219 29.648 30.473 29.164 c
 30.387 29.137 30.324 29.043 30.332 28.98 c 30.34 28.926 30.449 28.906 30.539
 28.906 c 30.566 28.906 30.594 28.906 30.621 28.91 c 31.312 28.969 31.98
 29 32.613 29 c 34.891 29 36.449 28.609 37.953 28.227 c 39.367 27.871 40.703
 27.535 42.562 27.535 c 44.543 27.535 46.109 27.953 46.758 28.66 c 46.973
 28.898 47.07 29.156 47.047 29.434 c 46.992 29.961 46.824 30.199 45.957 
30.199 c h
W n
q
30 31 18 -4 re W n
  q
q
45.957 30.199 m 45.316 30.199 44.367 30.07 42.934 29.871 c 42.723 29.84
 42.5 29.812 42.27 29.777 c 41.641 29.691 40.875 29.648 39.859 29.648 c 
39.238 29.648 38.594 29.664 37.914 29.68 c 37.852 29.68 l 37.203 29.695 
36.469 29.711 35.73 29.711 c 34.199 29.711 32.219 29.648 30.473 29.164 c
 30.387 29.137 30.324 29.043 30.332 28.98 c 30.34 28.926 30.449 28.906 30.539
 28.906 c 30.566 28.906 30.594 28.906 30.621 28.91 c 31.312 28.969 31.98
 29 32.613 29 c 34.891 29 36.449 28.609 37.953 28.227 c 39.367 27.871 40.703
 27.535 42.562 27.535 c 44.543 27.535 46.109 27.953 46.758 28.66 c 46.973
 28.898 47.07 29.156 47.047 29.434 c 46.992 29.961 46.824 30.199 45.957 
30.199 c W n
[0.53915 0 0 -0.53915 3.86675 2.90987] concat
/CairoFunction
   << /FunctionType 2
      /Domain [ 0 1 ]
      /C0 [ 0.898039 0.0784314 0.235294 ]
      /C1 [ 0.72549 0.0666667 0.203922 ]
      /N 1
   >>
def
   << /ShadingType 3
      /ColorSpace /DeviceRGB
      /Coords [ 0 0 0 0 0 1 ]
      /Extend [ true true ]
      /Function CairoFunction
   >>
shfill
Q
  Q
Q
Q q
10 31 18 -4 re W n
11.859 30.199 m 10.996 30.199 10.828 29.961 10.777 29.43 c 10.75 29.16 
10.844 28.902 11.059 28.668 c 11.691 27.969 13.301 27.535 15.262 27.535 
c 17.117 27.535 18.457 27.871 19.871 28.227 c 21.379 28.609 22.93 29 25.211
 29 c 25.844 29 26.512 28.969 27.203 28.91 c 27.23 28.906 27.262 28.906 
27.285 28.906 c 27.375 28.906 27.484 28.926 27.492 28.98 c 27.5 29.043 27.438
 29.137 27.348 29.164 c 25.605 29.648 23.621 29.711 22.094 29.711 c 22.09
 29.711 l 21.355 29.711 20.617 29.695 19.969 29.68 c 19.91 29.68 l 19.227
 29.664 18.586 29.648 17.965 29.648 c 16.949 29.648 16.184 29.691 15.555
 29.777 c 15.316 29.812 15.09 29.844 14.871 29.871 c 13.441 30.07 12.496
 30.199 11.859 30.199 c h
W n
q
10 31 18 -4 re W n
  q
q
11.859 30.199 m 10.996 30.199 10.828 29.961 10.777 29.43 c 10.75 29.16 
10.844 28.902 11.059 28.668 c 11.691 27.969 13.301 27.535 15.262 27.535 
c 17.117 27.535 18.457 27.871 19.871 28.227 c 21.379 28.609 22.93 29 25.211
 29 c 25.844 29 26.512 28.969 27.203 28.91 c 27.23 28.906 27.262 28.906 
27.285 28.906 c 27.375 28.906 27.484 28.926 27.492 28.98 c 27.5 29.043 27.438
 29.137 27.348 29.164 c 25.605 29.648 23.621 29.711 22.094 29.711 c 22.09
 29.711 l 21.355 29.711 20.617 29.695 19.969 29.68 c 19.91 29.68 l 19.227
 29.664 18.586 29.648 17.965 29.648 c 16.949 29.648 16.184 29.691 15.555
 29.777 c 15.316 29.812 15.09 29.844 14.871 29.871 c 13.441 30.07 12.496
 30.199 11.859 30.199 c W n
[0.539212 0 0 -0.539212 1.91045 2.90987] concat
/CairoFunction
   << /FunctionType 2
      /Domain [ 0 1 ]
      /C0 [ 0.898039 0.0784314 0.235294 ]
      /C1 [ 0.72549 0.0666667 0.203922 ]
      /N 1
   >>
def
   << /ShadingType 3
      /ColorSpace /DeviceRGB
      /Coords [ 0 0 0 0 0 1 ]
      /Extend [ true true ]
      /Function CairoFunction
   >>
shfill
Q
  Q
Q
Q q
q
0 63 190 -63 re W n
  q
0.12549 0.215686 0.490196 rg
1.112 w
1 J
1 j
[] 0.0 d
4 M q 1 0 0 1 0 63 cm
65.699 -5.734 m 65.699 -62.445 l S Q
80.859 33.844 m 76.078 33.844 l 76.078 36.301 l 88.316 36.301 l 88.316 
33.844 l 83.531 33.844 l 83.531 21.219 l 80.859 21.219 l 80.859 33.844 l
 f
88.707 32.594 m 91.312 32.594 l 91.312 30.031 l 92.023 31.734 93.34 32.898
 95.344 32.809 c 95.344 30.051 l 95.191 30.051 l 92.906 30.051 91.312 28.566
 91.312 25.551 c 91.312 21.219 l 88.707 21.219 l 88.707 32.594 l f
103.555 25.312 m 103.555 26.09 l 102.887 26.348 102.004 26.539 100.969 
26.539 c 99.285 26.539 98.297 25.828 98.297 24.645 c 98.297 24.602 l 98.297
 23.504 99.266 22.879 100.516 22.879 c 102.238 22.879 103.555 23.867 103.555
 25.312 c h
95.754 24.492 m 95.754 24.535 l 95.754 26.992 97.672 28.199 100.449 28.199
 c 101.723 28.199 102.629 28.008 103.512 27.727 c 103.512 28.008 l 103.512
 29.621 102.52 30.484 100.688 30.484 c 99.414 30.484 98.469 30.203 97.434
 29.773 c 96.742 31.82 l 97.992 32.379 99.223 32.746 101.031 32.746 c 102.734
 32.746 104.008 32.293 104.805 31.473 c 105.645 30.656 106.031 29.449 106.031
 27.965 c 106.031 21.219 l 103.488 21.219 l 103.488 22.641 l 102.715 21.715
 101.527 20.98 99.781 20.98 c 97.648 20.98 95.754 22.211 95.754 24.492 c
 f
117.215 26.887 m 117.215 26.93 l 117.215 29.125 115.664 30.57 113.918 30.57
 c 112.129 30.57 110.645 29.191 110.645 26.93 c 110.645 26.887 l 110.645
 24.688 112.152 23.242 113.918 23.242 c 115.664 23.242 117.215 24.711 117.215
 26.887 c h
108.016 26.887 m 108.016 26.93 l 108.016 30.699 110.578 32.832 113.293 
32.832 c 115.168 32.832 116.352 31.906 117.172 30.828 c 117.172 36.945 l
 119.777 36.945 l 119.777 21.219 l 117.172 21.219 l 117.172 23.113 l 116.332
 21.93 115.145 20.98 113.293 20.98 c 110.621 20.98 108.016 23.113 108.016
 26.887 c f
130.293 27.703 m 130.121 29.387 129.133 30.699 127.406 30.699 c 125.812
 30.699 124.691 29.469 124.453 27.703 c h
121.871 26.863 m 121.871 26.906 l 121.871 30.16 124.176 32.832 127.43 32.832
 c 131.051 32.832 132.879 29.988 132.879 26.715 c 132.879 26.477 132.859
 26.238 132.836 25.98 c 124.477 25.98 l 124.758 24.129 126.07 23.094 127.754
 23.094 c 129.023 23.094 129.93 23.566 130.832 24.449 c 132.363 23.094 l
 131.285 21.801 129.801 20.961 127.711 20.961 c 124.41 20.961 121.871 23.352
 121.871 26.863 c f
148.609 33.199 m 148.609 33.242 l 148.609 34.578 147.578 35.609 146.219
 35.609 c 144.691 35.609 143.613 34.535 143.613 33.176 c 143.613 33.133 
l 143.613 32.184 144.023 31.453 145.359 30.031 c 147.512 30.719 148.609 
31.777 148.609 33.199 c h
149.301 24.344 m 144.84 28.953 l 142.449 28.137 141.395 26.734 141.395 
25.27 c 141.395 25.227 l 141.395 23.395 142.859 21.973 144.93 21.973 c 146.605
 21.973 148.051 22.879 149.301 24.344 c h
150.012 23.609 m 148.59 21.953 146.93 21.004 144.906 21.004 c 142.258 21.004
 140.273 22.727 140.273 25.184 c 140.273 25.227 l 140.273 27.254 141.719
 28.738 144.172 29.645 c 143.031 30.914 142.492 31.84 142.492 33.09 c 142.492
 33.133 l 142.492 35.074 144.066 36.559 146.262 36.559 c 148.223 36.559 
149.73 35.094 149.73 33.285 c 149.73 33.242 l 149.73 31.367 148.332 30.141
 146.027 29.344 c 149.988 25.27 l 150.723 26.305 151.367 27.551 151.949 
28.93 c 152.965 28.523 l 152.273 26.973 151.543 25.613 150.723 24.516 c 
153.504 21.648 l 152.617 20.918 l 150.012 23.609 l f
77.305 15.949 2.652 -15.082 re f
83.125 12.242 m 85.73 12.242 l 85.73 10.496 l 86.465 11.555 87.52 12.48
 89.285 12.48 c 91.852 12.48 93.336 10.758 93.336 8.129 c 93.336 0.867 l
 90.73 0.867 l 90.73 7.332 l 90.73 9.098 89.848 10.109 88.297 10.109 c 86.785
 10.109 85.73 9.055 85.73 7.289 c 85.73 0.867 l 83.125 0.867 l 83.125 12.242
 l f
94.418 12.242 m 97.219 12.242 l 100.277 3.883 l 103.359 12.242 l 106.098
 12.242 l 101.441 0.781 l 99.094 0.781 l 94.418 12.242 l f
114.906 7.352 m 114.734 9.031 113.746 10.348 112.02 10.348 c 110.426 10.348
 109.309 9.117 109.07 7.352 c h
106.484 6.512 m 106.484 6.555 l 106.484 9.809 108.789 12.48 112.043 12.48
 c 115.664 12.48 117.492 9.637 117.492 6.363 c 117.492 6.125 117.473 5.887
 117.449 5.629 c 109.094 5.629 l 109.371 3.773 110.688 2.742 112.367 2.742
 c 113.637 2.742 114.543 3.215 115.445 4.098 c 116.977 2.742 l 115.898 1.449
 114.414 0.609 112.324 0.609 c 109.027 0.609 106.484 3 106.484 6.512 c f
118.637 2.355 m 119.801 4.121 l 121.051 3.195 122.363 2.719 123.527 2.719
 c 124.648 2.719 125.297 3.195 125.297 3.949 c 125.297 3.992 l 125.297 4.875
 124.09 5.176 122.754 5.586 c 121.07 6.059 119.199 6.75 119.199 8.926 c 
119.199 8.969 l 119.199 11.121 120.984 12.438 123.246 12.438 c 124.672 12.438
 126.223 11.941 127.43 11.145 c 126.395 9.293 l 125.297 9.957 124.133 10.367
 123.184 10.367 c 122.172 10.367 121.59 9.895 121.59 9.25 c 121.59 9.207
 l 121.59 8.363 122.816 8.02 124.152 7.59 c 125.812 7.074 127.688 6.32 127.688
 4.27 c 127.688 4.23 l 127.688 1.836 125.836 0.652 123.465 0.652 c 121.848
 0.652 120.059 1.234 118.637 2.355 c f
130.121 4.012 m 130.121 10.004 l 128.68 10.004 l 128.68 12.242 l 130.121
 12.242 l 130.121 15.367 l 132.73 15.367 l 132.73 12.242 l 135.789 12.242
 l 135.789 10.004 l 132.73 10.004 l 132.73 4.422 l 132.73 3.41 133.246 3
 134.129 3 c 134.711 3 135.23 3.129 135.746 3.387 c 135.746 1.254 l 135.102
 0.891 134.391 0.672 133.398 0.672 c 131.48 0.672 130.121 1.512 130.121 
4.012 c f
137.883 12.242 m 140.488 12.242 l 140.488 10.52 l 141.219 11.531 142.211
 12.48 143.957 12.48 c 145.594 12.48 146.758 11.684 147.359 10.477 c 148.266
 11.684 149.473 12.48 151.195 12.48 c 153.676 12.48 155.184 10.906 155.184
 8.129 c 155.184 0.867 l 152.574 0.867 l 152.574 7.332 l 152.574 9.141 151.734
 10.109 150.27 10.109 c 148.848 10.109 147.836 9.117 147.836 7.289 c 147.836
 0.867 l 145.227 0.867 l 145.227 7.352 l 145.227 9.117 144.367 10.109 142.922
 10.109 c 141.48 10.109 140.488 9.031 140.488 7.289 c 140.488 0.867 l 137.883
 0.867 l 137.883 12.242 l f
165.59 7.352 m 165.418 9.031 164.43 10.348 162.703 10.348 c 161.109 10.348
 159.988 9.117 159.754 7.352 c h
157.168 6.512 m 157.168 6.555 l 157.168 9.809 159.473 12.48 162.727 12.48
 c 166.348 12.48 168.176 9.637 168.176 6.363 c 168.176 6.125 168.156 5.887
 168.133 5.629 c 159.773 5.629 l 160.055 3.773 161.367 2.742 163.051 2.742
 c 164.32 2.742 165.227 3.215 166.129 4.098 c 167.66 2.742 l 166.582 1.449
 165.098 0.609 163.008 0.609 c 159.711 0.609 157.168 3 157.168 6.512 c f
170.246 12.242 m 172.855 12.242 l 172.855 10.496 l 173.586 11.555 174.645
 12.48 176.41 12.48 c 178.973 12.48 180.461 10.758 180.461 8.129 c 180.461
 0.867 l 177.852 0.867 l 177.852 7.332 l 177.852 9.098 176.969 10.109 175.418
 10.109 c 173.91 10.109 172.855 9.055 172.855 7.289 c 172.855 0.867 l 170.246
 0.867 l 170.246 12.242 l f
183.586 4.012 m 183.586 10.004 l 182.141 10.004 l 182.141 12.242 l 183.586
 12.242 l 183.586 15.367 l 186.191 15.367 l 186.191 12.242 l 189.254 12.242
 l 189.254 10.004 l 186.191 10.004 l 186.191 4.422 l 186.191 3.41 186.711
 3 187.594 3 c 188.176 3 188.691 3.129 189.211 3.387 c 189.211 1.254 l 188.562
 0.891 187.852 0.672 186.859 0.672 c 184.941 0.672 183.586 1.512 183.586
 4.012 c f
  Q
Q
Q Q
showpage
%%Trailer
%%EOF
