%!PS-Adobe-3.0
%%Creator: cairo 1.12.2 (http://cairographics.org)
%%CreationDate: Mon Aug  6 13:42:42 2012
%%Pages: 1
%%DocumentData: Clean7Bit
%%LanguageLevel: 2
%%DocumentMedia: 67x47mm 191 133 0 () ()
%%BoundingBox: 0 -1 191 134
%%EndComments
%%BeginProlog
/languagelevel where
{ pop languagelevel } { 1 } ifelse
2 lt { /Helvetica findfont 12 scalefont setfont 50 500 moveto
  (This print job requires a PostScript Language Level 2 printer.) show
  showpage quit } if
/q { gsave } bind def
/Q { grestore } bind def
/cm { 6 array astore concat } bind def
/w { setlinewidth } bind def
/J { setlinecap } bind def
/j { setlinejoin } bind def
/M { setmiterlimit } bind def
/d { setdash } bind def
/m { moveto } bind def
/l { lineto } bind def
/c { curveto } bind def
/h { closepath } bind def
/re { exch dup neg 3 1 roll 5 3 roll moveto 0 rlineto
      0 exch rlineto 0 rlineto closepath } bind def
/S { stroke } bind def
/f { fill } bind def
/f* { eofill } bind def
/n { newpath } bind def
/W { clip } bind def
/W* { eoclip } bind def
/BT { } bind def
/ET { } bind def
/pdfmark where { pop globaldict /?pdfmark /exec load put }
    { globaldict begin /?pdfmark /pop load def /pdfmark
    /cleartomark load def end } ifelse
/BDC { mark 3 1 roll /BDC pdfmark } bind def
/EMC { mark /EMC pdfmark } bind def
/cairo_store_point { /cairo_point_y exch def /cairo_point_x exch def } def
/Tj { show currentpoint cairo_store_point } bind def
/TJ {
  {
    dup
    type /stringtype eq
    { show } { -0.001 mul 0 cairo_font_matrix dtransform rmoveto } ifelse
  } forall
  currentpoint cairo_store_point
} bind def
/cairo_selectfont { cairo_font_matrix aload pop pop pop 0 0 6 array astore
    cairo_font exch selectfont cairo_point_x cairo_point_y moveto } bind def
/Tf { pop /cairo_font exch def /cairo_font_matrix where
      { pop cairo_selectfont } if } bind def
/Td { matrix translate cairo_font_matrix matrix concatmatrix dup
      /cairo_font_matrix exch def dup 4 get exch 5 get cairo_store_point
      /cairo_font where { pop cairo_selectfont } if } bind def
/Tm { 2 copy 8 2 roll 6 array astore /cairo_font_matrix exch def
      cairo_store_point /cairo_font where { pop cairo_selectfont } if } bind def
/g { setgray } bind def
/rg { setrgbcolor } bind def
/d1 { setcachedevice } bind def
%%EndProlog
%%Page: 1 1
%%BeginPageSetup
%%PageMedia: 67x47mm
%%PageBoundingBox: 0 -1 191 134
%%EndPageSetup
q 0 -1 191 135 rectclip q
0.682353 0.101961 0.321569 rg
70.086 69.472 m 85.203 59.921 104.129 65.749 115.102 82.175 c 126.078 98.601
 125.262 119.433 110.141 128.983 c 95.02 138.538 76.16 132.194 65.188 115.769
 c 54.211 99.347 54.965 79.026 70.086 69.472 c f*
0.113725 0.329412 0.478431 rg
78.262 69.323 m 93.172 61.722 110.133 69.241 118.723 86.089 c 127.312 102.94
 124.562 122.8 109.656 130.397 c 94.746 137.995 77.895 129.991 69.305 113.144
 c 60.715 96.296 63.355 76.921 78.262 69.323 c f*
0.960784 0.713726 0.0431373 rg
83.625 70.811 m 83 73.456 83.602 76.03 83.602 76.03 c 83.602 76.03 84.035
 79.237 83.484 81.495 c 82.934 83.757 81.129 86.198 81.129 86.198 c 81.129
 86.198 79.328 88.644 78.777 90.901 c 78.227 93.159 78.465 95.311 78.715
 96.507 c 78.969 97.726 79.988 100.378 79.879 102.698 c 79.77 105.003 77.867
 108.796 78.516 109.194 c 79.152 109.585 80.812 106.737 82.312 103.003 c
 82.941 101.44 83.547 98.772 83.488 97.811 c 83.395 96.3 83.344 94.55 83.895
 92.292 c 84.441 90.03 86.25 87.589 86.25 87.589 c 86.25 87.589 88.051 85.144
 88.602 82.886 c 89.152 80.628 88.719 77.421 88.719 77.421 c 88.719 77.421
 88.09 73.808 88.77 71.499 c 83.625 70.811 l f
130.426 80.272 m 130.188 80.647 128.547 82.632 126.766 83.593 c 125.348
 84.362 124.828 84.436 123.324 86.222 c 121.82 88.007 120.773 91.069 120.773
 91.069 c 120.773 91.069 119.723 94.132 118.219 95.917 c 116.715 97.698 
114.004 99.097 114.004 99.097 c 114.004 99.097 110.93 100.749 109.793 102.28
 c 108.355 104.214 107.895 105.292 107.367 106.815 c 106.871 108.245 106.773
 111.038 105.559 113.104 c 104.387 115.101 101.996 115.722 102.484 116.409
 c 102.887 116.979 106.66 114.87 108.227 113.636 c 109.559 112.593 110.773
 110.983 111.148 110.097 c 111.742 108.698 112.48 107.108 113.984 105.323
 c 115.488 103.538 118.199 102.14 118.199 102.14 c 118.199 102.14 120.91
 100.741 122.414 98.956 c 123.918 97.171 124.965 94.108 124.965 94.108 c
 124.965 94.108 126.016 91.046 127.52 89.261 c 129.023 87.476 130.016 87.081
 130.766 86.604 c 131.574 86.089 132.137 85.589 132.793 84.589 c 130.426
 80.272 l f
121.02 67.569 m 120.551 68.784 120.09 69.835 119.727 70.386 c 118.453 72.343
 115.934 74.061 115.934 74.061 c 115.934 74.061 113.414 75.776 112.137 77.733
 c 110.863 79.686 110.195 82.854 110.195 82.854 c 110.195 82.854 109.527
 86.022 108.25 87.976 c 106.977 89.933 104.457 91.651 104.457 91.651 c 104.457
 91.651 101.938 93.37 100.66 95.323 c 99.387 97.276 98.719 100.444 98.719
 100.444 c 98.719 100.444 98.051 103.612 96.773 105.565 c 95.5 107.519 92.98
 109.241 92.98 109.241 c 92.98 109.241 90.504 110.929 89.23 112.886 c 87.957
 114.839 87.383 117.284 87.266 117.972 c 87.102 118.987 87.152 122.261 86.27
 124.413 c 85.395 126.558 83.297 127.929 83.969 128.394 c 84.617 128.839
 87.492 126.144 88.902 124.729 c 90.094 123.53 91.102 121.784 91.371 120.854
 c 91.789 119.397 92.328 117.729 93.602 115.772 c 94.875 113.819 97.395 
112.101 97.395 112.101 c 97.395 112.101 99.918 110.382 101.191 108.429 c
 102.465 106.472 103.133 103.308 103.133 103.308 c 103.133 103.308 103.805
 100.14 105.078 98.183 c 106.352 96.229 108.875 94.511 108.875 94.511 c 
108.875 94.511 111.391 92.792 112.668 90.835 c 113.941 88.882 114.609 85.714
 114.609 85.714 c 114.609 85.714 115.711 82.761 116.988 80.804 c 118.262
 78.851 119.711 77.608 120.34 77.019 c 120.961 76.433 122.891 75.433 124.129
 73.765 c 124.539 73.214 125.047 72.03 125.227 71.37 c 121.02 67.569 l f
104.852 64.788 m 104.781 65.015 104.613 65.452 104.535 65.62 c 103.559 
67.729 101.316 69.784 101.316 69.784 c 101.316 69.784 99.078 71.835 98.102
 73.944 c 97.125 76.058 96.93 79.284 96.93 79.284 c 96.93 79.284 96.734 
82.511 95.762 84.624 c 94.785 86.733 92.543 88.784 92.543 88.784 c 92.543
 88.784 90.301 90.839 89.328 92.948 c 88.352 95.061 88.191 97.62 88.184 
98.351 c 88.176 99.093 88.727 102.065 88.133 104.733 c 87.629 106.987 85.875
 108.577 86.438 108.991 c 87.137 109.507 89.738 106.229 90.926 104.636 c
 91.93 103.28 92.672 101.413 92.801 100.46 c 93 98.956 93.289 97.229 94.262
 95.12 c 95.238 93.007 97.48 90.956 97.48 90.956 c 97.48 90.956 99.723 88.901
 100.695 86.792 c 101.672 84.679 101.867 81.452 101.867 81.452 c 101.867
 81.452 102.062 78.226 103.039 76.116 c 104.016 74.003 106.258 71.952 106.258
 71.952 c 106.258 71.952 108.41 70.214 109.375 68.097 c 109.453 67.925 109.586
 67.554 109.625 67.405 c 104.852 64.788 l f
0.137255 0.121569 0.12549 rg
16.656 25.339 m 14.125 25.339 12.02 24.589 10.27 23.019 c 7.734 20.733 
6.484 17.417 6.484 12.741 c 6.484 8.53 7.449 5.495 9.52 3.249 c 11.375 1.249
 13.98 0.179 17.051 0.179 c 19.551 0.179 22.188 0.894 23.938 2.034 c 23.938
 13.456 l 15.695 13.456 l 16.266 11.026 l 21.191 11.026 l 21.191 3.569 l
 20.156 2.925 18.836 2.604 17.301 2.604 c 14.98 2.604 12.48 3.604 11.375
 5.21 c 10.27 6.815 9.664 9.421 9.664 12.636 c 9.664 14.952 9.984 17.022
 10.625 18.843 c 11.625 21.663 13.875 22.983 16.73 22.983 c 18.621 22.983
 20.047 22.448 22.047 21.093 c 23.367 22.913 l 21.512 24.519 19.262 25.339
 16.656 25.339 c f*
28.246 9.565 m 28.246 3.71 31.031 0.108 35.922 0.108 c 40.383 0.108 43.559
 3.249 43.559 9.171 c 43.559 12.061 43.023 14.171 41.914 15.776 c 40.703
 17.522 38.773 18.882 35.812 18.882 c 31.137 18.882 28.246 15.347 28.246
 9.565 c h
39.559 14.311 m 40.133 13.132 40.383 11.456 40.383 8.96 c 40.383 7.21 40.238
 6.21 39.848 5.104 c 39.238 3.39 37.848 2.429 35.992 2.429 c 34.457 2.429
 33.027 3.14 32.387 4.21 c 31.707 5.319 31.281 7.53 31.281 10.03 c 31.281
 12.136 31.566 13.561 32.137 14.667 c 32.742 15.847 34.207 16.597 35.777
 16.597 c 37.238 16.597 38.809 15.882 39.559 14.311 c f*
51.648 0.394 m 54.398 0.394 l 61.074 18.343 l 58.109 18.343 l 54.043 6.53
 l 53.473 4.925 53.184 3.534 53.184 3.534 c 53.113 3.534 l 53.113 3.534 
52.758 5.104 52.258 6.565 c 48.117 18.808 l 45.262 18.202 l 51.648 0.394
 l f*
71.129 2.499 m 69.348 2.499 67.703 3.14 66.703 4.675 c 66.098 5.604 65.883
 6.89 65.883 8.565 c 65.883 8.995 l 76.984 8.995 l 76.984 9.386 l 76.91 
13.632 76.484 15.311 74.949 16.882 c 73.734 18.132 72.059 18.808 70.133 
18.808 c 67.988 18.808 66.242 18.022 64.812 16.347 c 63.312 14.561 62.672
 12.636 62.672 9.636 c 62.672 3.749 65.633 0.179 70.559 0.179 c 72.844 0.179
 74.984 0.964 76.555 2.39 c 75.484 4.175 l 74.234 3.034 72.844 2.499 71.129
 2.499 c h
69.988 16.632 m 71.344 16.632 72.594 16.022 73.199 15.061 c 73.734 14.206
 73.984 13.026 74.02 11.101 c 65.883 11.101 l 66.027 14.776 67.453 16.632
 69.988 16.632 c f*
81.648 14.276 m 81.648 0.569 l 84.434 0.569 l 84.434 11.706 l 84.434 13.171
 84.648 13.706 85.469 14.526 c 86.289 15.347 87.359 15.811 88.43 15.811 
c 88.715 15.811 89.035 15.737 89.215 15.667 c 90.355 18.702 l 90.355 18.702
 89.855 18.882 89.395 18.882 c 87.574 18.882 85.684 17.737 84.398 15.917
 c 84.504 17.417 83.824 18.808 83.824 18.808 c 81.043 18.058 l 81.043 18.058
 81.648 16.882 81.648 14.276 c f*
93.926 14.276 m 93.926 0.569 l 96.637 0.569 l 96.637 13.811 l 97.922 15.167
 100.137 16.311 101.562 16.311 c 102.383 16.311 103.133 16.022 103.527 15.561
 c 104.023 14.952 104.168 14.491 104.168 12.597 c 104.168 0.569 l 106.988
 0.569 l 106.988 14.061 l 106.988 14.776 106.844 15.487 106.559 16.132 c
 105.848 17.702 104.133 18.737 102.203 18.737 c 100.312 18.737 98.457 17.843
 96.602 15.987 c 96.602 17.452 95.961 18.772 95.961 18.772 c 93.246 18.022
 l 93.246 18.022 93.926 16.811 93.926 14.276 c f*
112.477 14.347 m 112.477 0.569 l 115.152 0.569 l 115.152 13.847 l 117.008
 15.526 118.328 16.202 119.684 16.202 c 120.504 16.202 121.074 15.987 121.504
 15.487 c 121.895 14.991 122.004 14.276 122.004 13.206 c 122.004 0.569 l
 124.824 0.569 l 124.824 13.561 l 126.68 15.276 127.93 16.311 129.535 16.311
 c 131.031 16.311 131.816 15.417 131.816 13.706 c 131.816 0.569 l 134.672
 0.569 l 134.672 13.991 l 134.672 16.811 132.852 18.808 130.211 18.808 c
 128.391 18.808 126.215 17.667 124.504 15.847 c 123.859 17.737 122.109 18.808
 120.363 18.808 c 118.543 18.808 116.363 17.452 115.188 16.132 c 115.188
 17.382 114.547 18.772 114.547 18.772 c 111.832 18.132 l 111.832 18.132 
112.477 16.917 112.477 14.347 c f*
147.016 2.499 m 145.23 2.499 143.59 3.14 142.59 4.675 c 141.984 5.604 141.77
 6.89 141.77 8.565 c 141.77 8.995 l 152.867 8.995 l 152.867 9.386 l 152.797
 13.632 152.371 15.311 150.836 16.882 c 149.621 18.132 147.945 18.808 146.016
 18.808 c 143.875 18.808 142.129 18.022 140.699 16.347 c 139.199 14.561 
138.559 12.636 138.559 9.636 c 138.559 3.749 141.52 0.179 146.445 0.179 
c 148.73 0.179 150.871 0.964 152.441 2.39 c 151.371 4.175 l 150.121 3.034
 148.73 2.499 147.016 2.499 c h
145.875 16.632 m 147.23 16.632 148.48 16.022 149.086 15.061 c 149.621 14.206
 149.871 13.026 149.906 11.101 c 141.77 11.101 l 141.914 14.776 143.34 16.632
 145.875 16.632 c f*
157.535 14.276 m 157.535 0.569 l 160.246 0.569 l 160.246 13.811 l 161.531
 15.167 163.746 16.311 165.172 16.311 c 165.992 16.311 166.742 16.022 167.137
 15.561 c 167.637 14.952 167.777 14.491 167.777 12.597 c 167.777 0.569 l
 170.598 0.569 l 170.598 14.061 l 170.598 14.776 170.453 15.487 170.168 
16.132 c 169.453 17.702 167.742 18.737 165.816 18.737 c 163.926 18.737 162.066
 17.843 160.211 15.987 c 160.211 17.452 159.57 18.772 159.57 18.772 c 156.855
 18.022 l 156.855 18.022 157.535 16.811 157.535 14.276 c f*
179.582 18.343 m 179.582 20.698 179.938 23.483 179.938 23.483 c 177.012
 22.843 l 177.012 22.843 176.727 20.058 176.727 18.343 c 174.406 18.343 
l 174.406 16.237 l 176.727 16.237 l 176.727 4.034 l 176.727 2.249 177.191
 1.104 178.441 0.499 c 179.117 0.179 179.832 -0.001 180.762 -0.001 c 182.008
 -0.001 183.008 0.249 183.898 0.714 c 183.508 2.499 l 183.008 2.249 182.543
 2.14 181.758 2.14 c 180.012 2.14 179.477 2.819 179.477 4.78 c 179.477 16.237
 l 183.188 16.237 l 184.043 18.343 l 179.582 18.343 l f*
17.469 34.706 m 20.602 36.784 22.641 41.046 22.641 46.745 c 22.641 54.968
 18.34 60.061 11.355 60.061 c 9.395 60.061 7.473 59.612 5.926 58.78 c 2.152
 56.741 0 52.179 0 46.519 c 0 42.671 1.02 39.347 3.02 36.784 c 5.02 34.179
 7.586 33.085 11.508 33.085 c 13.547 32.444 15.586 31.272 16.828 30.444 
c 17.809 29.804 19.621 28.593 21.656 28.593 c 23.242 28.593 23.996 29.05
 23.996 29.05 c 25.395 32.479 l 25.395 32.479 24.188 32.292 23.055 32.292
 c 21.887 32.292 20.754 32.819 19.809 33.386 c 19.207 33.765 18.188 34.444
 17.469 34.706 c h
11.281 55.987 m 14.074 55.987 15.469 53.987 15.887 52.667 c 16.34 51.194
 16.562 49.272 16.562 46.593 c 16.562 39.913 15.02 37.124 11.355 37.124 
c 10.113 37.124 9.055 37.425 8.227 38.026 c 6.641 39.159 5.887 41.991 5.887
 46.519 c 5.887 49.686 6.301 51.987 7.207 53.686 c 7.961 55.085 9.508 55.987
 11.281 55.987 c f*
26.699 52.366 m 26.699 39.991 l 26.699 38.026 26.812 37.011 27.113 36.144
 c 27.758 34.292 30.098 33.011 32.812 33.011 c 34.852 33.011 36.66 33.651
 37.906 34.858 c 38.246 34.065 38.773 33.425 39.414 32.972 c 43 35.011 l
 42.246 35.917 41.828 37.233 41.828 38.519 c 41.828 53.272 l 37 52.253 l
 37 38.671 l 36.621 37.726 35.113 36.819 33.867 36.819 c 33.113 36.819 32.359
 37.198 32.094 37.726 c 31.832 38.253 31.68 39.159 31.68 40.897 c 31.68 
53.308 l 26.699 52.366 l f*
60.316 38.671 m 58.77 37.386 57.148 36.745 55.41 36.745 c 52.809 36.745
 51.336 38.444 51.336 41.425 c 51.336 41.573 l 62.504 41.573 l 62.504 42.745
 l 62.504 46.78 61.711 49.386 59.938 51.194 c 58.695 52.479 56.582 53.233
 54.355 53.233 c 51.789 53.233 49.863 52.405 48.281 50.632 c 46.582 48.745
 45.863 46.44 45.863 42.972 c 45.863 36.897 49.449 32.972 54.996 32.972 
c 57.715 32.972 60.051 33.839 62.277 35.651 c h
51.41 45.272 m 51.41 45.347 l 51.41 48.026 52.508 49.534 54.43 49.534 c
 55.449 49.534 56.164 49.159 56.656 48.405 c 57.109 47.686 57.262 46.933
 57.262 45.499 c 57.262 45.272 l 51.41 45.272 l f*
79.555 38.671 m 78.004 37.386 76.383 36.745 74.648 36.745 c 72.043 36.745
 70.574 38.444 70.574 41.425 c 70.574 41.573 l 81.742 41.573 l 81.742 42.745
 l 81.742 46.78 80.949 49.386 79.176 51.194 c 77.93 52.479 75.816 53.233
 73.59 53.233 c 71.023 53.233 69.102 52.405 67.516 50.632 c 65.816 48.745
 65.102 46.44 65.102 42.972 c 65.102 36.897 68.688 32.972 74.23 32.972 c
 76.949 32.972 79.289 33.839 81.516 35.651 c h
70.648 45.272 m 70.648 45.347 l 70.648 48.026 71.742 49.534 73.664 49.534
 c 74.684 49.534 75.402 49.159 75.895 48.405 c 76.344 47.686 76.496 46.933
 76.496 45.499 c 76.496 45.272 l 70.648 45.272 l f*
84.977 52.026 m 85.434 50.745 85.656 49.159 85.656 47.499 c 85.656 33.499
 l 90.715 33.499 l 90.715 47.159 l 91.883 48.218 93.203 48.894 94.223 48.894
 c 95.543 48.894 95.922 48.253 95.922 46.065 c 95.922 33.499 l 100.902 33.499
 l 100.902 47.612 l 100.902 48.819 100.789 49.647 100.523 50.366 c 99.922
 52.026 98.031 53.159 95.883 53.159 c 94.75 53.159 93.43 52.854 92.41 52.327
 c 91.582 51.874 90.941 51.425 90.188 50.894 c 90.188 51.686 89.922 52.519
 89.469 53.308 c 84.977 52.026 l f*
119.273 51.534 m 117.5 52.405 115.465 53.347 112.367 53.347 c 107.879 53.347
 104.898 50.819 104.898 47.046 c 104.898 45.8 105.312 44.405 105.992 43.573
 c 106.672 42.745 108.258 41.839 109.539 41.612 c 111.805 41.198 l 113.84
 40.819 114.781 40.14 114.781 38.819 c 114.781 37.573 113.652 36.632 112.219
 36.632 c 110.027 36.632 107.352 37.878 105.805 38.819 c 103.992 35.124 
l 106.82 33.651 109.426 32.897 111.805 32.897 c 116.746 32.897 120.066 35.612
 120.066 39.612 c 120.066 40.897 119.727 41.991 119.012 42.897 c 118.328
 43.765 117.539 44.479 115.16 45.085 c 112.82 45.686 l 111.047 46.14 110.406
 46.667 110.406 47.647 c 110.406 48.78 111.387 49.534 112.859 49.534 c 114.293
 49.534 115.688 49.12 117.613 48.14 c 119.273 51.534 l f*
133.824 50.519 m 135.977 46.894 l 138.051 48.292 139.938 49.085 141.559
 49.085 c 143.41 49.085 143.824 48.366 143.824 46.218 c 143.824 45.425 l
 143.41 45.46 143.07 45.46 142.691 45.46 c 136.543 45.46 133.41 43.347 133.41
 38.819 c 133.41 34.972 135.75 32.784 140.051 32.784 c 141.637 32.784 142.992
 33.159 143.938 33.839 c 144.312 34.104 144.73 34.479 145.105 34.858 c 145.598
 33.878 146.652 33.011 147.824 32.519 c 150.504 35.612 l 149.031 36.706 
148.691 37.499 148.691 39.573 c 148.691 39.913 l 148.805 46.405 l 148.844
 48.479 148.73 49.085 148.465 49.878 c 147.711 52.026 145.484 53.233 142.238
 53.233 c 140.469 53.233 138.844 52.894 136.957 52.101 c 135.598 51.534 
134.844 51.159 133.824 50.519 c h
143.75 41.952 m 143.676 37.8 l 142.918 36.972 141.977 36.479 141.031 36.479
 c 139.75 36.479 138.809 37.499 138.809 39.011 c 138.809 41.311 140.016 
41.952 143.523 41.952 c 143.75 41.952 l f*
153.441 52.026 m 153.895 50.745 154.121 49.159 154.121 47.499 c 154.121
 33.499 l 159.176 33.499 l 159.176 47.159 l 160.348 48.218 161.668 48.894
 162.688 48.894 c 164.008 48.894 164.383 48.253 164.383 46.065 c 164.383
 33.499 l 169.363 33.499 l 169.363 47.612 l 169.363 48.819 169.254 49.647
 168.988 50.366 c 168.383 52.026 166.496 53.159 164.348 53.159 c 163.215
 53.159 161.895 52.854 160.875 52.327 c 160.047 51.874 159.402 51.425 158.648
 50.894 c 158.648 51.686 158.387 52.519 157.934 53.308 c 153.441 52.026 
l f*
189.812 60.628 m 184.793 61.421 l 184.793 54.78 l 184.793 53.647 184.867
 52.327 184.945 51.913 c 184 52.667 182.906 53.007 181.512 53.007 c 176.605
 53.007 173.246 48.858 173.246 42.819 c 173.246 36.819 176.344 33.011 181.246
 33.011 c 182.98 33.011 184.453 33.538 185.699 34.632 c 185.773 34.104 185.852
 33.8 186 33.499 c 190.527 33.499 l 190.188 34.257 189.812 35.8 189.812 
40.558 c h
184.867 47.726 m 184.867 38.519 l 184.379 37.913 183.32 37.272 182.379 
37.272 c 179.738 37.272 178.867 38.632 178.867 42.78 c 178.867 47.085 179.852
 48.972 182.113 48.972 c 183.02 48.972 183.926 48.554 184.867 47.726 c f*
128.555 61.534 m 128.742 60.476 128.82 59.229 128.82 56.515 c 128.82 47.167
 l 128.844 40.858 l 128.844 35.905 129.266 34.487 129.594 33.507 c 124.66
 33.507 l 124.508 33.819 124.059 34.851 123.926 35.952 c 123.766 37.269 
123.719 39.339 123.676 41.741 c 123.648 54.554 l 123.648 57.081 123.574 
58.628 123.387 60.362 c 128.555 61.534 l f
Q Q
showpage
%%Trailer
%%EOF
