#FIG 3.2  Produced by xfig version 3.2.5b
Landscape
Center
Metric
A4      
100.00
Single
-2
1200 2
6 6795 3960 7785 4230
2 1 0 1 0 7 50 -1 -1 0.000 0 0 -1 0 0 2
	 6975 3960 6975 4230
2 2 0 1 0 7 50 -1 -1 0.000 0 0 -1 0 0 5
	 6795 3960 7785 3960 7785 4230 6795 4230 6795 3960
4 0 0 50 -1 0 12 0.0000 4 135 90 6840 4140 1\001
4 0 0 50 -1 0 12 0.0000 4 180 720 7020 4140 AT(p,a1)\001
-6
6 8145 4410 9180 4680
2 1 0 1 0 7 50 -1 -1 0.000 0 0 -1 0 0 2
	 8325 4410 8325 4680
2 2 0 1 0 7 50 -1 -1 0.000 0 0 -1 0 0 5
	 8145 4410 9180 4410 9180 4680 8145 4680 8145 4410
4 0 0 50 -1 0 12 0.0000 4 135 90 8190 4590 5\001
4 0 0 50 -1 0 12 0.0000 4 180 810 8341 4593 AT(ap,a3)\001
-6
6 6885 1035 7920 1305
2 1 0 1 0 7 50 -1 -1 0.000 0 0 -1 0 0 2
	 7065 1035 7065 1305
2 2 0 1 0 7 50 -1 -1 0.000 0 0 -1 0 0 5
	 6885 1035 7920 1035 7920 1305 6885 1305 6885 1035
4 0 0 50 -1 0 12 0.0000 4 135 90 6930 1215 5\001
4 0 0 50 -1 0 12 0.0000 4 180 810 7081 1218 AT(ap,a1)\001
-6
6 9450 1035 10485 1305
2 1 0 1 0 7 50 -1 -1 0.000 0 0 -1 0 0 2
	 9630 1035 9630 1305
2 2 0 1 0 7 50 -1 -1 0.000 0 0 -1 0 0 5
	 9450 1035 10485 1035 10485 1305 9450 1305 9450 1035
4 0 0 50 -1 0 12 0.0000 4 135 90 9495 1215 5\001
4 0 0 50 -1 0 12 0.0000 4 180 810 9646 1218 AT(ap,a2)\001
-6
6 9585 3960 10575 4230
2 1 0 1 0 7 50 -1 -1 0.000 0 0 -1 0 0 2
	 9765 3960 9765 4230
2 2 0 1 0 7 50 -1 -1 0.000 0 0 -1 0 0 5
	 9585 3960 10575 3960 10575 4230 9585 4230 9585 3960
4 0 0 50 -1 0 12 0.0000 4 135 90 9630 4140 1\001
4 0 0 50 -1 0 12 0.0000 4 180 720 9810 4140 AT(p,a3)\001
-6
6 7605 4905 8640 5175
2 1 0 1 0 7 50 -1 -1 0.000 0 0 -1 0 0 2
	 7785 4905 7785 5175
2 2 0 1 0 7 50 -1 -1 0.000 0 0 -1 0 0 5
	 7605 4905 8640 4905 8640 5175 7605 5175 7605 4905
4 0 0 50 -1 0 12 0.0000 4 165 810 7830 5085 AT(t1,a1)\001
4 0 0 50 -1 0 12 0.0000 4 135 90 7650 5085 2\001
-6
6 8775 4905 9810 5175
2 1 0 1 0 7 50 -1 -1 0.000 0 0 -1 0 0 2
	 8955 4905 8955 5175
2 2 0 1 0 7 50 -1 -1 0.000 0 0 -1 0 0 5
	 8775 4905 9810 4905 9810 5175 8775 5175 8775 4905
4 0 0 50 -1 0 12 0.0000 4 135 90 8820 5085 4\001
4 0 0 50 -1 0 12 0.0000 4 165 810 9000 5085 AT(t3,a3)\001
-6
6 7830 -1395 8280 -990
2 1 2 1 0 7 50 -1 -1 3.000 0 0 -1 1 0 2
	1 1 1.00 60.00 120.00
	 7830 -1170 8280 -1395
2 1 2 1 0 7 50 -1 -1 3.000 0 0 -1 1 0 2
	1 1 1.00 60.00 120.00
	 7830 -1125 8280 -990
-6
6 7830 -450 8280 -45
2 1 2 1 0 7 50 -1 -1 3.000 0 0 -1 1 0 2
	1 1 1.00 60.00 120.00
	 7830 -225 8280 -450
2 1 2 1 0 7 50 -1 -1 3.000 0 0 -1 1 0 2
	1 1 1.00 60.00 120.00
	 7830 -180 8280 -45
-6
6 6705 900 8100 1440
2 1 0 4 4 7 50 -1 -1 0.000 0 0 -1 0 0 2
	 6795 945 8055 1395
2 1 0 4 4 7 50 -1 -1 0.000 0 0 -1 0 0 2
	 6750 1395 8010 945
-6
6 9270 900 10665 1440
2 1 0 4 4 7 50 -1 -1 0.000 0 0 -1 0 0 2
	 9360 945 10620 1395
2 1 0 4 4 7 50 -1 -1 0.000 0 0 -1 0 0 2
	 9315 1395 10575 945
-6
6 8010 4275 9405 4815
2 1 0 4 4 7 50 -1 -1 0.000 0 0 -1 0 0 2
	 8100 4320 9360 4770
2 1 0 4 4 7 50 -1 -1 0.000 0 0 -1 0 0 2
	 8055 4770 9315 4320
-6
6 10800 2475 14625 4185
6 10800 2475 13905 4140
6 10800 3510 11880 4140
4 0 0 50 -1 0 12 0.0000 4 135 1080 10800 3885 Precondition\001
4 0 0 50 -1 0 12 0.0000 4 135 540 10800 3645 Action\001
4 0 0 50 -1 0 12 0.0000 4 135 1080 10800 4140 Effect      \001
-6
6 10800 2520 11880 3150
4 0 0 50 -1 0 12 0.0000 4 135 1080 10800 2895 Precondition\001
4 0 0 50 -1 0 12 0.0000 4 135 540 10800 2655 Action\001
4 0 0 50 -1 0 12 0.0000 4 135 1080 10800 3150 Effect      \001
-6
2 1 0 4 4 7 50 -1 -1 0.000 0 0 -1 0 0 2
	 12195 4050 12870 4050
2 1 0 4 4 7 50 -1 -1 0.000 0 0 -1 0 0 2
	 12150 3780 12825 3780
4 0 0 50 -1 0 12 0.0000 4 180 1350 11925 2655 : Load(p,a2,ap)\001
4 0 0 50 -1 0 12 0.0000 4 180 1980 11925 2880 : {AT(p,a2),AT(ap,a2)}\001
4 0 0 50 -1 0 12 0.0000 4 180 1980 11925 3150 : {-AT(p,a2),IN(p,ap)}\001
4 0 0 50 -1 0 12 0.0000 4 180 1350 11925 3645 : Fly(ap,a2,a1)\001
-6
2 1 0 4 4 7 50 -1 -1 0.000 0 0 -1 0 0 2
	 13230 4050 13905 4050
2 1 0 4 4 7 50 -1 -1 0.000 0 0 -1 0 0 2
	 13005 2790 13680 2790
4 0 0 50 -1 0 12 0.0000 4 180 2700 11925 3870 : {AT(ap,a2),CONNECTED(a2,a1)}\001
4 0 0 50 -1 0 12 0.0000 4 180 2160 11925 4140 : {-AT(ap,a2),AT(ap,a1)}\001
-6
6 10800 1485 11880 2115
4 0 0 50 -1 0 12 0.0000 4 135 1080 10800 1860 Precondition\001
4 0 0 50 -1 0 12 0.0000 4 135 540 10800 1620 Action\001
4 0 0 50 -1 0 12 0.0000 4 135 1080 10800 2115 Effect      \001
-6
6 10800 540 11880 1170
4 0 0 50 -1 0 12 0.0000 4 135 1080 10800 915 Precondition\001
4 0 0 50 -1 0 12 0.0000 4 135 540 10800 675 Action\001
4 0 0 50 -1 0 12 0.0000 4 135 1080 10800 1170 Effect      \001
-6
2 1 0 1 0 7 50 -1 -1 0.000 0 0 -1 0 0 2
	 7200 1350 8550 4320
2 1 0 1 0 7 50 -1 -1 0.000 0 0 -1 0 0 2
	 8827 4323 10177 1353
2 1 0 1 0 7 50 -1 -1 0.000 0 0 -1 0 0 2
	 7110 3915 8550 2790
2 1 0 1 0 7 50 -1 -1 0.000 0 0 -1 0 0 2
	 8820 2790 10260 3915
2 1 0 1 0 7 50 -1 -1 0.000 0 0 -1 0 0 2
	 7965 1170 9405 1170
2 1 0 1 0 7 50 -1 -1 0.000 0 0 -1 0 0 2
	 8685 2340 8685 405
2 1 0 1 0 7 50 -1 -1 0.000 0 0 -1 0 0 2
	 8685 0 8685 -540
2 1 0 1 0 7 50 -1 -1 0.000 0 0 -1 0 0 2
	 8685 -900 8685 -1440
2 1 0 1 0 7 50 -1 -1 0.000 0 0 -1 0 0 2
	 10242 4284 10692 5184
2 1 2 1 0 7 50 -1 -1 3.000 0 0 -1 1 0 2
	1 1 1.00 60.00 120.00
	 9855 945 9225 360
2 1 2 1 0 7 50 -1 -1 3.000 0 0 -1 1 0 2
	1 1 1.00 60.00 120.00
	 9855 1395 8865 2340
2 1 2 1 0 7 50 -1 -1 3.000 0 0 -1 1 0 2
	1 1 1.00 60.00 120.00
	 8685 4320 8685 2790
2 1 2 1 0 7 50 -1 -1 3.000 0 0 -1 1 0 2
	1 1 1.00 60.00 120.00
	 9090 4320 9540 4095
2 1 2 1 0 7 50 -1 -1 3.000 0 0 -1 1 0 2
	1 1 1.00 60.00 120.00
	 6975 1350 6975 3870
2 1 2 1 0 7 50 -1 -1 3.000 0 0 -1 1 0 2
	1 1 1.00 60.00 120.00
	 7515 1395 8505 2340
2 1 0 1 0 7 50 -1 -1 0.000 0 0 -1 0 0 2
	 7200 -405 7200 -945
2 1 2 1 0 7 50 -1 -1 3.000 0 0 -1 1 0 2
	1 1 1.00 60.00 120.00
	 7875 4860 7425 4275
2 1 2 1 0 7 50 -1 -1 3.000 0 0 -1 1 0 2
	1 1 1.00 60.00 120.00
	 7605 4905 7110 5130
2 1 0 1 0 7 50 -1 -1 0.000 0 0 -1 0 0 2
	 6840 5175 7290 4275
2 1 2 1 0 7 50 -1 -1 3.000 0 0 -1 1 0 2
	1 1 1.00 60.00 120.00
	 9540 4860 9945 4275
2 1 2 1 0 7 50 -1 -1 3.000 0 0 -1 1 0 2
	1 1 1.00 60.00 120.00
	 9810 4905 10395 5130
2 1 0 1 0 7 50 -1 -1 0.000 0 0 -1 0 0 2
	 8370 -1755 8370 -1485
2 2 0 1 0 7 50 -1 -1 0.000 0 0 -1 0 0 5
	 8190 -1755 9180 -1755 9180 -1485 8190 -1485 8190 -1755
2 1 0 1 0 7 50 -1 -1 0.000 0 0 -1 0 0 2
	 6885 -1305 6885 -1035
2 2 0 1 0 7 50 -1 -1 0.000 0 0 -1 0 0 5
	 6705 -1305 7740 -1305 7740 -1035 6705 -1035 6705 -1305
2 1 0 1 0 7 50 -1 -1 0.000 0 0 -1 0 0 2
	 6885 -360 6885 -90
2 2 0 1 0 7 50 -1 -1 0.000 0 0 -1 0 0 5
	 6705 -360 7740 -360 7740 -90 6705 -90 6705 -360
2 1 0 1 0 7 50 -1 -1 0.000 0 0 -1 0 0 2
	 8370 45 8370 315
2 2 0 1 0 7 50 -1 -1 0.000 0 0 -1 0 0 5
	 8190 45 9180 45 9180 315 8190 315 8190 45
2 2 0 1 0 7 50 -1 -1 0.000 0 0 -1 0 0 5
	 8190 -855 9180 -855 9180 -585 8190 -585 8190 -855
2 1 0 1 0 7 50 -1 -1 0.000 0 0 -1 0 0 2
	 8370 -855 8370 -585
2 1 0 1 0 7 50 -1 -1 0.000 0 0 -1 0 0 2
	 6435 5220 6435 5490
2 2 0 1 0 7 50 -1 -1 0.000 0 0 -1 0 0 5
	 6255 5220 7245 5220 7245 5490 6255 5490 6255 5220
2 2 0 1 0 7 50 -1 -1 0.000 0 0 -1 0 0 5
	 10170 5220 11160 5220 11160 5490 10170 5490 10170 5220
2 1 0 1 0 7 50 -1 -1 0.000 0 0 -1 0 0 2
	 8370 2430 8370 2700
2 2 0 1 0 7 50 -1 -1 0.000 0 0 -1 0 0 5
	 8190 2430 9180 2430 9180 2700 8190 2700 8190 2430
2 1 0 1 0 7 50 -1 -1 0.000 0 0 -1 0 0 2
	 10350 5220 10350 5490
2 2 0 4 10 7 50 -1 -1 0.000 0 0 -1 0 0 5
	 10665 1395 14040 1395 14040 2250 10665 2250 10665 1395
4 0 0 50 -1 0 12 0.0000 4 135 90 8235 -1575 1\001
4 0 0 50 -1 0 12 0.0000 4 180 720 8415 -1575 AT(p,c2)\001
4 0 0 50 -1 0 12 0.0000 4 135 90 6750 -1125 3\001
4 0 0 50 -1 0 12 0.0000 4 135 90 6750 -180 3\001
4 0 0 50 -1 0 12 0.0000 4 135 90 8235 225 1\001
4 0 0 50 -1 0 12 0.0000 4 180 720 8415 225 AT(p,a2)\001
4 0 0 50 -1 0 12 0.0000 4 135 90 8235 -675 1\001
4 0 0 50 -1 0 12 0.0000 4 135 90 6300 5400 1\001
4 0 0 50 -1 0 12 0.0000 4 135 90 8235 2610 1\001
4 0 0 50 -1 0 12 0.0000 4 180 720 8415 2610 IN(p,ap)\001
4 0 0 50 -1 0 12 0.0000 4 180 720 8415 -675 IN(p,t2)\001
4 0 0 50 -1 0 12 0.0000 4 135 90 10215 5400 1\001
4 0 0 50 -1 0 12 0.0000 4 180 720 10395 5400 IN(p,t3)\001
4 0 0 50 -1 0 12 0.0000 4 180 720 6480 5400 IN(p,t1)\001
4 0 0 50 -1 0 12 0.0000 4 165 810 6930 -1125 AT(t2,c2)\001
4 0 0 50 -1 0 12 0.0000 4 165 810 6930 -180 AT(t2,a2)\001
4 0 0 50 -1 0 12 0.0000 4 180 1530 11925 1620 : Unload(p,t2,a2)\001
4 0 0 50 -1 0 12 0.0000 4 165 2700 11925 900 : {AT(t2,c2),CONNECTED(c2,a2)}\001
4 0 0 50 -1 0 12 0.0000 4 165 2160 11925 1170 : {-AT(t2,c2),AT(t2,a2)}\001
4 0 0 50 -1 0 12 0.0000 4 165 1530 11925 675 : Drive(t2,c2,a2)\001
4 0 0 50 -1 0 12 0.0000 4 180 1980 11925 1845 : {AT(t2,a2),IN(p,t2)}\001
4 0 0 50 -1 0 12 0.0000 4 180 1980 11925 2115 : {-IN(p,t2),AT(p,a2)}\001
4 0 0 50 -1 0 12 0.0000 4 135 1080 10800 -75 Precondition\001
4 0 0 50 -1 0 12 0.0000 4 135 540 10800 -315 Action\001
4 0 0 50 -1 0 12 0.0000 4 135 1080 10800 180 Effect      \001
4 0 0 50 -1 0 12 0.0000 4 180 1980 11925 -90 : {AT(p,c2),AT(t2,c2)}\001
4 0 0 50 -1 0 12 0.0000 4 180 1350 11925 -315 : Load(p,c2,t2)\001
4 0 0 50 -1 0 12 0.0000 4 180 1980 11925 180 : {-AT(p,c2),IN(p,t2)}\001
