%!PS-Adobe-3.0 EPSF-3.0
%%Title: justGraph-b3-1.fig
%%Creator: fig2dev Version 3.2 Patchlevel 5d
%%CreationDate: Thu May 23 11:34:29 2013
%%BoundingBox: 0 0 507 422
%Magnification: 1.0000
%%EndComments
%%BeginProlog
/$F2psDict 200 dict def
$F2psDict begin
$F2psDict /mtrx matrix put
/col-1 {0 setgray} bind def
/col0 {0.000 0.000 0.000 srgb} bind def
/col1 {0.000 0.000 1.000 srgb} bind def
/col2 {0.000 1.000 0.000 srgb} bind def
/col3 {0.000 1.000 1.000 srgb} bind def
/col4 {1.000 0.000 0.000 srgb} bind def
/col5 {1.000 0.000 1.000 srgb} bind def
/col6 {1.000 1.000 0.000 srgb} bind def
/col7 {1.000 1.000 1.000 srgb} bind def
/col8 {0.000 0.000 0.560 srgb} bind def
/col9 {0.000 0.000 0.690 srgb} bind def
/col10 {0.000 0.000 0.820 srgb} bind def
/col11 {0.530 0.810 1.000 srgb} bind def
/col12 {0.000 0.560 0.000 srgb} bind def
/col13 {0.000 0.690 0.000 srgb} bind def
/col14 {0.000 0.820 0.000 srgb} bind def
/col15 {0.000 0.560 0.560 srgb} bind def
/col16 {0.000 0.690 0.690 srgb} bind def
/col17 {0.000 0.820 0.820 srgb} bind def
/col18 {0.560 0.000 0.000 srgb} bind def
/col19 {0.690 0.000 0.000 srgb} bind def
/col20 {0.820 0.000 0.000 srgb} bind def
/col21 {0.560 0.000 0.560 srgb} bind def
/col22 {0.690 0.000 0.690 srgb} bind def
/col23 {0.820 0.000 0.820 srgb} bind def
/col24 {0.500 0.190 0.000 srgb} bind def
/col25 {0.630 0.250 0.000 srgb} bind def
/col26 {0.750 0.380 0.000 srgb} bind def
/col27 {1.000 0.500 0.500 srgb} bind def
/col28 {1.000 0.630 0.630 srgb} bind def
/col29 {1.000 0.750 0.750 srgb} bind def
/col30 {1.000 0.880 0.880 srgb} bind def
/col31 {1.000 0.840 0.000 srgb} bind def

end

/cp {closepath} bind def
/ef {eofill} bind def
/gr {grestore} bind def
/gs {gsave} bind def
/sa {save} bind def
/rs {restore} bind def
/l {lineto} bind def
/m {moveto} bind def
/rm {rmoveto} bind def
/n {newpath} bind def
/s {stroke} bind def
/sh {show} bind def
/slc {setlinecap} bind def
/slj {setlinejoin} bind def
/slw {setlinewidth} bind def
/srgb {setrgbcolor} bind def
/rot {rotate} bind def
/sc {scale} bind def
/sd {setdash} bind def
/ff {findfont} bind def
/sf {setfont} bind def
/scf {scalefont} bind def
/sw {stringwidth} bind def
/tr {translate} bind def
/tnt {dup dup currentrgbcolor
  4 -2 roll dup 1 exch sub 3 -1 roll mul add
  4 -2 roll dup 1 exch sub 3 -1 roll mul add
  4 -2 roll dup 1 exch sub 3 -1 roll mul add srgb}
  bind def
/shd {dup dup currentrgbcolor 4 -2 roll mul 4 -2 roll mul
  4 -2 roll mul srgb} bind def
/reencdict 12 dict def /ReEncode { reencdict begin
/newcodesandnames exch def /newfontname exch def /basefontname exch def
/basefontdict basefontname findfont def /newfont basefontdict maxlength dict def
basefontdict { exch dup /FID ne { dup /Encoding eq
{ exch dup length array copy newfont 3 1 roll put }
{ exch newfont 3 1 roll put } ifelse } { pop pop } ifelse } forall
newfont /FontName newfontname put newcodesandnames aload pop
128 1 255 { newfont /Encoding get exch /.notdef put } for
newcodesandnames length 2 idiv { newfont /Encoding get 3 1 roll put } repeat
newfontname newfont definefont pop end } def
/isovec [
8#055 /minus 8#200 /grave 8#201 /acute 8#202 /circumflex 8#203 /tilde
8#204 /macron 8#205 /breve 8#206 /dotaccent 8#207 /dieresis
8#210 /ring 8#211 /cedilla 8#212 /hungarumlaut 8#213 /ogonek 8#214 /caron
8#220 /dotlessi 8#230 /oe 8#231 /OE
8#240 /space 8#241 /exclamdown 8#242 /cent 8#243 /sterling
8#244 /currency 8#245 /yen 8#246 /brokenbar 8#247 /section 8#250 /dieresis
8#251 /copyright 8#252 /ordfeminine 8#253 /guillemotleft 8#254 /logicalnot
8#255 /hyphen 8#256 /registered 8#257 /macron 8#260 /degree 8#261 /plusminus
8#262 /twosuperior 8#263 /threesuperior 8#264 /acute 8#265 /mu 8#266 /paragraph
8#267 /periodcentered 8#270 /cedilla 8#271 /onesuperior 8#272 /ordmasculine
8#273 /guillemotright 8#274 /onequarter 8#275 /onehalf
8#276 /threequarters 8#277 /questiondown 8#300 /Agrave 8#301 /Aacute
8#302 /Acircumflex 8#303 /Atilde 8#304 /Adieresis 8#305 /Aring
8#306 /AE 8#307 /Ccedilla 8#310 /Egrave 8#311 /Eacute
8#312 /Ecircumflex 8#313 /Edieresis 8#314 /Igrave 8#315 /Iacute
8#316 /Icircumflex 8#317 /Idieresis 8#320 /Eth 8#321 /Ntilde 8#322 /Ograve
8#323 /Oacute 8#324 /Ocircumflex 8#325 /Otilde 8#326 /Odieresis 8#327 /multiply
8#330 /Oslash 8#331 /Ugrave 8#332 /Uacute 8#333 /Ucircumflex
8#334 /Udieresis 8#335 /Yacute 8#336 /Thorn 8#337 /germandbls 8#340 /agrave
8#341 /aacute 8#342 /acircumflex 8#343 /atilde 8#344 /adieresis 8#345 /aring
8#346 /ae 8#347 /ccedilla 8#350 /egrave 8#351 /eacute
8#352 /ecircumflex 8#353 /edieresis 8#354 /igrave 8#355 /iacute
8#356 /icircumflex 8#357 /idieresis 8#360 /eth 8#361 /ntilde 8#362 /ograve
8#363 /oacute 8#364 /ocircumflex 8#365 /otilde 8#366 /odieresis 8#367 /divide
8#370 /oslash 8#371 /ugrave 8#372 /uacute 8#373 /ucircumflex
8#374 /udieresis 8#375 /yacute 8#376 /thorn 8#377 /ydieresis] def
/Times-Roman /Times-Roman-iso isovec ReEncode
/$F2psBegin {$F2psDict begin /$F2psEnteredState save def} def
/$F2psEnd {$F2psEnteredState restore end} def

/pageheader {
save
newpath 0 422 moveto 0 0 lineto 507 0 lineto 507 422 lineto closepath clip newpath
-422.4 366.4 translate
1 -1 scale
$F2psBegin
10 setmiterlimit
0 slj 0 slc
 0.06299 0.06299 sc
} bind def
/pagefooter {
$F2psEnd
restore
} bind def
%%EndProlog
pageheader
%
% Fig objects follow
%
% 
% here starts figure with depth 50
% Polyline
0 slj
0 slc
7.500 slw
n 6975 3960 m
 6975 4230 l gs col0 s gr 
% Polyline
n 6795 3960 m 7785 3960 l 7785 4230 l 6795 4230 l
 cp gs col0 s gr 
% Polyline
n 8325 4410 m
 8325 4680 l gs col0 s gr 
% Polyline
n 8145 4410 m 9180 4410 l 9180 4680 l 8145 4680 l
 cp gs col0 s gr 
% Polyline
n 7065 1035 m
 7065 1305 l gs col0 s gr 
% Polyline
n 6885 1035 m 7920 1035 l 7920 1305 l 6885 1305 l
 cp gs col0 s gr 
% Polyline
n 9630 1035 m
 9630 1305 l gs col0 s gr 
% Polyline
n 9450 1035 m 10485 1035 l 10485 1305 l 9450 1305 l
 cp gs col0 s gr 
% Polyline
n 9765 3960 m
 9765 4230 l gs col0 s gr 
% Polyline
n 9585 3960 m 10575 3960 l 10575 4230 l 9585 4230 l
 cp gs col0 s gr 
% Polyline
n 7785 4905 m
 7785 5175 l gs col0 s gr 
% Polyline
n 7605 4905 m 8640 4905 l 8640 5175 l 7605 5175 l
 cp gs col0 s gr 
% Polyline
n 8955 4905 m
 8955 5175 l gs col0 s gr 
% Polyline
n 8775 4905 m 9810 4905 l 9810 5175 l 8775 5175 l
 cp gs col0 s gr 
% Polyline
 [15 45] 45 sd
gs  clippath
8172 -361 m 8306 -429 l 8280 -483 l 8145 -415 l 8145 -415 l 8266 -442 l 8172 -361 l cp
eoclip
n 7830 -225 m
 8280 -450 l gs col0 s gr gr
 [] 0 sd
% arrowhead
n 8172 -361 m 8266 -442 l 8145 -415 l 8172 -361 l  cp gs 0.00 setgray ef gr  col0 s
% Polyline
 [15 45] 45 sd
gs  clippath
8140 -54 m 8285 -11 l 8302 -69 l 8157 -112 l 8157 -112 l 8264 -49 l 8140 -54 l cp
eoclip
n 7830 -180 m
 8280 -45 l gs col0 s gr gr
 [] 0 sd
% arrowhead
n 8140 -54 m 8264 -49 l 8157 -112 l 8140 -54 l  cp gs 0.00 setgray ef gr  col0 s
% Polyline
45.000 slw
n 6795 945 m
 8055 1395 l gs col4 s gr 
% Polyline
n 6750 1395 m
 8010 945 l gs col4 s gr 
% Polyline
n 9360 945 m
 10620 1395 l gs col4 s gr 
% Polyline
n 9315 1395 m
 10575 945 l gs col4 s gr 
% Polyline
n 8055 4320 m
 9315 4770 l gs col4 s gr 
% Polyline
n 8010 4770 m
 9270 4320 l gs col4 s gr 
% Polyline
7.500 slw
n 7200 1350 m
 8550 4320 l gs col0 s gr 
% Polyline
n 8827 4323 m
 10177 1353 l gs col0 s gr 
% Polyline
n 7110 3915 m
 8550 2790 l gs col0 s gr 
% Polyline
n 8820 2790 m
 10260 3915 l gs col0 s gr 
% Polyline
n 7965 1170 m
 9405 1170 l gs col0 s gr 
% Polyline
n 8685 2340 m
 8685 405 l gs col0 s gr 
% Polyline
n 8685 0 m
 8685 -540 l gs col0 s gr 
% Polyline
n 10242 4284 m
 10692 5184 l gs col0 s gr 
% Polyline
 [15 45] 45 sd
gs  clippath
9345 430 m 9234 327 l 9193 371 l 9304 474 l 9304 474 l 9237 371 l 9345 430 l cp
eoclip
n 9855 945 m
 9225 360 l gs col0 s gr gr
 [] 0 sd
% arrowhead
n 9345 430 m 9237 371 l 9304 474 l 9345 430 l  cp gs 0.00 setgray ef gr  col0 s
% Polyline
 [15 45] 45 sd
gs  clippath
8943 2224 m 8833 2328 l 8874 2372 l 8984 2267 l 8984 2267 l 8877 2329 l 8943 2224 l cp
eoclip
n 9855 1395 m
 8865 2340 l gs col0 s gr gr
 [] 0 sd
% arrowhead
n 8943 2224 m 8877 2329 l 8984 2267 l 8943 2224 l  cp gs 0.00 setgray ef gr  col0 s
% Polyline
 [15 45] 45 sd
gs  clippath
8715 2926 m 8715 2775 l 8655 2775 l 8655 2926 l 8655 2926 l 8685 2806 l 8715 2926 l cp
eoclip
n 8685 4320 m
 8685 2790 l gs col0 s gr gr
 [] 0 sd
% arrowhead
n 8715 2926 m 8685 2806 l 8655 2926 l 8715 2926 l  cp gs 0.00 setgray ef gr  col0 s
% Polyline
 [15 45] 45 sd
gs  clippath
9432 4182 m 9566 4115 l 9540 4061 l 9405 4128 l 9405 4128 l 9526 4102 l 9432 4182 l cp
eoclip
n 9090 4320 m
 9540 4095 l gs col0 s gr gr
 [] 0 sd
% arrowhead
n 9432 4182 m 9526 4102 l 9405 4128 l 9432 4182 l  cp gs 0.00 setgray ef gr  col0 s
% Polyline
 [15 45] 45 sd
gs  clippath
6945 3734 m 6945 3885 l 7005 3885 l 7005 3734 l 7005 3734 l 6975 3854 l 6945 3734 l cp
eoclip
n 6975 1350 m
 6975 3870 l gs col0 s gr gr
 [] 0 sd
% arrowhead
n 6945 3734 m 6975 3854 l 7005 3734 l 6945 3734 l  cp gs 0.00 setgray ef gr  col0 s
% Polyline
 [15 45] 45 sd
gs  clippath
8385 2267 m 8495 2372 l 8536 2328 l 8426 2224 l 8426 2224 l 8493 2329 l 8385 2267 l cp
eoclip
n 7515 1395 m
 8505 2340 l gs col0 s gr gr
 [] 0 sd
% arrowhead
n 8385 2267 m 8493 2329 l 8426 2224 l 8385 2267 l  cp gs 0.00 setgray ef gr  col0 s
% Polyline
n 7875 5805 m
 8145 5220 l gs col0 s gr 
% Polyline
n 9540 5805 m
 9270 5220 l gs col0 s gr 
% Polyline
 [15 45] 45 sd
gs  clippath
7531 4364 m 7439 4244 l 7392 4281 l 7484 4401 l 7484 4401 l 7435 4288 l 7531 4364 l cp
eoclip
n 7875 4860 m
 7425 4275 l gs col0 s gr gr
 [] 0 sd
% arrowhead
n 7531 4364 m 7435 4288 l 7484 4401 l 7531 4364 l  cp gs 0.00 setgray ef gr  col0 s
% Polyline
 [15 45] 45 sd
gs  clippath
7221 5046 m 7083 5108 l 7108 5163 l 7246 5100 l 7246 5100 l 7125 5123 l 7221 5046 l cp
eoclip
n 7605 4905 m
 7110 5130 l gs col0 s gr gr
 [] 0 sd
% arrowhead
n 7221 5046 m 7125 5123 l 7246 5100 l 7221 5046 l  cp gs 0.00 setgray ef gr  col0 s
% Polyline
n 6840 5175 m
 7290 4275 l gs col0 s gr 
% Polyline
 [15 45] 45 sd
gs  clippath
9892 4403 m 9978 4279 l 9928 4245 l 9843 4369 l 9843 4369 l 9936 4288 l 9892 4403 l cp
eoclip
n 9540 4860 m
 9945 4275 l gs col0 s gr gr
 [] 0 sd
% arrowhead
n 9892 4403 m 9936 4288 l 9843 4369 l 9892 4403 l  cp gs 0.00 setgray ef gr  col0 s
% Polyline
 [15 45] 45 sd
gs  clippath
10257 5108 m 10398 5163 l 10419 5107 l 10278 5052 l 10278 5052 l 10380 5124 l 10257 5108 l cp
eoclip
n 9810 4905 m
 10395 5130 l gs col0 s gr gr
 [] 0 sd
% arrowhead
n 10257 5108 m 10380 5124 l 10278 5052 l 10257 5108 l  cp gs 0.00 setgray ef gr  col0 s
% Polyline
n 8370 45 m
 8370 315 l gs col0 s gr 
% Polyline
n 8190 45 m 9180 45 l 9180 315 l 8190 315 l
 cp gs col0 s gr 
% Polyline
n 8190 -855 m 9180 -855 l 9180 -585 l 8190 -585 l
 cp gs col0 s gr 
% Polyline
n 8370 -855 m
 8370 -585 l gs col0 s gr 
% Polyline
n 8370 2430 m
 8370 2700 l gs col0 s gr 
% Polyline
n 8190 2430 m 9180 2430 l 9180 2700 l 8190 2700 l
 cp gs col0 s gr 
% Polyline
45.000 slw
n 13185 4410 m
 13860 4410 l gs col4 s gr 
% Polyline
n 13050 3150 m
 13725 3150 l gs col4 s gr 
% Polyline
n 12240 4140 m
 12915 4140 l gs col4 s gr 
% Polyline
n 12240 4410 m
 12915 4410 l gs col4 s gr 
/Times-Roman-iso ff 190.50 scf sf
6840 4140 m
gs 1 -1 sc (1) col0 sh gr
/Times-Roman-iso ff 190.50 scf sf
7020 4140 m
gs 1 -1 sc (AT\(p,a1\)) col0 sh gr
/Times-Roman-iso ff 190.50 scf sf
8190 4590 m
gs 1 -1 sc (5) col0 sh gr
/Times-Roman-iso ff 190.50 scf sf
8341 4593 m
gs 1 -1 sc (AT\(ap,a3\)) col0 sh gr
/Times-Roman-iso ff 190.50 scf sf
6930 1215 m
gs 1 -1 sc (5) col0 sh gr
/Times-Roman-iso ff 190.50 scf sf
7081 1218 m
gs 1 -1 sc (AT\(ap,a1\)) col0 sh gr
/Times-Roman-iso ff 190.50 scf sf
9495 1215 m
gs 1 -1 sc (5) col0 sh gr
/Times-Roman-iso ff 190.50 scf sf
9646 1218 m
gs 1 -1 sc (AT\(ap,a2\)) col0 sh gr
/Times-Roman-iso ff 190.50 scf sf
9630 4140 m
gs 1 -1 sc (1) col0 sh gr
/Times-Roman-iso ff 190.50 scf sf
9810 4140 m
gs 1 -1 sc (AT\(p,a3\)) col0 sh gr
/Times-Roman-iso ff 190.50 scf sf
7830 5085 m
gs 1 -1 sc (AT\(t1,a1\)) col0 sh gr
/Times-Roman-iso ff 190.50 scf sf
7650 5085 m
gs 1 -1 sc (2) col0 sh gr
/Times-Roman-iso ff 190.50 scf sf
8820 5085 m
gs 1 -1 sc (4) col0 sh gr
/Times-Roman-iso ff 190.50 scf sf
9000 5085 m
gs 1 -1 sc (AT\(t3,a3\)) col0 sh gr
/Times-Roman-iso ff 190.50 scf sf
10845 4245 m
gs 1 -1 sc (Precondition) col0 sh gr
/Times-Roman-iso ff 190.50 scf sf
10845 4005 m
gs 1 -1 sc (Action) col0 sh gr
/Times-Roman-iso ff 190.50 scf sf
10845 4500 m
gs 1 -1 sc (Effect      ) col0 sh gr
/Times-Roman-iso ff 190.50 scf sf
10845 3255 m
gs 1 -1 sc (Precondition) col0 sh gr
/Times-Roman-iso ff 190.50 scf sf
10845 3015 m
gs 1 -1 sc (Action) col0 sh gr
/Times-Roman-iso ff 190.50 scf sf
10845 3510 m
gs 1 -1 sc (Effect      ) col0 sh gr
/Times-Roman-iso ff 190.50 scf sf
10845 2175 m
gs 1 -1 sc (Precondition) col0 sh gr
/Times-Roman-iso ff 190.50 scf sf
10845 1935 m
gs 1 -1 sc (Action) col0 sh gr
/Times-Roman-iso ff 190.50 scf sf
10845 2430 m
gs 1 -1 sc (Effect      ) col0 sh gr
/Times-Roman-iso ff 190.50 scf sf
10845 1185 m
gs 1 -1 sc (Precondition) col0 sh gr
/Times-Roman-iso ff 190.50 scf sf
10845 945 m
gs 1 -1 sc (Action) col0 sh gr
/Times-Roman-iso ff 190.50 scf sf
10845 1440 m
gs 1 -1 sc (Effect      ) col0 sh gr
/Times-Roman-iso ff 190.50 scf sf
8235 225 m
gs 1 -1 sc (1) col0 sh gr
/Times-Roman-iso ff 190.50 scf sf
8415 225 m
gs 1 -1 sc (AT\(p,a2\)) col0 sh gr
/Times-Roman-iso ff 190.50 scf sf
8235 -675 m
gs 1 -1 sc (1) col0 sh gr
/Times-Roman-iso ff 190.50 scf sf
8235 2610 m
gs 1 -1 sc (1) col0 sh gr
/Times-Roman-iso ff 190.50 scf sf
8415 2610 m
gs 1 -1 sc (IN\(p,ap\)) col0 sh gr
/Times-Roman-iso ff 190.50 scf sf
8415 -675 m
gs 1 -1 sc (IN\(p,t2\)) col0 sh gr
/Times-Roman-iso ff 190.50 scf sf
11970 1935 m
gs 1 -1 sc (: Drive\(t2,c2,a1\)) col0 sh gr
/Times-Roman-iso ff 190.50 scf sf
11970 2160 m
gs 1 -1 sc (: {AT\(t2,c2\),CONNECTED\(c2,a2\)}) col0 sh gr
/Times-Roman-iso ff 190.50 scf sf
11970 2430 m
gs 1 -1 sc (: {-AT\(t2,c2\),AT\(t2,a2\)}) col0 sh gr
/Times-Roman-iso ff 190.50 scf sf
11970 3015 m
gs 1 -1 sc (: Load\(p,a2,ap\)) col0 sh gr
/Times-Roman-iso ff 190.50 scf sf
11970 3240 m
gs 1 -1 sc (: {AT\(p,a2\),AT\(ap,a2\)}) col0 sh gr
/Times-Roman-iso ff 190.50 scf sf
11970 3510 m
gs 1 -1 sc (: {-AT\(p,a2\),IN\(p,ap\)}) col0 sh gr
/Times-Roman-iso ff 190.50 scf sf
11970 4005 m
gs 1 -1 sc (: Fly\(ap,a2,a1\)) col0 sh gr
/Times-Roman-iso ff 190.50 scf sf
11970 4230 m
gs 1 -1 sc (: {AT\(ap,a2\),CONNECTED\(a2,a1\)}) col0 sh gr
/Times-Roman-iso ff 190.50 scf sf
11970 4500 m
gs 1 -1 sc (: {-AT\(ap,a2\),AT\(ap,a1\)}) col0 sh gr
/Times-Roman-iso ff 190.50 scf sf
11970 1170 m
gs 1 -1 sc (: {AT\(p,c2\),AT\(t2,c2\)}) col0 sh gr
/Times-Roman-iso ff 190.50 scf sf
11970 945 m
gs 1 -1 sc (: Load\(p,c2,t2\)) col0 sh gr
/Times-Roman-iso ff 190.50 scf sf
11970 1440 m
gs 1 -1 sc (: {-AT\(p,c2\),IN\(p,t2\)}) col0 sh gr
% here ends figure;
pagefooter
showpage
%%Trailer
%EOF
