%!PS-Adobe-3.0 EPSF-3.0
%%Title: loopremoval.fig
%%Creator: fig2dev Version 3.2 Patchlevel 5d
%%CreationDate: Thu May 23 13:52:07 2013
%%BoundingBox: 0 0 515 271
%Magnification: 1.0000
%%EndComments
%%BeginProlog
/$F2psDict 200 dict def
$F2psDict begin
$F2psDict /mtrx matrix put
/col-1 {0 setgray} bind def
/col0 {0.000 0.000 0.000 srgb} bind def
/col1 {0.000 0.000 1.000 srgb} bind def
/col2 {0.000 1.000 0.000 srgb} bind def
/col3 {0.000 1.000 1.000 srgb} bind def
/col4 {1.000 0.000 0.000 srgb} bind def
/col5 {1.000 0.000 1.000 srgb} bind def
/col6 {1.000 1.000 0.000 srgb} bind def
/col7 {1.000 1.000 1.000 srgb} bind def
/col8 {0.000 0.000 0.560 srgb} bind def
/col9 {0.000 0.000 0.690 srgb} bind def
/col10 {0.000 0.000 0.820 srgb} bind def
/col11 {0.530 0.810 1.000 srgb} bind def
/col12 {0.000 0.560 0.000 srgb} bind def
/col13 {0.000 0.690 0.000 srgb} bind def
/col14 {0.000 0.820 0.000 srgb} bind def
/col15 {0.000 0.560 0.560 srgb} bind def
/col16 {0.000 0.690 0.690 srgb} bind def
/col17 {0.000 0.820 0.820 srgb} bind def
/col18 {0.560 0.000 0.000 srgb} bind def
/col19 {0.690 0.000 0.000 srgb} bind def
/col20 {0.820 0.000 0.000 srgb} bind def
/col21 {0.560 0.000 0.560 srgb} bind def
/col22 {0.690 0.000 0.690 srgb} bind def
/col23 {0.820 0.000 0.820 srgb} bind def
/col24 {0.500 0.190 0.000 srgb} bind def
/col25 {0.630 0.250 0.000 srgb} bind def
/col26 {0.750 0.380 0.000 srgb} bind def
/col27 {1.000 0.500 0.500 srgb} bind def
/col28 {1.000 0.630 0.630 srgb} bind def
/col29 {1.000 0.750 0.750 srgb} bind def
/col30 {1.000 0.880 0.880 srgb} bind def
/col31 {1.000 0.840 0.000 srgb} bind def

end

/cp {closepath} bind def
/ef {eofill} bind def
/gr {grestore} bind def
/gs {gsave} bind def
/sa {save} bind def
/rs {restore} bind def
/l {lineto} bind def
/m {moveto} bind def
/rm {rmoveto} bind def
/n {newpath} bind def
/s {stroke} bind def
/sh {show} bind def
/slc {setlinecap} bind def
/slj {setlinejoin} bind def
/slw {setlinewidth} bind def
/srgb {setrgbcolor} bind def
/rot {rotate} bind def
/sc {scale} bind def
/sd {setdash} bind def
/ff {findfont} bind def
/sf {setfont} bind def
/scf {scalefont} bind def
/sw {stringwidth} bind def
/tr {translate} bind def
/tnt {dup dup currentrgbcolor
  4 -2 roll dup 1 exch sub 3 -1 roll mul add
  4 -2 roll dup 1 exch sub 3 -1 roll mul add
  4 -2 roll dup 1 exch sub 3 -1 roll mul add srgb}
  bind def
/shd {dup dup currentrgbcolor 4 -2 roll mul 4 -2 roll mul
  4 -2 roll mul srgb} bind def
/$F2psBegin {$F2psDict begin /$F2psEnteredState save def} def
/$F2psEnd {$F2psEnteredState restore end} def

/pageheader {
save
newpath 0 271 moveto 0 0 lineto 515 0 lineto 515 271 lineto closepath clip newpath
-107.0 332.4 translate
1 -1 scale
$F2psBegin
10 setmiterlimit
0 slj 0 slc
 0.06299 0.06299 sc
} bind def
/pagefooter {
$F2psEnd
restore
} bind def
%%EndProlog
pageheader
%
% Fig objects follow
%
% 
% here starts figure with depth 50
% Polyline
0 slj
0 slc
7.500 slw
n 4770 4725 m
 4770 5040 l gs col0 s gr 
% Polyline
n 7155 4725 m
 7155 5040 l gs col0 s gr 
% Polyline
n 4770 4860 m
 7155 4860 l gs col0 s gr 
% Polyline
n 1710 990 m 9855 990 l 9855 3105 l 1710 3105 l
 cp gs col0 s gr 
% Polyline
n 1710 3150 m 9855 3150 l 9855 5265 l 1710 5265 l
 cp gs col0 s gr 
% Polyline
n 2385 4725 m
 2385 5040 l gs col0 s gr 
% Polyline
n 4770 4725 m
 4770 5040 l gs col0 s gr 
% Polyline
n 2385 4860 m
 4770 4860 l gs col0 s gr 
% Polyline
n 2385 2565 m
 2385 2880 l gs col0 s gr 
% Polyline
n 4770 2565 m
 4770 2880 l gs col0 s gr 
% Polyline
n 2385 2700 m
 4770 2700 l gs col0 s gr 
% Polyline
n 7155 2565 m
 7155 2880 l gs col0 s gr 
% Polyline
n 4770 2700 m
 7155 2700 l gs col0 s gr 
% Polyline
n 9540 2565 m
 9540 2880 l gs col0 s gr 
% Polyline
n 7155 2700 m
 9540 2700 l gs col0 s gr 
/Times-Roman ff 190.50 scf sf
6480 4545 m
gs 1 -1 sc (Goal State) col0 sh gr
/Times-Roman ff 190.50 scf sf
4860 5085 m
gs 1 -1 sc (actNM1, "NM2, ..., "NMZ) col0 sh gr
/Times-Roman ff 190.50 scf sf
4545 4545 m
gs 1 -1 sc (State N) col0 sh gr
/Times-Roman ff 190.50 scf sf
2115 4545 m
gs 1 -1 sc (Initial State) col0 sh gr
/Times-Roman ff 190.50 scf sf
2565 5085 m
gs 1 -1 sc (act1, act2, ..., actN) col0 sh gr
/Times-Roman ff 190.50 scf sf
1800 1305 m
gs 1 -1 sc (Suppose the following action sequence is a plan:) col0 sh gr
/Times-Roman ff 190.50 scf sf
2115 1800 m
gs 1 -1 sc (act1, act2, .., actN, actN1, actN2, .., actNM, actNM1, actNM2, .., actNMZ) col0 sh gr
/Times-Roman ff 190.50 scf sf
4545 2385 m
gs 1 -1 sc (State N) col0 sh gr
/Times-Roman ff 190.50 scf sf
8865 2385 m
gs 1 -1 sc (Goal State) col0 sh gr
/Times-Roman ff 190.50 scf sf
2115 2385 m
gs 1 -1 sc (Initial State) col0 sh gr
/Times-Roman ff 190.50 scf sf
2565 2925 m
gs 1 -1 sc (act1, act2, ..., actN) col0 sh gr
/Times-Roman ff 190.50 scf sf
4905 2925 m
gs 1 -1 sc (actN1, actN2, ..., actNM) col0 sh gr
/Times-Roman ff 190.50 scf sf
7245 2925 m
gs 1 -1 sc (actNM1, "NM2, ..., "NMZ) col0 sh gr
/Times-Roman ff 190.50 scf sf
6480 2385 m
gs 1 -1 sc (State N is repeated) col0 sh gr
/Times-Roman ff 190.50 scf sf
2115 3960 m
gs 1 -1 sc (act1, act2, .., actN, actN1, actNM1, actNM2, .., actNMZ) col0 sh gr
/Times-Roman ff 190.50 scf sf
1800 3465 m
gs 1 -1 sc (The following shorter action sequence is also a plan:) col0 sh gr
% here ends figure;
pagefooter
showpage
%%Trailer
%EOF
