#FIG 3.2  Produced by xfig version 3.2.5b
Landscape
Center
Metric
A4      
100.00
Single
-2
1200 2
6 7830 -1395 8280 -990
2 1 2 1 0 7 50 -1 -1 3.000 0 0 -1 1 0 2
	1 1 1.00 60.00 120.00
	 7830 -1170 8280 -1395
2 1 2 1 0 7 50 -1 -1 3.000 0 0 -1 1 0 2
	1 1 1.00 60.00 120.00
	 7830 -1125 8280 -990
-6
6 7830 -450 8280 -45
2 1 2 1 0 7 50 -1 -1 3.000 0 0 -1 1 0 2
	1 1 1.00 60.00 120.00
	 7830 -225 8280 -450
2 1 2 1 0 7 50 -1 -1 3.000 0 0 -1 1 0 2
	1 1 1.00 60.00 120.00
	 7830 -180 8280 -45
-6
2 1 0 1 0 7 50 -1 -1 0.000 0 0 -1 0 0 2
	 6210 6435 6660 5535
2 1 0 1 0 7 50 -1 -1 0.000 0 0 -1 0 0 2
	 7200 1350 8550 4320
2 1 0 1 0 7 50 -1 -1 0.000 0 0 -1 0 0 2
	 8827 4323 10177 1353
2 1 0 1 0 7 50 -1 -1 0.000 0 0 -1 0 0 2
	 7110 3915 8550 2790
2 1 0 1 0 7 50 -1 -1 0.000 0 0 -1 0 0 2
	 8820 2790 10260 3915
2 1 0 1 0 7 50 -1 -1 0.000 0 0 -1 0 0 2
	 7965 1170 9405 1170
2 1 0 1 0 7 50 -1 -1 0.000 0 0 -1 0 0 2
	 8685 2340 8685 405
2 1 0 1 0 7 50 -1 -1 0.000 0 0 -1 0 0 2
	 8685 0 8685 -540
2 1 0 1 0 7 50 -1 -1 0.000 0 0 -1 0 0 2
	 8685 -900 8685 -1440
2 1 0 1 0 7 50 -1 -1 0.000 0 0 -1 0 0 2
	 10917 5544 11367 6444
2 1 0 1 0 7 50 -1 -1 0.000 0 0 -1 0 0 2
	 10242 4284 10692 5184
2 1 2 1 0 7 50 -1 -1 3.000 0 0 -1 1 0 2
	1 1 1.00 60.00 120.00
	 9855 945 9225 360
2 1 2 1 0 7 50 -1 -1 3.000 0 0 -1 1 0 2
	1 1 1.00 60.00 120.00
	 9855 1395 8865 2340
2 1 2 1 0 7 50 -1 -1 3.000 0 0 -1 1 0 2
	1 1 1.00 60.00 120.00
	 8685 4320 8685 2790
2 1 2 1 0 7 50 -1 -1 3.000 0 0 -1 1 0 2
	1 1 1.00 60.00 120.00
	 9090 4320 9540 4095
2 1 2 1 0 7 50 -1 -1 3.000 0 0 -1 1 0 2
	1 1 1.00 60.00 120.00
	 6975 1350 6975 3870
2 1 2 1 0 7 50 -1 -1 3.000 0 0 -1 1 0 2
	1 1 1.00 60.00 120.00
	 7515 1395 8505 2340
2 1 0 1 0 7 50 -1 -1 3.000 0 0 -1 0 0 2
	 7875 5805 8145 5220
2 1 0 1 0 7 50 -1 -1 3.000 0 0 -1 0 0 2
	 9540 5805 9270 5220
2 1 0 1 0 7 50 -1 -1 0.000 0 0 -1 0 0 2
	 7200 -405 7200 -945
2 1 2 1 0 7 50 -1 -1 3.000 0 0 -1 1 0 2
	1 1 1.00 60.00 120.00
	 7875 4860 7425 4275
2 1 2 1 0 7 50 -1 -1 3.000 0 0 -1 1 0 2
	1 1 1.00 60.00 120.00
	 7605 4905 7110 5130
2 1 0 1 0 7 50 -1 -1 0.000 0 0 -1 0 0 2
	 6840 5175 7290 4275
2 1 2 1 0 7 50 -1 -1 3.000 0 0 -1 1 0 2
	1 1 1.00 60.00 120.00
	 9540 4860 9945 4275
2 1 2 1 0 7 50 -1 -1 3.000 0 0 -1 1 0 2
	1 1 1.00 60.00 120.00
	 9810 4905 10395 5130
2 1 2 1 0 7 50 -1 -1 3.000 0 0 -1 1 0 2
	1 1 1.00 60.00 120.00
	 7830 5805 7290 5535
2 1 2 1 0 7 50 -1 -1 3.000 0 0 -1 1 0 2
	1 1 1.00 60.00 120.00
	 9585 5805 10125 5535
2 1 2 1 0 7 50 -1 -1 3.000 0 0 -1 1 0 2
	1 1 1.00 60.00 120.00
	 10170 5985 10800 6435
2 1 2 1 0 7 50 -1 -1 3.000 0 0 -1 1 0 2
	1 1 1.00 60.00 120.00
	 7245 5985 6570 6435
2 1 2 1 0 7 50 -1 -1 3.000 0 0 -1 1 0 2
	1 1 1.00 60.00 120.00
	 9495 -1305 9855 -1305
2 1 0 1 0 7 50 -1 -1 3.000 0 0 -1 0 0 2
	 9495 -1125 9810 -1125
2 1 0 1 0 7 50 -1 -1 3.000 0 0 -1 0 0 2
	 9450 -1440 11475 -1440
2 1 0 1 0 7 50 -1 -1 0.000 0 0 -1 0 0 2
	 6885 -1305 6885 -1035
2 2 0 1 0 7 50 -1 -1 0.000 0 0 -1 0 0 5
	 6705 -1305 7740 -1305 7740 -1035 6705 -1035 6705 -1305
2 1 0 1 0 7 50 -1 -1 0.000 0 0 -1 0 0 2
	 8370 45 8370 315
2 2 0 1 0 7 50 -1 -1 0.000 0 0 -1 0 0 5
	 8190 45 9180 45 9180 315 8190 315 8190 45
2 2 0 1 0 7 50 -1 -1 0.000 0 0 -1 0 0 5
	 8190 -855 9180 -855 9180 -585 8190 -585 8190 -855
2 1 0 1 0 7 50 -1 -1 0.000 0 0 -1 0 0 2
	 8370 -855 8370 -585
2 1 0 1 0 7 50 -1 -1 0.000 0 0 -1 0 0 2
	 6435 5220 6435 5490
2 2 0 1 0 7 50 -1 -1 0.000 0 0 -1 0 0 5
	 6255 5220 7245 5220 7245 5490 6255 5490 6255 5220
2 2 0 1 0 7 50 -1 -1 0.000 0 0 -1 0 0 5
	 10170 5220 11160 5220 11160 5490 10170 5490 10170 5220
2 1 0 1 0 7 50 -1 -1 0.000 0 0 -1 0 0 2
	 8370 2430 8370 2700
2 2 0 1 0 7 50 -1 -1 0.000 0 0 -1 0 0 5
	 8190 2430 9180 2430 9180 2700 8190 2700 8190 2430
2 1 0 1 0 7 50 -1 -1 0.000 0 0 -1 0 0 2
	 10350 5220 10350 5490
2 2 0 1 0 7 50 -1 -1 0.000 0 0 -1 0 0 5
	 9450 -1710 11475 -1710 11475 -855 9450 -855 9450 -1710
2 1 0 1 0 7 50 -1 -1 0.000 0 0 -1 0 0 2
	 8370 -1755 8370 -1485
2 2 0 1 0 7 50 -1 -1 0.000 0 0 -1 0 0 5
	 8190 -1755 9180 -1755 9180 -1485 8190 -1485 8190 -1755
2 2 0 1 4 4 50 -1 41 0.000 0 0 -1 0 0 5
	 8190 -1755 8370 -1755 8370 -1485 8190 -1485 8190 -1755
2 2 0 1 4 4 50 -1 41 0.000 0 0 -1 0 0 5
	 8190 -855 8370 -855 8370 -585 8190 -585 8190 -855
2 2 0 1 4 4 50 -1 41 0.000 0 0 -1 0 0 5
	 8190 45 8370 45 8370 315 8190 315 8190 45
2 2 0 1 4 4 50 -1 41 0.000 0 0 -1 0 0 5
	 8190 2430 8370 2430 8370 2700 8190 2700 8190 2430
2 2 0 1 4 4 50 -1 41 0.000 0 0 -1 0 0 5
	 6795 3960 6975 3960 6975 4230 6795 4230 6795 3960
2 2 0 1 4 4 50 -1 41 0.000 0 0 -1 0 0 5
	 9585 3960 9765 3960 9765 4230 9585 4230 9585 3960
2 2 0 1 4 4 50 -1 41 0.000 0 0 -1 0 0 5
	 6255 5220 6435 5220 6435 5490 6255 5490 6255 5220
2 2 0 1 4 4 50 -1 41 0.000 0 0 -1 0 0 5
	 10170 5220 10350 5220 10350 5490 10170 5490 10170 5220
2 2 0 1 4 4 50 -1 41 0.000 0 0 -1 0 0 5
	 5580 6480 5760 6480 5760 6750 5580 6750 5580 6480
2 2 0 1 4 4 50 -1 41 0.000 0 0 -1 0 0 5
	 10845 6480 11025 6480 11025 6750 10845 6750 10845 6480
2 1 0 1 0 7 50 -1 -1 0.000 0 0 -1 0 0 2
	 6975 3960 6975 4230
2 2 0 1 0 7 50 -1 -1 0.000 0 0 -1 0 0 5
	 6795 3960 7785 3960 7785 4230 6795 4230 6795 3960
2 2 0 1 2 2 50 -1 41 0.000 0 0 -1 0 0 5
	 6885 1035 7065 1035 7065 1305 6885 1305 6885 1035
2 2 0 1 2 2 50 -1 41 0.000 0 0 -1 0 0 5
	 9450 1035 9630 1035 9630 1305 9450 1305 9450 1035
2 2 0 1 2 2 50 -1 41 0.000 0 0 -1 0 0 5
	 8145 4410 8325 4410 8325 4680 8145 4680 8145 4410
2 2 0 1 1 1 50 -1 41 0.000 0 0 -1 0 0 5
	 6705 -1305 6885 -1305 6885 -1035 6705 -1035 6705 -1305
2 1 0 1 0 7 50 -1 -1 0.000 0 0 -1 0 0 2
	 6885 -360 6885 -90
2 2 0 1 0 7 50 -1 -1 0.000 0 0 -1 0 0 5
	 6705 -360 7740 -360 7740 -90 6705 -90 6705 -360
2 2 0 1 1 1 50 -1 41 0.000 0 0 -1 0 0 5
	 6705 -360 6885 -360 6885 -90 6705 -90 6705 -360
2 2 0 1 26 26 50 -1 41 0.000 0 0 -1 0 0 5
	 7605 4905 7785 4905 7785 5175 7605 5175 7605 4905
2 2 0 1 26 26 50 -1 41 0.000 0 0 -1 0 0 5
	 7290 5850 7470 5850 7470 6120 7290 6120 7290 5850
2 2 0 1 15 15 50 -1 41 0.000 0 0 -1 0 0 5
	 8775 4905 8955 4905 8955 5175 8775 5175 8775 4905
2 2 0 1 15 15 50 -1 41 0.000 0 0 -1 0 0 5
	 9090 5850 9270 5850 9270 6120 9090 6120 9090 5850
2 1 0 1 0 7 50 -1 -1 0.000 0 0 -1 0 0 2
	 7065 1035 7065 1305
2 2 0 1 0 7 50 -1 -1 0.000 0 0 -1 0 0 5
	 6885 1035 7920 1035 7920 1305 6885 1305 6885 1035
2 1 0 1 0 7 50 -1 -1 0.000 0 0 -1 0 0 2
	 9630 1035 9630 1305
2 2 0 1 0 7 50 -1 -1 0.000 0 0 -1 0 0 5
	 9450 1035 10485 1035 10485 1305 9450 1305 9450 1035
2 1 0 1 0 7 50 -1 -1 0.000 0 0 -1 0 0 2
	 8325 4410 8325 4680
2 2 0 1 0 7 50 -1 -1 0.000 0 0 -1 0 0 5
	 8145 4410 9180 4410 9180 4680 8145 4680 8145 4410
2 1 0 1 0 7 50 -1 -1 0.000 0 0 -1 0 0 2
	 7785 4905 7785 5175
2 2 0 1 0 7 50 -1 -1 0.000 0 0 -1 0 0 5
	 7605 4905 8640 4905 8640 5175 7605 5175 7605 4905
2 1 0 1 0 7 50 -1 -1 0.000 0 0 -1 0 0 2
	 8955 4905 8955 5175
2 2 0 1 0 7 50 -1 -1 0.000 0 0 -1 0 0 5
	 8775 4905 9810 4905 9810 5175 8775 5175 8775 4905
2 1 0 1 0 7 50 -1 -1 0.000 0 0 -1 0 0 2
	 7470 5850 7470 6120
2 2 0 1 0 7 50 -1 -1 0.000 0 0 -1 0 0 5
	 7290 5850 8325 5850 8325 6120 7290 6120 7290 5850
2 1 0 1 0 7 50 -1 -1 0.000 0 0 -1 0 0 2
	 9270 5850 9270 6120
2 2 0 1 0 7 50 -1 -1 0.000 0 0 -1 0 0 5
	 9090 5850 10125 5850 10125 6120 9090 6120 9090 5850
2 1 0 1 0 7 50 -1 -1 0.000 0 0 -1 0 0 2
	 9765 3960 9765 4230
2 2 0 1 0 7 50 -1 -1 0.000 0 0 -1 0 0 5
	 9585 3960 10575 3960 10575 4230 9585 4230 9585 3960
2 1 0 1 0 7 50 -1 -1 0.000 0 0 -1 0 0 2
	 11025 6480 11025 6750
2 2 0 1 0 7 50 -1 -1 0.000 0 0 -1 0 0 5
	 10845 6480 11835 6480 11835 6750 10845 6750 10845 6480
2 1 0 1 0 7 50 -1 -1 0.000 0 0 -1 0 0 2
	 5760 6480 5760 6750
2 2 0 1 0 7 50 -1 -1 0.000 0 0 -1 0 0 5
	 5580 6480 6570 6480 6570 6750 5580 6750 5580 6480
4 0 0 50 -1 0 12 0.0000 4 180 390 9495 -1530 Key:\001
4 0 0 50 -1 0 12 0.0000 4 135 1050 9945 -1260 : directed arc\001
4 0 0 50 -1 0 12 0.0000 4 135 1275 9945 -1035 : bi-directed arc\001
4 0 0 50 -1 0 12 0.0000 4 135 105 8235 -1575 1\001
4 0 0 50 -1 0 12 0.0000 4 180 720 8415 -1575 AT(p,c2)\001
4 0 0 50 -1 0 12 0.0000 4 135 105 6750 -1125 3\001
4 0 0 50 -1 0 12 0.0000 4 135 105 6750 -180 3\001
4 0 0 50 -1 0 12 0.0000 4 135 105 8235 225 1\001
4 0 0 50 -1 0 12 0.0000 4 180 720 8415 225 AT(p,a2)\001
4 0 0 50 -1 0 12 0.0000 4 135 105 8235 -675 1\001
4 0 0 50 -1 0 12 0.0000 4 135 105 6300 5400 1\001
4 0 0 50 -1 0 12 0.0000 4 135 105 8235 2610 1\001
4 0 0 50 -1 0 12 0.0000 4 180 660 8415 2610 IN(p,ap)\001
4 0 0 50 -1 0 12 0.0000 4 180 630 8415 -675 IN(p,t2)\001
4 0 0 50 -1 0 12 0.0000 4 135 105 10215 5400 1\001
4 0 0 50 -1 0 12 0.0000 4 180 630 10395 5400 IN(p,t3)\001
4 0 0 50 -1 0 12 0.0000 4 180 630 6480 5400 IN(p,t1)\001
4 0 0 50 -1 0 12 0.0000 4 165 780 6930 -1125 AT(t2,c2)\001
4 0 0 50 -1 0 12 0.0000 4 165 780 6930 -180 AT(t2,a2)\001
4 0 0 50 -1 0 12 0.0000 4 135 105 6840 4140 1\001
4 0 0 50 -1 0 12 0.0000 4 180 720 7020 4140 AT(p,a1)\001
4 0 0 50 -1 0 12 0.0000 4 135 105 6930 1215 5\001
4 0 0 50 -1 0 12 0.0000 4 180 810 7081 1218 AT(ap,a1)\001
4 0 0 50 -1 0 12 0.0000 4 135 105 9495 1215 5\001
4 0 0 50 -1 0 12 0.0000 4 180 810 9646 1218 AT(ap,a2)\001
4 0 0 50 -1 0 12 0.0000 4 135 105 8190 4590 5\001
4 0 0 50 -1 0 12 0.0000 4 180 810 8341 4593 AT(ap,a3)\001
4 0 0 50 -1 0 12 0.0000 4 165 780 7830 5085 AT(t1,a1)\001
4 0 0 50 -1 0 12 0.0000 4 135 105 7650 5085 2\001
4 0 0 50 -1 0 12 0.0000 4 135 105 8820 5085 4\001
4 0 0 50 -1 0 12 0.0000 4 165 780 9000 5085 AT(t3,a3)\001
4 0 0 50 -1 0 12 0.0000 4 135 105 7335 6030 2\001
4 0 0 50 -1 0 12 0.0000 4 165 780 7515 6030 AT(t1,c1)\001
4 0 0 50 -1 0 12 0.0000 4 135 105 9135 6030 4\001
4 0 0 50 -1 0 12 0.0000 4 165 780 9315 6030 AT(t3,c3)\001
4 0 0 50 -1 0 12 0.0000 4 135 105 9630 4140 1\001
4 0 0 50 -1 0 12 0.0000 4 180 720 9810 4140 AT(p,a3)\001
4 0 0 50 -1 0 12 0.0000 4 135 105 10890 6660 1\001
4 0 0 50 -1 0 12 0.0000 4 180 720 11070 6660 AT(p,c3)\001
4 0 0 50 -1 0 12 0.0000 4 135 105 5625 6660 1\001
4 0 0 50 -1 0 12 0.0000 4 180 720 5805 6660 AT(p,c1)\001
4 0 0 50 -1 0 16 0.0000 4 240 2820 10800 -495 Action      : Load(p,c2,t2)\001
4 0 0 50 -1 0 16 0.0000 4 240 3825 10800 -180 Precondition: {AT(p,c2),AT(t,c2)}\001
4 0 0 50 -1 0 18 0.0000 4 255 3975 10800 180 Effect      : {-AT(p,c2),IN(p,t2)}\001
4 0 0 50 -1 0 18 0.0000 4 255 4365 10800 4950 Effect      : {-AT(ap,a2),AT(ap,a1)}\001
4 0 0 50 -1 0 18 0.0000 4 270 6045 10800 4590 Precondition: {AT(ap,a2),CONNECTED(a1,a2)}\001
4 0 0 50 -1 0 18 0.0000 4 270 3075 10800 4230 Action      : Fly(ap,a2,a1)\001
4 0 0 50 -1 0 18 0.0000 4 255 4020 10800 3780 Effect      : {-AT(p,a2),IN(p,ap)}\001
4 0 0 50 -1 0 18 0.0000 4 270 4485 10800 3420 Precondition: {AT(p,a2),AT(ap,a2)}\001
4 0 0 50 -1 0 18 0.0000 4 270 3150 10800 3060 Action      : Load(p,a2,ap)\001
4 0 0 50 -1 0 18 0.0000 4 255 3975 10800 2565 Effect      : {-IN(p,t2),AT(p,a2)}\001
4 0 0 50 -1 0 18 0.0000 4 270 4320 10800 2205 Precondition: {IN(p,t2),AT(t2,a2)}\001
4 0 0 50 -1 0 18 0.0000 4 270 3390 10800 1845 Action      : Unload(p,t1,a2)\001
4 0 0 50 -1 0 18 0.0000 4 255 4275 10800 1350 Effect      : {-AT(t2,c2),AT(t2,a2)}\001
4 0 0 50 -1 0 18 0.0000 4 270 6000 10800 990 Precondition: {AT(t1,c2),CONNECTED(c2,a2)}\001
4 0 0 50 -1 0 18 0.0000 4 255 3480 10800 675 Action      : Drive(t1, c2, a2)\001
