%!PS-Adobe-3.0 EPSF-3.0
%%DocumentNeededResources: font Helvetica
%%+ font Helvetica-Bold
%%+ font Helvetica-Oblique
%%+ font Helvetica-BoldOblique
%%+ font Symbol
%%Title: R Graphics Output
%%Creator: R Software
%%Pages: (atend)
%%BoundingBox: 0 0 504 504
%%EndComments
%%BeginProlog
/bp  { gs sRGB gs } def
% begin .ps.prolog
/gs  { gsave } bind def
/gr  { grestore } bind def
/ep  { showpage gr gr } bind def
/m   { moveto } bind def
/l  { rlineto } bind def
/np  { newpath } bind def
/cp  { closepath } bind def
/f   { fill } bind def
/o   { stroke } bind def
/c   { newpath 0 360 arc } bind def
/r   { 4 2 roll moveto 1 copy 3 -1 roll exch 0 exch rlineto 0 rlineto -1 mul 0 exch rlineto closepath } bind def
/p1  { stroke } bind def
/p2  { gsave bg fill grestore newpath } bind def
/p3  { gsave bg fill grestore stroke } bind def
/p6  { gsave bg eofill grestore newpath } bind def
/p7  { gsave bg eofill grestore stroke } bind def
/t   { 5 -2 roll moveto gsave rotate
       1 index stringwidth pop
       mul neg 0 rmoveto show grestore } bind def
/ta  { 4 -2 roll moveto gsave rotate show } bind def
/tb  { 2 -1 roll 0 rmoveto show } bind def
/cl  { grestore gsave newpath 3 index 3 index moveto 1 index
       4 -1 roll lineto  exch 1 index lineto lineto
       closepath clip newpath } bind def
/rgb { setrgbcolor } bind def
/s   { scalefont setfont } bind def
% end   .ps.prolog
/sRGB { [ /CIEBasedABC
          << /DecodeLMN
               [ { dup 0.03928 le
                        {12.92321 div}
                        {0.055 add 1.055 div 2.4 exp }
                     ifelse
                 } bind dup dup
               ]
             /MatrixLMN [0.412457 0.212673 0.019334
                         0.357576 0.715152 0.119192
                         0.180437 0.072175 0.950301]
             /WhitePoint [0.9505 1.0 1.0890]
           >>
         ] setcolorspace } bind def
/srgb { setcolor } bind def
%%IncludeResource: font Helvetica
/Helvetica findfont
dup length dict begin
  {1 index /FID ne {def} {pop pop} ifelse} forall
  /Encoding ISOLatin1Encoding def
  currentdict
  end
/Font1 exch definefont pop
%%IncludeResource: font Helvetica-Bold
/Helvetica-Bold findfont
dup length dict begin
  {1 index /FID ne {def} {pop pop} ifelse} forall
  /Encoding ISOLatin1Encoding def
  currentdict
  end
/Font2 exch definefont pop
%%IncludeResource: font Helvetica-Oblique
/Helvetica-Oblique findfont
dup length dict begin
  {1 index /FID ne {def} {pop pop} ifelse} forall
  /Encoding ISOLatin1Encoding def
  currentdict
  end
/Font3 exch definefont pop
%%IncludeResource: font Helvetica-BoldOblique
/Helvetica-BoldOblique findfont
dup length dict begin
  {1 index /FID ne {def} {pop pop} ifelse} forall
  /Encoding ISOLatin1Encoding def
  currentdict
  end
/Font4 exch definefont pop
%%IncludeResource: font Symbol
/Symbol findfont
dup length dict begin
  {1 index /FID ne {def} {pop pop} ifelse} forall
  currentdict
  end
/Font5 exch definefont pop
%%EndProlog
%%Page: 1 1
bp
59.04 73.44 473.76 444.96 cl
1 1 1 srgb
0.75 setlinewidth
[] 0 setdash
1 setlinecap
1 setlinejoin
10.00 setmiterlimit
82.08 259.43 2.70 c p1
89.76 255.48 2.70 c p1
97.44 251.59 2.70 c p1
105.12 247.71 2.70 c p1
112.80 243.83 2.70 c p1
120.48 239.95 2.70 c p1
128.16 236.22 2.70 c p1
135.84 232.60 2.70 c p1
143.52 229.10 2.70 c p1
151.20 225.64 2.70 c p1
158.88 222.40 2.70 c p1
166.56 219.24 2.70 c p1
174.24 216.08 2.70 c p1
181.92 212.94 2.70 c p1
189.60 209.94 2.70 c p1
197.28 206.94 2.70 c p1
204.96 204.01 2.70 c p1
212.64 201.10 2.70 c p1
220.32 198.44 2.70 c p1
228.00 195.95 2.70 c p1
235.68 193.46 2.70 c p1
243.36 190.97 2.70 c p1
251.04 188.48 2.70 c p1
258.72 186.08 2.70 c p1
266.40 183.70 2.70 c p1
274.08 181.56 2.70 c p1
281.76 179.68 2.70 c p1
289.44 177.92 2.70 c p1
297.12 176.45 2.70 c p1
304.80 175.50 2.70 c p1
312.48 174.83 2.70 c p1
320.16 174.51 2.70 c p1
327.84 174.41 2.70 c p1
335.52 174.36 2.70 c p1
343.20 174.58 2.70 c p1
350.88 175.02 2.70 c p1
358.56 175.65 2.70 c p1
366.24 176.85 2.70 c p1
373.92 178.08 2.70 c p1
381.60 179.41 2.70 c p1
389.28 180.85 2.70 c p1
396.96 182.32 2.70 c p1
404.64 183.79 2.70 c p1
412.32 185.42 2.70 c p1
420.00 187.41 2.70 c p1
427.68 189.46 2.70 c p1
435.36 191.65 2.70 c p1
443.04 193.95 2.70 c p1
450.72 196.27 2.70 c p1
458.40 198.71 2.70 c p1
0.00 0.00 504.00 504.00 cl
0 0 0 srgb
0.75 setlinewidth
[] 0 setdash
1 setlinecap
1 setlinejoin
10.00 setmiterlimit
np
74.40 73.44 m
384.00 0 l
o
np
74.40 73.44 m
0 -7.20 l
o
np
151.20 73.44 m
0 -7.20 l
o
np
228.00 73.44 m
0 -7.20 l
o
np
304.80 73.44 m
0 -7.20 l
o
np
381.60 73.44 m
0 -7.20 l
o
np
458.40 73.44 m
0 -7.20 l
o
/Font1 findfont 12 s
74.40 47.52 (0.0) .5 0 t
151.20 47.52 (0.2) .5 0 t
228.00 47.52 (0.4) .5 0 t
304.80 47.52 (0.6) .5 0 t
381.60 47.52 (0.8) .5 0 t
458.40 47.52 (1.0) .5 0 t
np
59.04 87.20 m
0 344.00 l
o
np
59.04 87.20 m
-7.20 0 l
o
np
59.04 173.20 m
-7.20 0 l
o
np
59.04 259.20 m
-7.20 0 l
o
np
59.04 345.20 m
-7.20 0 l
o
np
59.04 431.20 m
-7.20 0 l
o
41.76 87.20 (0.00) .5 90 t
41.76 173.20 (0.02) .5 90 t
41.76 259.20 (0.04) .5 90 t
41.76 345.20 (0.06) .5 90 t
41.76 431.20 (0.08) .5 90 t
np
59.04 73.44 m
414.72 0 l
0 371.52 l
-414.72 0 l
0 -371.52 l
o
0.00 0.00 504.00 504.00 cl
/Font2 findfont 14 s
0 0 0 srgb
116.45 469.45 (Blending Moat-P) 0 ta
-0.420 (ac) tb
-0.280 (king with Depot Distance) tb
0.280 (.) tb gr
/Font1 findfont 12 s
128.69 4.32 (Plotted items are dar) 0 ta
0.180 (k) tb
-0.240 (er f) tb
-0.360 (or games with f) tb
-0.360 (e) tb
-0.240 (w) tb
-0.120 (er cities) tb
-0.180 (.) tb gr
138.68 18.72 (P) 0 ta
-0.600 (or) tb
0.480 (tion of Pro) tb
-0.360 (xy that is Moat P) tb
-0.480 (acking Allocation.) tb gr
12.96 164.50 (Expected Allocation Error to Pla) 90 ta
-0.360 (y) tb
-0.240 (er) tb
-0.600 (.) tb gr
59.04 73.44 473.76 444.96 cl
/bg { 0 0.4275 0.4275 srgb } def
0 0.4275 0.4275 srgb
0.75 setlinewidth
[] 0 setdash
1 setlinecap
1 setlinejoin
10.00 setmiterlimit
82.08 359.53 2.70 c p3
89.76 352.67 2.70 c p3
97.44 345.89 2.70 c p3
105.12 339.11 2.70 c p3
112.80 332.33 2.70 c p3
120.48 325.54 2.70 c p3
128.16 318.80 2.70 c p3
135.84 312.45 2.70 c p3
143.52 306.55 2.70 c p3
151.20 300.85 2.70 c p3
158.88 295.17 2.70 c p3
166.56 289.49 2.70 c p3
174.24 284.00 2.70 c p3
181.92 278.73 2.70 c p3
189.60 273.47 2.70 c p3
197.28 268.44 2.70 c p3
204.96 263.45 2.70 c p3
212.64 258.47 2.70 c p3
220.32 253.48 2.70 c p3
228.00 248.49 2.70 c p3
235.68 243.69 2.70 c p3
243.36 240.28 2.70 c p3
251.04 237.48 2.70 c p3
258.72 235.44 2.70 c p3
266.40 233.75 2.70 c p3
274.08 232.38 2.70 c p3
281.76 231.76 2.70 c p3
289.44 232.18 2.70 c p3
297.12 233.53 2.70 c p3
304.80 235.68 2.70 c p3
312.48 238.55 2.70 c p3
320.16 242.91 2.70 c p3
327.84 247.50 2.70 c p3
335.52 252.09 2.70 c p3
343.20 256.67 2.70 c p3
350.88 261.26 2.70 c p3
358.56 265.88 2.70 c p3
366.24 270.50 2.70 c p3
373.92 275.12 2.70 c p3
381.60 279.74 2.70 c p3
389.28 284.36 2.70 c p3
396.96 288.97 2.70 c p3
404.64 293.63 2.70 c p3
412.32 298.55 2.70 c p3
420.00 303.48 2.70 c p3
427.68 309.18 2.70 c p3
435.36 315.04 2.70 c p3
443.04 321.07 2.70 c p3
450.72 327.16 2.70 c p3
458.40 333.25 2.70 c p3
/bg { 0 0.4745 0.4745 srgb } def
0 0.4745 0.4745 srgb
82.08 359.02 2.70 c p3
89.76 351.12 2.70 c p3
97.44 343.23 2.70 c p3
105.12 335.34 2.70 c p3
112.80 327.50 2.70 c p3
120.48 320.03 2.70 c p3
128.16 312.95 2.70 c p3
135.84 306.08 2.70 c p3
143.52 299.25 2.70 c p3
151.20 292.65 2.70 c p3
158.88 286.34 2.70 c p3
166.56 280.02 2.70 c p3
174.24 273.99 2.70 c p3
181.92 267.97 2.70 c p3
189.60 262.43 2.70 c p3
197.28 257.16 2.70 c p3
204.96 252.15 2.70 c p3
212.64 248.43 2.70 c p3
220.32 245.36 2.70 c p3
228.00 242.32 2.70 c p3
235.68 239.28 2.70 c p3
243.36 236.23 2.70 c p3
251.04 233.83 2.70 c p3
258.72 232.57 2.70 c p3
266.40 231.67 2.70 c p3
274.08 231.01 2.70 c p3
281.76 230.46 2.70 c p3
289.44 230.24 2.70 c p3
297.12 230.42 2.70 c p3
304.80 231.02 2.70 c p3
312.48 232.62 2.70 c p3
320.16 234.68 2.70 c p3
327.84 236.86 2.70 c p3
335.52 239.13 2.70 c p3
343.20 241.59 2.70 c p3
350.88 244.67 2.70 c p3
358.56 248.61 2.70 c p3
366.24 253.26 2.70 c p3
373.92 258.61 2.70 c p3
381.60 264.14 2.70 c p3
389.28 269.83 2.70 c p3
396.96 275.52 2.70 c p3
404.64 281.37 2.70 c p3
412.32 287.26 2.70 c p3
420.00 293.14 2.70 c p3
427.68 299.50 2.70 c p3
435.36 306.13 2.70 c p3
443.04 312.80 2.70 c p3
450.72 319.88 2.70 c p3
458.40 327.16 2.70 c p3
/bg { 0 0.5216 0.5216 srgb } def
0 0.5216 0.5216 srgb
82.08 345.47 2.70 c p3
89.76 339.00 2.70 c p3
97.44 332.71 2.70 c p3
105.12 326.84 2.70 c p3
112.80 320.96 2.70 c p3
120.48 315.08 2.70 c p3
128.16 309.47 2.70 c p3
135.84 304.00 2.70 c p3
143.52 298.53 2.70 c p3
151.20 293.06 2.70 c p3
158.88 287.59 2.70 c p3
166.56 282.15 2.70 c p3
174.24 277.04 2.70 c p3
181.92 271.96 2.70 c p3
189.60 267.20 2.70 c p3
197.28 262.92 2.70 c p3
204.96 259.20 2.70 c p3
212.64 255.66 2.70 c p3
220.32 252.12 2.70 c p3
228.00 248.58 2.70 c p3
235.68 245.05 2.70 c p3
243.36 241.91 2.70 c p3
251.04 239.35 2.70 c p3
258.72 237.56 2.70 c p3
266.40 236.16 2.70 c p3
274.08 235.22 2.70 c p3
281.76 234.29 2.70 c p3
289.44 233.55 2.70 c p3
297.12 233.85 2.70 c p3
304.80 234.70 2.70 c p3
312.48 236.23 2.70 c p3
320.16 237.97 2.70 c p3
327.84 240.40 2.70 c p3
335.52 243.40 2.70 c p3
343.20 246.92 2.70 c p3
350.88 250.55 2.70 c p3
358.56 254.33 2.70 c p3
366.24 258.12 2.70 c p3
373.92 261.91 2.70 c p3
381.60 265.80 2.70 c p3
389.28 269.81 2.70 c p3
396.96 273.88 2.70 c p3
404.64 277.95 2.70 c p3
412.32 282.02 2.70 c p3
420.00 286.23 2.70 c p3
427.68 290.72 2.70 c p3
435.36 295.27 2.70 c p3
443.04 299.82 2.70 c p3
450.72 304.43 2.70 c p3
458.40 309.06 2.70 c p3
/bg { 0 0.5686 0.5686 srgb } def
0 0.5686 0.5686 srgb
82.08 342.93 2.70 c p3
89.76 336.04 2.70 c p3
97.44 329.42 2.70 c p3
105.12 322.83 2.70 c p3
112.80 316.24 2.70 c p3
120.48 309.76 2.70 c p3
128.16 303.46 2.70 c p3
135.84 297.27 2.70 c p3
143.52 291.29 2.70 c p3
151.20 285.55 2.70 c p3
158.88 280.05 2.70 c p3
166.56 275.00 2.70 c p3
174.24 270.59 2.70 c p3
181.92 266.24 2.70 c p3
189.60 261.89 2.70 c p3
197.28 257.54 2.70 c p3
204.96 253.27 2.70 c p3
212.64 249.09 2.70 c p3
220.32 245.71 2.70 c p3
228.00 242.47 2.70 c p3
235.68 239.97 2.70 c p3
243.36 237.87 2.70 c p3
251.04 235.99 2.70 c p3
258.72 234.58 2.70 c p3
266.40 233.56 2.70 c p3
274.08 232.67 2.70 c p3
281.76 231.78 2.70 c p3
289.44 231.87 2.70 c p3
297.12 232.58 2.70 c p3
304.80 233.63 2.70 c p3
312.48 234.68 2.70 c p3
320.16 236.05 2.70 c p3
327.84 238.05 2.70 c p3
335.52 240.43 2.70 c p3
343.20 243.61 2.70 c p3
350.88 247.05 2.70 c p3
358.56 250.71 2.70 c p3
366.24 254.38 2.70 c p3
373.92 258.04 2.70 c p3
381.60 261.71 2.70 c p3
389.28 265.37 2.70 c p3
396.96 269.05 2.70 c p3
404.64 272.75 2.70 c p3
412.32 276.75 2.70 c p3
420.00 281.95 2.70 c p3
427.68 287.51 2.70 c p3
435.36 293.06 2.70 c p3
443.04 298.79 2.70 c p3
450.72 304.64 2.70 c p3
458.40 310.73 2.70 c p3
/bg { 0 0.6157 0.6157 srgb } def
0 0.6157 0.6157 srgb
82.08 364.42 2.70 c p3
89.76 356.96 2.70 c p3
97.44 349.51 2.70 c p3
105.12 342.05 2.70 c p3
112.80 334.59 2.70 c p3
120.48 327.31 2.70 c p3
128.16 320.73 2.70 c p3
135.84 314.32 2.70 c p3
143.52 307.91 2.70 c p3
151.20 301.51 2.70 c p3
158.88 295.10 2.70 c p3
166.56 288.77 2.70 c p3
174.24 282.88 2.70 c p3
181.92 277.02 2.70 c p3
189.60 271.56 2.70 c p3
197.28 266.54 2.70 c p3
204.96 261.71 2.70 c p3
212.64 256.93 2.70 c p3
220.32 252.22 2.70 c p3
228.00 247.64 2.70 c p3
235.68 243.55 2.70 c p3
243.36 239.79 2.70 c p3
251.04 236.03 2.70 c p3
258.72 232.26 2.70 c p3
266.40 229.44 2.70 c p3
274.08 228.43 2.70 c p3
281.76 227.45 2.70 c p3
289.44 226.49 2.70 c p3
297.12 225.66 2.70 c p3
304.80 225.77 2.70 c p3
312.48 227.07 2.70 c p3
320.16 229.13 2.70 c p3
327.84 231.19 2.70 c p3
335.52 233.65 2.70 c p3
343.20 236.31 2.70 c p3
350.88 239.59 2.70 c p3
358.56 243.47 2.70 c p3
366.24 248.32 2.70 c p3
373.92 253.26 2.70 c p3
381.60 258.20 2.70 c p3
389.28 263.14 2.70 c p3
396.96 268.09 2.70 c p3
404.64 273.03 2.70 c p3
412.32 278.16 2.70 c p3
420.00 283.91 2.70 c p3
427.68 290.22 2.70 c p3
435.36 296.83 2.70 c p3
443.04 303.44 2.70 c p3
450.72 310.31 2.70 c p3
458.40 317.20 2.70 c p3
/bg { 0 0.6667 0.6667 srgb } def
0 0.6667 0.6667 srgb
82.08 371.57 2.70 c p3
89.76 363.96 2.70 c p3
97.44 356.35 2.70 c p3
105.12 348.74 2.70 c p3
112.80 341.13 2.70 c p3
120.48 333.52 2.70 c p3
128.16 325.91 2.70 c p3
135.84 318.30 2.70 c p3
143.52 310.69 2.70 c p3
151.20 303.08 2.70 c p3
158.88 296.17 2.70 c p3
166.56 289.70 2.70 c p3
174.24 283.43 2.70 c p3
181.92 277.38 2.70 c p3
189.60 271.40 2.70 c p3
197.28 265.86 2.70 c p3
204.96 260.42 2.70 c p3
212.64 255.26 2.70 c p3
220.32 250.36 2.70 c p3
228.00 245.50 2.70 c p3
235.68 240.69 2.70 c p3
243.36 236.43 2.70 c p3
251.04 232.61 2.70 c p3
258.72 229.00 2.70 c p3
266.40 225.40 2.70 c p3
274.08 221.88 2.70 c p3
281.76 218.94 2.70 c p3
289.44 216.52 2.70 c p3
297.12 214.28 2.70 c p3
304.80 212.44 2.70 c p3
312.48 211.00 2.70 c p3
320.16 210.14 2.70 c p3
327.84 210.27 2.70 c p3
335.52 210.96 2.70 c p3
343.20 212.15 2.70 c p3
350.88 214.05 2.70 c p3
358.56 216.27 2.70 c p3
366.24 218.49 2.70 c p3
373.92 220.98 2.70 c p3
381.60 223.62 2.70 c p3
389.28 226.49 2.70 c p3
396.96 229.95 2.70 c p3
404.64 233.88 2.70 c p3
412.32 238.33 2.70 c p3
420.00 243.12 2.70 c p3
427.68 248.18 2.70 c p3
435.36 253.24 2.70 c p3
443.04 258.35 2.70 c p3
450.72 264.19 2.70 c p3
458.40 270.06 2.70 c p3
/bg { 0 0.7137 0.7137 srgb } def
0 0.7137 0.7137 srgb
82.08 340.26 2.70 c p3
89.76 333.98 2.70 c p3
97.44 327.70 2.70 c p3
105.12 321.41 2.70 c p3
112.80 315.13 2.70 c p3
120.48 308.84 2.70 c p3
128.16 302.66 2.70 c p3
135.84 296.52 2.70 c p3
143.52 290.39 2.70 c p3
151.20 284.25 2.70 c p3
158.88 278.11 2.70 c p3
166.56 272.19 2.70 c p3
174.24 266.74 2.70 c p3
181.92 261.75 2.70 c p3
189.60 256.95 2.70 c p3
197.28 252.17 2.70 c p3
204.96 247.39 2.70 c p3
212.64 242.71 2.70 c p3
220.32 238.25 2.70 c p3
228.00 233.91 2.70 c p3
235.68 229.58 2.70 c p3
243.36 225.53 2.70 c p3
251.04 221.57 2.70 c p3
258.72 217.77 2.70 c p3
266.40 214.24 2.70 c p3
274.08 211.14 2.70 c p3
281.76 208.40 2.70 c p3
289.44 206.89 2.70 c p3
297.12 205.67 2.70 c p3
304.80 204.44 2.70 c p3
312.48 203.53 2.70 c p3
320.16 203.14 2.70 c p3
327.84 203.87 2.70 c p3
335.52 205.70 2.70 c p3
343.20 208.22 2.70 c p3
350.88 210.84 2.70 c p3
358.56 213.78 2.70 c p3
366.24 217.28 2.70 c p3
373.92 221.14 2.70 c p3
381.60 225.24 2.70 c p3
389.28 229.50 2.70 c p3
396.96 234.04 2.70 c p3
404.64 238.69 2.70 c p3
412.32 243.59 2.70 c p3
420.00 248.79 2.70 c p3
427.68 254.11 2.70 c p3
435.36 259.54 2.70 c p3
443.04 264.96 2.70 c p3
450.72 271.02 2.70 c p3
458.40 277.16 2.70 c p3
/bg { 0 0.7608 0.7608 srgb } def
0 0.7608 0.7608 srgb
82.08 355.76 2.70 c p3
89.76 348.76 2.70 c p3
97.44 341.77 2.70 c p3
105.12 334.77 2.70 c p3
112.80 327.78 2.70 c p3
120.48 320.78 2.70 c p3
128.16 313.79 2.70 c p3
135.84 306.86 2.70 c p3
143.52 300.57 2.70 c p3
151.20 294.60 2.70 c p3
158.88 288.78 2.70 c p3
166.56 283.11 2.70 c p3
174.24 277.44 2.70 c p3
181.92 271.77 2.70 c p3
189.60 266.10 2.70 c p3
197.28 260.43 2.70 c p3
204.96 255.45 2.70 c p3
212.64 250.75 2.70 c p3
220.32 246.24 2.70 c p3
228.00 241.74 2.70 c p3
235.68 237.23 2.70 c p3
243.36 233.00 2.70 c p3
251.04 229.41 2.70 c p3
258.72 226.48 2.70 c p3
266.40 224.00 2.70 c p3
274.08 221.53 2.70 c p3
281.76 219.31 2.70 c p3
289.44 217.42 2.70 c p3
297.12 216.88 2.70 c p3
304.80 217.21 2.70 c p3
312.48 217.80 2.70 c p3
320.16 218.76 2.70 c p3
327.84 219.77 2.70 c p3
335.52 221.54 2.70 c p3
343.20 223.61 2.70 c p3
350.88 225.69 2.70 c p3
358.56 227.76 2.70 c p3
366.24 230.53 2.70 c p3
373.92 234.57 2.70 c p3
381.60 238.69 2.70 c p3
389.28 242.93 2.70 c p3
396.96 247.20 2.70 c p3
404.64 252.05 2.70 c p3
412.32 256.93 2.70 c p3
420.00 261.80 2.70 c p3
427.68 266.67 2.70 c p3
435.36 271.61 2.70 c p3
443.04 276.73 2.70 c p3
450.72 281.89 2.70 c p3
458.40 287.10 2.70 c p3
/bg { 0 0.8078 0.8078 srgb } def
0 0.8078 0.8078 srgb
82.08 292.01 2.70 c p3
89.76 286.47 2.70 c p3
97.44 280.98 2.70 c p3
105.12 275.71 2.70 c p3
112.80 270.66 2.70 c p3
120.48 265.64 2.70 c p3
128.16 261.05 2.70 c p3
135.84 256.48 2.70 c p3
143.52 252.34 2.70 c p3
151.20 248.23 2.70 c p3
158.88 244.13 2.70 c p3
166.56 240.03 2.70 c p3
174.24 235.93 2.70 c p3
181.92 232.11 2.70 c p3
189.60 228.86 2.70 c p3
197.28 226.07 2.70 c p3
204.96 223.38 2.70 c p3
212.64 220.74 2.70 c p3
220.32 218.28 2.70 c p3
228.00 216.00 2.70 c p3
235.68 214.06 2.70 c p3
243.36 212.36 2.70 c p3
251.04 210.90 2.70 c p3
258.72 209.52 2.70 c p3
266.40 208.30 2.70 c p3
274.08 207.49 2.70 c p3
281.76 207.10 2.70 c p3
289.44 207.31 2.70 c p3
297.12 207.77 2.70 c p3
304.80 208.68 2.70 c p3
312.48 210.28 2.70 c p3
320.16 212.01 2.70 c p3
327.84 213.98 2.70 c p3
335.52 216.52 2.70 c p3
343.20 219.13 2.70 c p3
350.88 222.23 2.70 c p3
358.56 225.60 2.70 c p3
366.24 229.04 2.70 c p3
373.92 232.70 2.70 c p3
381.60 236.44 2.70 c p3
389.28 240.18 2.70 c p3
396.96 244.09 2.70 c p3
404.64 248.38 2.70 c p3
412.32 252.68 2.70 c p3
420.00 256.97 2.70 c p3
427.68 261.27 2.70 c p3
435.36 265.56 2.70 c p3
443.04 269.85 2.70 c p3
450.72 274.42 2.70 c p3
458.40 279.02 2.70 c p3
/bg { 0 0.8549 0.8549 srgb } def
0 0.8549 0.8549 srgb
82.08 341.23 2.70 c p3
89.76 334.25 2.70 c p3
97.44 327.26 2.70 c p3
105.12 320.28 2.70 c p3
112.80 313.32 2.70 c p3
120.48 306.47 2.70 c p3
128.16 299.62 2.70 c p3
135.84 292.84 2.70 c p3
143.52 286.06 2.70 c p3
151.20 279.39 2.70 c p3
158.88 272.72 2.70 c p3
166.56 266.18 2.70 c p3
174.24 259.71 2.70 c p3
181.92 254.30 2.70 c p3
189.60 248.99 2.70 c p3
197.28 244.35 2.70 c p3
204.96 239.93 2.70 c p3
212.64 235.66 2.70 c p3
220.32 231.49 2.70 c p3
228.00 227.79 2.70 c p3
235.68 224.55 2.70 c p3
243.36 221.58 2.70 c p3
251.04 218.69 2.70 c p3
258.72 215.93 2.70 c p3
266.40 213.36 2.70 c p3
274.08 211.22 2.70 c p3
281.76 209.54 2.70 c p3
289.44 207.97 2.70 c p3
297.12 206.40 2.70 c p3
304.80 204.95 2.70 c p3
312.48 204.37 2.70 c p3
320.16 204.25 2.70 c p3
327.84 204.33 2.70 c p3
335.52 204.65 2.70 c p3
343.20 205.08 2.70 c p3
350.88 206.41 2.70 c p3
358.56 208.28 2.70 c p3
366.24 210.47 2.70 c p3
373.92 213.16 2.70 c p3
381.60 216.60 2.70 c p3
389.28 220.52 2.70 c p3
396.96 224.61 2.70 c p3
404.64 228.76 2.70 c p3
412.32 233.44 2.70 c p3
420.00 238.49 2.70 c p3
427.68 243.61 2.70 c p3
435.36 249.39 2.70 c p3
443.04 255.57 2.70 c p3
450.72 261.78 2.70 c p3
458.40 268.01 2.70 c p3
/bg { 0 0.9020 0.9020 srgb } def
0 0.9020 0.9020 srgb
82.08 291.01 2.70 c p3
89.76 285.27 2.70 c p3
97.44 279.63 2.70 c p3
105.12 274.11 2.70 c p3
112.80 268.60 2.70 c p3
120.48 263.09 2.70 c p3
128.16 257.76 2.70 c p3
135.84 252.75 2.70 c p3
143.52 247.74 2.70 c p3
151.20 242.88 2.70 c p3
158.88 238.32 2.70 c p3
166.56 234.19 2.70 c p3
174.24 230.67 2.70 c p3
181.92 227.16 2.70 c p3
189.60 223.64 2.70 c p3
197.28 220.29 2.70 c p3
204.96 217.05 2.70 c p3
212.64 213.88 2.70 c p3
220.32 210.99 2.70 c p3
228.00 208.46 2.70 c p3
235.68 206.60 2.70 c p3
243.36 205.35 2.70 c p3
251.04 204.50 2.70 c p3
258.72 203.66 2.70 c p3
266.40 202.81 2.70 c p3
274.08 202.29 2.70 c p3
281.76 201.98 2.70 c p3
289.44 202.10 2.70 c p3
297.12 202.23 2.70 c p3
304.80 202.55 2.70 c p3
312.48 203.22 2.70 c p3
320.16 203.90 2.70 c p3
327.84 205.71 2.70 c p3
335.52 208.15 2.70 c p3
343.20 210.93 2.70 c p3
350.88 213.99 2.70 c p3
358.56 217.33 2.70 c p3
366.24 220.79 2.70 c p3
373.92 224.26 2.70 c p3
381.60 228.15 2.70 c p3
389.28 232.26 2.70 c p3
396.96 236.45 2.70 c p3
404.64 240.76 2.70 c p3
412.32 245.07 2.70 c p3
420.00 249.38 2.70 c p3
427.68 253.74 2.70 c p3
435.36 258.51 2.70 c p3
443.04 263.28 2.70 c p3
450.72 268.04 2.70 c p3
458.40 272.81 2.70 c p3
/bg { 0 0.9490 0.9490 srgb } def
0 0.9490 0.9490 srgb
82.08 331.92 2.70 c p3
89.76 325.32 2.70 c p3
97.44 318.71 2.70 c p3
105.12 312.10 2.70 c p3
112.80 305.50 2.70 c p3
120.48 299.09 2.70 c p3
128.16 292.68 2.70 c p3
135.84 286.27 2.70 c p3
143.52 279.87 2.70 c p3
151.20 273.46 2.70 c p3
158.88 267.05 2.70 c p3
166.56 260.65 2.70 c p3
174.24 254.24 2.70 c p3
181.92 248.18 2.70 c p3
189.60 242.60 2.70 c p3
197.28 237.36 2.70 c p3
204.96 232.13 2.70 c p3
212.64 226.90 2.70 c p3
220.32 222.01 2.70 c p3
228.00 217.71 2.70 c p3
235.68 213.76 2.70 c p3
243.36 209.98 2.70 c p3
251.04 207.33 2.70 c p3
258.72 205.09 2.70 c p3
266.40 202.98 2.70 c p3
274.08 201.15 2.70 c p3
281.76 199.66 2.70 c p3
289.44 198.25 2.70 c p3
297.12 197.74 2.70 c p3
304.80 197.94 2.70 c p3
312.48 198.37 2.70 c p3
320.16 199.03 2.70 c p3
327.84 200.04 2.70 c p3
335.52 201.52 2.70 c p3
343.20 203.96 2.70 c p3
350.88 206.95 2.70 c p3
358.56 210.12 2.70 c p3
366.24 213.29 2.70 c p3
373.92 216.47 2.70 c p3
381.60 219.65 2.70 c p3
389.28 223.20 2.70 c p3
396.96 227.07 2.70 c p3
404.64 230.97 2.70 c p3
412.32 235.43 2.70 c p3
420.00 240.20 2.70 c p3
427.68 244.96 2.70 c p3
435.36 249.91 2.70 c p3
443.04 255.05 2.70 c p3
450.72 260.19 2.70 c p3
458.40 265.49 2.70 c p3
/bg { 0 1 1 srgb } def
0 1 1 srgb
82.08 297.71 2.70 c p3
89.76 292.27 2.70 c p3
97.44 286.84 2.70 c p3
105.12 281.40 2.70 c p3
112.80 275.97 2.70 c p3
120.48 270.55 2.70 c p3
128.16 265.30 2.70 c p3
135.84 260.05 2.70 c p3
143.52 254.80 2.70 c p3
151.20 249.70 2.70 c p3
158.88 244.97 2.70 c p3
166.56 240.33 2.70 c p3
174.24 235.82 2.70 c p3
181.92 231.54 2.70 c p3
189.60 227.51 2.70 c p3
197.28 223.81 2.70 c p3
204.96 220.11 2.70 c p3
212.64 216.76 2.70 c p3
220.32 213.52 2.70 c p3
228.00 210.83 2.70 c p3
235.68 208.13 2.70 c p3
243.36 205.71 2.70 c p3
251.04 203.51 2.70 c p3
258.72 201.30 2.70 c p3
266.40 199.14 2.70 c p3
274.08 197.31 2.70 c p3
281.76 195.78 2.70 c p3
289.44 194.55 2.70 c p3
297.12 193.55 2.70 c p3
304.80 193.25 2.70 c p3
312.48 193.22 2.70 c p3
320.16 193.25 2.70 c p3
327.84 194.04 2.70 c p3
335.52 195.36 2.70 c p3
343.20 196.75 2.70 c p3
350.88 198.15 2.70 c p3
358.56 199.82 2.70 c p3
366.24 201.60 2.70 c p3
373.92 203.61 2.70 c p3
381.60 205.85 2.70 c p3
389.28 208.52 2.70 c p3
396.96 211.52 2.70 c p3
404.64 214.76 2.70 c p3
412.32 218.02 2.70 c p3
420.00 221.28 2.70 c p3
427.68 224.82 2.70 c p3
435.36 228.63 2.70 c p3
443.04 232.46 2.70 c p3
450.72 236.45 2.70 c p3
458.40 240.88 2.70 c p3
ep
%%Trailer
%%Pages: 1
%%EOF
