%!PS-Adobe-3.0 EPSF-3.0
%%DocumentNeededResources: font Helvetica
%%+ font Helvetica-Bold
%%+ font Helvetica-Oblique
%%+ font Helvetica-BoldOblique
%%+ font Symbol
%%Title: R Graphics Output
%%Creator: R Software
%%Pages: (atend)
%%BoundingBox: 0 0 504 504
%%EndComments
%%BeginProlog
/bp  { gs sRGB gs } def
% begin .ps.prolog
/gs  { gsave } bind def
/gr  { grestore } bind def
/ep  { showpage gr gr } bind def
/m   { moveto } bind def
/l  { rlineto } bind def
/np  { newpath } bind def
/cp  { closepath } bind def
/f   { fill } bind def
/o   { stroke } bind def
/c   { newpath 0 360 arc } bind def
/r   { 4 2 roll moveto 1 copy 3 -1 roll exch 0 exch rlineto 0 rlineto -1 mul 0 exch rlineto closepath } bind def
/p1  { stroke } bind def
/p2  { gsave bg fill grestore newpath } bind def
/p3  { gsave bg fill grestore stroke } bind def
/p6  { gsave bg eofill grestore newpath } bind def
/p7  { gsave bg eofill grestore stroke } bind def
/t   { 5 -2 roll moveto gsave rotate
       1 index stringwidth pop
       mul neg 0 rmoveto show grestore } bind def
/ta  { 4 -2 roll moveto gsave rotate show } bind def
/tb  { 2 -1 roll 0 rmoveto show } bind def
/cl  { grestore gsave newpath 3 index 3 index moveto 1 index
       4 -1 roll lineto  exch 1 index lineto lineto
       closepath clip newpath } bind def
/rgb { setrgbcolor } bind def
/s   { scalefont setfont } bind def
% end   .ps.prolog
/sRGB { [ /CIEBasedABC
          << /DecodeLMN
               [ { dup 0.03928 le
                        {12.92321 div}
                        {0.055 add 1.055 div 2.4 exp }
                     ifelse
                 } bind dup dup
               ]
             /MatrixLMN [0.412457 0.212673 0.019334
                         0.357576 0.715152 0.119192
                         0.180437 0.072175 0.950301]
             /WhitePoint [0.9505 1.0 1.0890]
           >>
         ] setcolorspace } bind def
/srgb { setcolor } bind def
%%IncludeResource: font Helvetica
/Helvetica findfont
dup length dict begin
  {1 index /FID ne {def} {pop pop} ifelse} forall
  /Encoding ISOLatin1Encoding def
  currentdict
  end
/Font1 exch definefont pop
%%IncludeResource: font Helvetica-Bold
/Helvetica-Bold findfont
dup length dict begin
  {1 index /FID ne {def} {pop pop} ifelse} forall
  /Encoding ISOLatin1Encoding def
  currentdict
  end
/Font2 exch definefont pop
%%IncludeResource: font Helvetica-Oblique
/Helvetica-Oblique findfont
dup length dict begin
  {1 index /FID ne {def} {pop pop} ifelse} forall
  /Encoding ISOLatin1Encoding def
  currentdict
  end
/Font3 exch definefont pop
%%IncludeResource: font Helvetica-BoldOblique
/Helvetica-BoldOblique findfont
dup length dict begin
  {1 index /FID ne {def} {pop pop} ifelse} forall
  /Encoding ISOLatin1Encoding def
  currentdict
  end
/Font4 exch definefont pop
%%IncludeResource: font Symbol
/Symbol findfont
dup length dict begin
  {1 index /FID ne {def} {pop pop} ifelse} forall
  currentdict
  end
/Font5 exch definefont pop
%%EndProlog
%%Page: 1 1
bp
59.04 73.44 473.76 444.96 cl
1 1 1 srgb
0.75 setlinewidth
[] 0 setdash
1 setlinecap
1 setlinejoin
10.00 setmiterlimit
82.08 194.39 2.70 c p1
89.76 191.78 2.70 c p1
97.44 189.20 2.70 c p1
105.12 186.63 2.70 c p1
112.80 184.09 2.70 c p1
120.48 181.62 2.70 c p1
128.16 179.20 2.70 c p1
135.84 176.80 2.70 c p1
143.52 174.46 2.70 c p1
151.20 172.20 2.70 c p1
158.88 170.01 2.70 c p1
166.56 167.87 2.70 c p1
174.24 165.82 2.70 c p1
181.92 163.84 2.70 c p1
189.60 161.97 2.70 c p1
197.28 160.19 2.70 c p1
204.96 158.49 2.70 c p1
212.64 156.83 2.70 c p1
220.32 155.24 2.70 c p1
228.00 153.79 2.70 c p1
235.68 152.42 2.70 c p1
243.36 151.16 2.70 c p1
251.04 150.08 2.70 c p1
258.72 149.13 2.70 c p1
266.40 148.32 2.70 c p1
274.08 147.68 2.70 c p1
281.76 147.14 2.70 c p1
289.44 146.73 2.70 c p1
297.12 146.39 2.70 c p1
304.80 146.19 2.70 c p1
312.48 146.12 2.70 c p1
320.16 146.20 2.70 c p1
327.84 146.40 2.70 c p1
335.52 146.73 2.70 c p1
343.20 147.29 2.70 c p1
350.88 147.99 2.70 c p1
358.56 148.88 2.70 c p1
366.24 149.96 2.70 c p1
373.92 151.22 2.70 c p1
381.60 152.65 2.70 c p1
389.28 154.22 2.70 c p1
396.96 155.92 2.70 c p1
404.64 157.68 2.70 c p1
412.32 159.53 2.70 c p1
420.00 161.45 2.70 c p1
427.68 163.49 2.70 c p1
435.36 165.66 2.70 c p1
443.04 167.90 2.70 c p1
450.72 170.16 2.70 c p1
458.40 172.47 2.70 c p1
0.00 0.00 504.00 504.00 cl
0 0 0 srgb
0.75 setlinewidth
[] 0 setdash
1 setlinecap
1 setlinejoin
10.00 setmiterlimit
np
74.40 73.44 m
384.00 0 l
o
np
74.40 73.44 m
0 -7.20 l
o
np
151.20 73.44 m
0 -7.20 l
o
np
228.00 73.44 m
0 -7.20 l
o
np
304.80 73.44 m
0 -7.20 l
o
np
381.60 73.44 m
0 -7.20 l
o
np
458.40 73.44 m
0 -7.20 l
o
/Font1 findfont 12 s
74.40 47.52 (0.0) .5 0 t
151.20 47.52 (0.2) .5 0 t
228.00 47.52 (0.4) .5 0 t
304.80 47.52 (0.6) .5 0 t
381.60 47.52 (0.8) .5 0 t
458.40 47.52 (1.0) .5 0 t
np
59.04 87.20 m
0 344.00 l
o
np
59.04 87.20 m
-7.20 0 l
o
np
59.04 144.53 m
-7.20 0 l
o
np
59.04 201.87 m
-7.20 0 l
o
np
59.04 259.20 m
-7.20 0 l
o
np
59.04 316.53 m
-7.20 0 l
o
np
59.04 373.87 m
-7.20 0 l
o
np
59.04 431.20 m
-7.20 0 l
o
41.76 87.20 (0.000) .5 90 t
41.76 144.53 (0.005) .5 90 t
41.76 201.87 (0.010) .5 90 t
41.76 259.20 (0.015) .5 90 t
41.76 316.53 (0.020) .5 90 t
41.76 373.87 (0.025) .5 90 t
41.76 431.20 (0.030) .5 90 t
np
59.04 73.44 m
414.72 0 l
0 371.52 l
-414.72 0 l
0 -371.52 l
o
0.00 0.00 504.00 504.00 cl
/Font2 findfont 14 s
0 0 0 srgb
116.45 469.45 (Blending Moat-P) 0 ta
-0.420 (ac) tb
-0.280 (king with Depot Distance) tb
0.280 (.) tb gr
/Font1 findfont 12 s
128.69 4.32 (Plotted items are dar) 0 ta
0.180 (k) tb
-0.240 (er f) tb
-0.360 (or games with f) tb
-0.360 (e) tb
-0.240 (w) tb
-0.120 (er cities) tb
-0.180 (.) tb gr
138.68 18.72 (P) 0 ta
-0.600 (or) tb
0.480 (tion of Pro) tb
-0.360 (xy that is Moat P) tb
-0.480 (acking Allocation.) tb gr
12.96 185.35 (A) 90 ta
-0.480 (v) tb
-0.300 (er) tb
-0.120 (age W) tb
-0.360 (orst-Case Error) tb
-0.600 (.) tb gr
59.04 73.44 473.76 444.96 cl
/bg { 0 0.4275 0.4275 srgb } def
0 0.4275 0.4275 srgb
0.75 setlinewidth
[] 0 setdash
1 setlinecap
1 setlinejoin
10.00 setmiterlimit
82.08 357.24 2.70 c p3
89.76 350.11 2.70 c p3
97.44 343.07 2.70 c p3
105.12 336.07 2.70 c p3
112.80 329.10 2.70 c p3
120.48 322.13 2.70 c p3
128.16 315.29 2.70 c p3
135.84 308.65 2.70 c p3
143.52 302.06 2.70 c p3
151.20 295.66 2.70 c p3
158.88 289.45 2.70 c p3
166.56 283.52 2.70 c p3
174.24 277.66 2.70 c p3
181.92 272.03 2.70 c p3
189.60 266.77 2.70 c p3
197.28 261.82 2.70 c p3
204.96 257.40 2.70 c p3
212.64 253.14 2.70 c p3
220.32 249.35 2.70 c p3
228.00 245.69 2.70 c p3
235.68 242.56 2.70 c p3
243.36 239.86 2.70 c p3
251.04 237.79 2.70 c p3
258.72 236.29 2.70 c p3
266.40 235.18 2.70 c p3
274.08 234.45 2.70 c p3
281.76 233.96 2.70 c p3
289.44 233.79 2.70 c p3
297.12 234.09 2.70 c p3
304.80 234.84 2.70 c p3
312.48 236.00 2.70 c p3
320.16 237.33 2.70 c p3
327.84 238.87 2.70 c p3
335.52 240.68 2.70 c p3
343.20 243.04 2.70 c p3
350.88 246.07 2.70 c p3
358.56 249.72 2.70 c p3
366.24 253.73 2.70 c p3
373.92 258.43 2.70 c p3
381.60 263.53 2.70 c p3
389.28 268.92 2.70 c p3
396.96 274.68 2.70 c p3
404.64 280.89 2.70 c p3
412.32 287.48 2.70 c p3
420.00 294.46 2.70 c p3
427.68 301.59 2.70 c p3
435.36 308.80 2.70 c p3
443.04 316.20 2.70 c p3
450.72 323.60 2.70 c p3
458.40 331.01 2.70 c p3
/bg { 0 0.4745 0.4745 srgb } def
0 0.4745 0.4745 srgb
82.08 354.77 2.70 c p3
89.76 348.02 2.70 c p3
97.44 341.41 2.70 c p3
105.12 334.79 2.70 c p3
112.80 328.18 2.70 c p3
120.48 321.64 2.70 c p3
128.16 315.18 2.70 c p3
135.84 308.71 2.70 c p3
143.52 302.30 2.70 c p3
151.20 295.92 2.70 c p3
158.88 289.55 2.70 c p3
166.56 283.35 2.70 c p3
174.24 277.35 2.70 c p3
181.92 271.35 2.70 c p3
189.60 265.37 2.70 c p3
197.28 259.95 2.70 c p3
204.96 254.96 2.70 c p3
212.64 250.58 2.70 c p3
220.32 246.76 2.70 c p3
228.00 243.13 2.70 c p3
235.68 240.07 2.70 c p3
243.36 237.36 2.70 c p3
251.04 235.06 2.70 c p3
258.72 233.15 2.70 c p3
266.40 231.53 2.70 c p3
274.08 230.67 2.70 c p3
281.76 230.09 2.70 c p3
289.44 229.86 2.70 c p3
297.12 230.25 2.70 c p3
304.80 231.21 2.70 c p3
312.48 232.78 2.70 c p3
320.16 234.67 2.70 c p3
327.84 236.69 2.70 c p3
335.52 238.98 2.70 c p3
343.20 241.62 2.70 c p3
350.88 244.63 2.70 c p3
358.56 247.80 2.70 c p3
366.24 251.07 2.70 c p3
373.92 254.49 2.70 c p3
381.60 258.34 2.70 c p3
389.28 262.99 2.70 c p3
396.96 268.28 2.70 c p3
404.64 273.69 2.70 c p3
412.32 279.33 2.70 c p3
420.00 285.12 2.70 c p3
427.68 291.05 2.70 c p3
435.36 297.07 2.70 c p3
443.04 303.26 2.70 c p3
450.72 309.75 2.70 c p3
458.40 316.31 2.70 c p3
/bg { 0 0.5216 0.5216 srgb } def
0 0.5216 0.5216 srgb
82.08 329.69 2.70 c p3
89.76 323.19 2.70 c p3
97.44 316.74 2.70 c p3
105.12 310.30 2.70 c p3
112.80 303.89 2.70 c p3
120.48 297.67 2.70 c p3
128.16 291.53 2.70 c p3
135.84 285.40 2.70 c p3
143.52 279.45 2.70 c p3
151.20 274.01 2.70 c p3
158.88 268.96 2.70 c p3
166.56 264.05 2.70 c p3
174.24 259.35 2.70 c p3
181.92 254.79 2.70 c p3
189.60 250.37 2.70 c p3
197.28 246.04 2.70 c p3
204.96 241.83 2.70 c p3
212.64 237.83 2.70 c p3
220.32 233.95 2.70 c p3
228.00 230.42 2.70 c p3
235.68 227.69 2.70 c p3
243.36 225.28 2.70 c p3
251.04 223.37 2.70 c p3
258.72 222.00 2.70 c p3
266.40 221.02 2.70 c p3
274.08 220.56 2.70 c p3
281.76 220.30 2.70 c p3
289.44 220.29 2.70 c p3
297.12 220.63 2.70 c p3
304.80 221.23 2.70 c p3
312.48 222.15 2.70 c p3
320.16 223.73 2.70 c p3
327.84 225.70 2.70 c p3
335.52 227.98 2.70 c p3
343.20 230.43 2.70 c p3
350.88 232.98 2.70 c p3
358.56 235.83 2.70 c p3
366.24 239.17 2.70 c p3
373.92 242.92 2.70 c p3
381.60 247.16 2.70 c p3
389.28 251.57 2.70 c p3
396.96 256.25 2.70 c p3
404.64 261.00 2.70 c p3
412.32 265.98 2.70 c p3
420.00 271.28 2.70 c p3
427.68 276.75 2.70 c p3
435.36 282.38 2.70 c p3
443.04 288.25 2.70 c p3
450.72 294.29 2.70 c p3
458.40 300.38 2.70 c p3
/bg { 0 0.5686 0.5686 srgb } def
0 0.5686 0.5686 srgb
82.08 323.94 2.70 c p3
89.76 318.14 2.70 c p3
97.44 312.41 2.70 c p3
105.12 306.77 2.70 c p3
112.80 301.20 2.70 c p3
120.48 295.64 2.70 c p3
128.16 290.08 2.70 c p3
135.84 284.59 2.70 c p3
143.52 279.20 2.70 c p3
151.20 274.12 2.70 c p3
158.88 269.39 2.70 c p3
166.56 264.72 2.70 c p3
174.24 260.27 2.70 c p3
181.92 255.97 2.70 c p3
189.60 251.78 2.70 c p3
197.28 247.76 2.70 c p3
204.96 243.95 2.70 c p3
212.64 240.24 2.70 c p3
220.32 236.66 2.70 c p3
228.00 233.32 2.70 c p3
235.68 230.10 2.70 c p3
243.36 227.06 2.70 c p3
251.04 224.76 2.70 c p3
258.72 222.69 2.70 c p3
266.40 220.96 2.70 c p3
274.08 219.81 2.70 c p3
281.76 219.02 2.70 c p3
289.44 218.58 2.70 c p3
297.12 218.70 2.70 c p3
304.80 219.20 2.70 c p3
312.48 219.97 2.70 c p3
320.16 220.93 2.70 c p3
327.84 222.41 2.70 c p3
335.52 224.31 2.70 c p3
343.20 226.42 2.70 c p3
350.88 228.80 2.70 c p3
358.56 231.47 2.70 c p3
366.24 234.59 2.70 c p3
373.92 238.00 2.70 c p3
381.60 241.97 2.70 c p3
389.28 246.50 2.70 c p3
396.96 251.21 2.70 c p3
404.64 256.00 2.70 c p3
412.32 260.79 2.70 c p3
420.00 265.65 2.70 c p3
427.68 270.66 2.70 c p3
435.36 275.86 2.70 c p3
443.04 281.40 2.70 c p3
450.72 287.08 2.70 c p3
458.40 292.85 2.70 c p3
/bg { 0 0.6157 0.6157 srgb } def
0 0.6157 0.6157 srgb
82.08 338.37 2.70 c p3
89.76 332.43 2.70 c p3
97.44 326.63 2.70 c p3
105.12 320.84 2.70 c p3
112.80 315.05 2.70 c p3
120.48 309.27 2.70 c p3
128.16 303.49 2.70 c p3
135.84 297.71 2.70 c p3
143.52 291.98 2.70 c p3
151.20 286.38 2.70 c p3
158.88 280.85 2.70 c p3
166.56 275.41 2.70 c p3
174.24 270.22 2.70 c p3
181.92 265.16 2.70 c p3
189.60 260.18 2.70 c p3
197.28 255.36 2.70 c p3
204.96 250.76 2.70 c p3
212.64 246.17 2.70 c p3
220.32 241.91 2.70 c p3
228.00 237.85 2.70 c p3
235.68 233.95 2.70 c p3
243.36 230.33 2.70 c p3
251.04 227.25 2.70 c p3
258.72 224.66 2.70 c p3
266.40 222.22 2.70 c p3
274.08 219.99 2.70 c p3
281.76 217.97 2.70 c p3
289.44 216.24 2.70 c p3
297.12 214.74 2.70 c p3
304.80 213.71 2.70 c p3
312.48 213.34 2.70 c p3
320.16 213.49 2.70 c p3
327.84 213.92 2.70 c p3
335.52 214.75 2.70 c p3
343.20 216.19 2.70 c p3
350.88 217.82 2.70 c p3
358.56 219.62 2.70 c p3
366.24 221.95 2.70 c p3
373.92 224.75 2.70 c p3
381.60 227.64 2.70 c p3
389.28 230.58 2.70 c p3
396.96 233.62 2.70 c p3
404.64 237.01 2.70 c p3
412.32 240.53 2.70 c p3
420.00 244.27 2.70 c p3
427.68 248.10 2.70 c p3
435.36 252.08 2.70 c p3
443.04 256.40 2.70 c p3
450.72 261.09 2.70 c p3
458.40 265.94 2.70 c p3
/bg { 0 0.6667 0.6667 srgb } def
0 0.6667 0.6667 srgb
82.08 315.71 2.70 c p3
89.76 309.91 2.70 c p3
97.44 304.16 2.70 c p3
105.12 298.42 2.70 c p3
112.80 292.73 2.70 c p3
120.48 287.06 2.70 c p3
128.16 281.42 2.70 c p3
135.84 275.93 2.70 c p3
143.52 270.54 2.70 c p3
151.20 265.16 2.70 c p3
158.88 260.02 2.70 c p3
166.56 254.99 2.70 c p3
174.24 249.97 2.70 c p3
181.92 245.08 2.70 c p3
189.60 240.47 2.70 c p3
197.28 235.88 2.70 c p3
204.96 231.50 2.70 c p3
212.64 227.20 2.70 c p3
220.32 222.99 2.70 c p3
228.00 219.02 2.70 c p3
235.68 215.36 2.70 c p3
243.36 211.76 2.70 c p3
251.04 208.45 2.70 c p3
258.72 205.39 2.70 c p3
266.40 202.80 2.70 c p3
274.08 200.50 2.70 c p3
281.76 198.47 2.70 c p3
289.44 196.79 2.70 c p3
297.12 195.56 2.70 c p3
304.80 194.70 2.70 c p3
312.48 194.15 2.70 c p3
320.16 193.97 2.70 c p3
327.84 194.38 2.70 c p3
335.52 195.17 2.70 c p3
343.20 196.33 2.70 c p3
350.88 197.63 2.70 c p3
358.56 199.15 2.70 c p3
366.24 200.97 2.70 c p3
373.92 203.17 2.70 c p3
381.60 206.11 2.70 c p3
389.28 209.56 2.70 c p3
396.96 213.40 2.70 c p3
404.64 217.43 2.70 c p3
412.32 221.61 2.70 c p3
420.00 226.13 2.70 c p3
427.68 230.89 2.70 c p3
435.36 235.79 2.70 c p3
443.04 240.69 2.70 c p3
450.72 245.60 2.70 c p3
458.40 250.64 2.70 c p3
/bg { 0 0.7137 0.7137 srgb } def
0 0.7137 0.7137 srgb
82.08 310.86 2.70 c p3
89.76 305.12 2.70 c p3
97.44 299.38 2.70 c p3
105.12 293.68 2.70 c p3
112.80 288.05 2.70 c p3
120.48 282.53 2.70 c p3
128.16 277.06 2.70 c p3
135.84 271.64 2.70 c p3
143.52 266.31 2.70 c p3
151.20 261.09 2.70 c p3
158.88 256.05 2.70 c p3
166.56 251.16 2.70 c p3
174.24 246.30 2.70 c p3
181.92 241.46 2.70 c p3
189.60 236.77 2.70 c p3
197.28 232.25 2.70 c p3
204.96 227.96 2.70 c p3
212.64 223.92 2.70 c p3
220.32 220.05 2.70 c p3
228.00 216.34 2.70 c p3
235.68 212.91 2.70 c p3
243.36 209.72 2.70 c p3
251.04 206.67 2.70 c p3
258.72 204.06 2.70 c p3
266.40 201.78 2.70 c p3
274.08 199.78 2.70 c p3
281.76 198.10 2.70 c p3
289.44 196.84 2.70 c p3
297.12 195.76 2.70 c p3
304.80 195.00 2.70 c p3
312.48 194.53 2.70 c p3
320.16 194.28 2.70 c p3
327.84 194.29 2.70 c p3
335.52 195.00 2.70 c p3
343.20 195.88 2.70 c p3
350.88 196.88 2.70 c p3
358.56 198.39 2.70 c p3
366.24 200.15 2.70 c p3
373.92 202.24 2.70 c p3
381.60 205.00 2.70 c p3
389.28 207.99 2.70 c p3
396.96 211.40 2.70 c p3
404.64 215.09 2.70 c p3
412.32 218.90 2.70 c p3
420.00 222.85 2.70 c p3
427.68 226.95 2.70 c p3
435.36 231.13 2.70 c p3
443.04 235.54 2.70 c p3
450.72 240.16 2.70 c p3
458.40 244.93 2.70 c p3
/bg { 0 0.7608 0.7608 srgb } def
0 0.7608 0.7608 srgb
82.08 296.39 2.70 c p3
89.76 291.04 2.70 c p3
97.44 285.76 2.70 c p3
105.12 280.57 2.70 c p3
112.80 275.41 2.70 c p3
120.48 270.30 2.70 c p3
128.16 265.26 2.70 c p3
135.84 260.24 2.70 c p3
143.52 255.29 2.70 c p3
151.20 250.57 2.70 c p3
158.88 246.00 2.70 c p3
166.56 241.60 2.70 c p3
174.24 237.21 2.70 c p3
181.92 232.85 2.70 c p3
189.60 228.57 2.70 c p3
197.28 224.46 2.70 c p3
204.96 220.50 2.70 c p3
212.64 216.86 2.70 c p3
220.32 213.42 2.70 c p3
228.00 210.25 2.70 c p3
235.68 207.26 2.70 c p3
243.36 204.40 2.70 c p3
251.04 201.80 2.70 c p3
258.72 199.42 2.70 c p3
266.40 197.49 2.70 c p3
274.08 196.23 2.70 c p3
281.76 195.30 2.70 c p3
289.44 194.78 2.70 c p3
297.12 194.73 2.70 c p3
304.80 194.99 2.70 c p3
312.48 195.51 2.70 c p3
320.16 196.22 2.70 c p3
327.84 197.38 2.70 c p3
335.52 198.73 2.70 c p3
343.20 200.41 2.70 c p3
350.88 202.46 2.70 c p3
358.56 204.78 2.70 c p3
366.24 207.40 2.70 c p3
373.92 210.32 2.70 c p3
381.60 213.48 2.70 c p3
389.28 216.80 2.70 c p3
396.96 220.36 2.70 c p3
404.64 224.18 2.70 c p3
412.32 228.21 2.70 c p3
420.00 232.31 2.70 c p3
427.68 236.61 2.70 c p3
435.36 241.00 2.70 c p3
443.04 245.43 2.70 c p3
450.72 249.95 2.70 c p3
458.40 254.52 2.70 c p3
/bg { 0 0.8078 0.8078 srgb } def
0 0.8078 0.8078 srgb
82.08 274.56 2.70 c p3
89.76 269.97 2.70 c p3
97.44 265.47 2.70 c p3
105.12 260.99 2.70 c p3
112.80 256.52 2.70 c p3
120.48 252.11 2.70 c p3
128.16 247.74 2.70 c p3
135.84 243.40 2.70 c p3
143.52 239.11 2.70 c p3
151.20 234.86 2.70 c p3
158.88 230.61 2.70 c p3
166.56 226.48 2.70 c p3
174.24 222.61 2.70 c p3
181.92 218.86 2.70 c p3
189.60 215.26 2.70 c p3
197.28 211.91 2.70 c p3
204.96 208.64 2.70 c p3
212.64 205.71 2.70 c p3
220.32 202.98 2.70 c p3
228.00 200.38 2.70 c p3
235.68 197.93 2.70 c p3
243.36 195.88 2.70 c p3
251.04 194.22 2.70 c p3
258.72 192.95 2.70 c p3
266.40 191.77 2.70 c p3
274.08 190.74 2.70 c p3
281.76 189.83 2.70 c p3
289.44 189.11 2.70 c p3
297.12 188.70 2.70 c p3
304.80 188.49 2.70 c p3
312.48 188.48 2.70 c p3
320.16 188.68 2.70 c p3
327.84 189.19 2.70 c p3
335.52 190.00 2.70 c p3
343.20 191.31 2.70 c p3
350.88 192.90 2.70 c p3
358.56 194.64 2.70 c p3
366.24 196.48 2.70 c p3
373.92 198.50 2.70 c p3
381.60 200.71 2.70 c p3
389.28 203.04 2.70 c p3
396.96 205.59 2.70 c p3
404.64 208.43 2.70 c p3
412.32 211.55 2.70 c p3
420.00 214.77 2.70 c p3
427.68 218.26 2.70 c p3
435.36 221.87 2.70 c p3
443.04 225.59 2.70 c p3
450.72 229.42 2.70 c p3
458.40 233.30 2.70 c p3
/bg { 0 0.8549 0.8549 srgb } def
0 0.8549 0.8549 srgb
82.08 278.49 2.70 c p3
89.76 273.48 2.70 c p3
97.44 268.48 2.70 c p3
105.12 263.54 2.70 c p3
112.80 258.64 2.70 c p3
120.48 253.88 2.70 c p3
128.16 249.20 2.70 c p3
135.84 244.57 2.70 c p3
143.52 239.94 2.70 c p3
151.20 235.36 2.70 c p3
158.88 230.85 2.70 c p3
166.56 226.35 2.70 c p3
174.24 221.91 2.70 c p3
181.92 217.52 2.70 c p3
189.60 213.26 2.70 c p3
197.28 209.10 2.70 c p3
204.96 205.13 2.70 c p3
212.64 201.35 2.70 c p3
220.32 197.82 2.70 c p3
228.00 194.50 2.70 c p3
235.68 191.51 2.70 c p3
243.36 188.63 2.70 c p3
251.04 186.06 2.70 c p3
258.72 183.84 2.70 c p3
266.40 182.03 2.70 c p3
274.08 180.60 2.70 c p3
281.76 179.63 2.70 c p3
289.44 178.94 2.70 c p3
297.12 178.78 2.70 c p3
304.80 179.03 2.70 c p3
312.48 179.70 2.70 c p3
320.16 180.82 2.70 c p3
327.84 182.20 2.70 c p3
335.52 183.74 2.70 c p3
343.20 185.43 2.70 c p3
350.88 187.35 2.70 c p3
358.56 189.73 2.70 c p3
366.24 192.49 2.70 c p3
373.92 195.56 2.70 c p3
381.60 198.78 2.70 c p3
389.28 202.18 2.70 c p3
396.96 205.79 2.70 c p3
404.64 209.52 2.70 c p3
412.32 213.39 2.70 c p3
420.00 217.37 2.70 c p3
427.68 221.51 2.70 c p3
435.36 225.79 2.70 c p3
443.04 230.32 2.70 c p3
450.72 234.97 2.70 c p3
458.40 239.73 2.70 c p3
/bg { 0 0.9020 0.9020 srgb } def
0 0.9020 0.9020 srgb
82.08 252.81 2.70 c p3
89.76 248.70 2.70 c p3
97.44 244.73 2.70 c p3
105.12 240.78 2.70 c p3
112.80 236.88 2.70 c p3
120.48 233.04 2.70 c p3
128.16 229.23 2.70 c p3
135.84 225.55 2.70 c p3
143.52 221.89 2.70 c p3
151.20 218.26 2.70 c p3
158.88 214.77 2.70 c p3
166.56 211.36 2.70 c p3
174.24 208.02 2.70 c p3
181.92 204.74 2.70 c p3
189.60 201.53 2.70 c p3
197.28 198.46 2.70 c p3
204.96 195.49 2.70 c p3
212.64 192.60 2.70 c p3
220.32 189.91 2.70 c p3
228.00 187.33 2.70 c p3
235.68 184.93 2.70 c p3
243.36 182.91 2.70 c p3
251.04 181.15 2.70 c p3
258.72 179.77 2.70 c p3
266.40 178.61 2.70 c p3
274.08 177.74 2.70 c p3
281.76 177.04 2.70 c p3
289.44 176.52 2.70 c p3
297.12 176.37 2.70 c p3
304.80 176.76 2.70 c p3
312.48 177.63 2.70 c p3
320.16 178.69 2.70 c p3
327.84 180.08 2.70 c p3
335.52 181.62 2.70 c p3
343.20 183.49 2.70 c p3
350.88 185.58 2.70 c p3
358.56 187.85 2.70 c p3
366.24 190.40 2.70 c p3
373.92 193.16 2.70 c p3
381.60 196.11 2.70 c p3
389.28 199.24 2.70 c p3
396.96 202.54 2.70 c p3
404.64 206.00 2.70 c p3
412.32 209.55 2.70 c p3
420.00 213.20 2.70 c p3
427.68 216.90 2.70 c p3
435.36 220.66 2.70 c p3
443.04 224.54 2.70 c p3
450.72 228.51 2.70 c p3
458.40 232.55 2.70 c p3
/bg { 0 0.9490 0.9490 srgb } def
0 0.9490 0.9490 srgb
82.08 247.61 2.70 c p3
89.76 243.68 2.70 c p3
97.44 239.77 2.70 c p3
105.12 235.94 2.70 c p3
112.80 232.17 2.70 c p3
120.48 228.41 2.70 c p3
128.16 224.68 2.70 c p3
135.84 221.00 2.70 c p3
143.52 217.36 2.70 c p3
151.20 213.79 2.70 c p3
158.88 210.31 2.70 c p3
166.56 206.88 2.70 c p3
174.24 203.54 2.70 c p3
181.92 200.22 2.70 c p3
189.60 196.98 2.70 c p3
197.28 193.83 2.70 c p3
204.96 190.80 2.70 c p3
212.64 187.97 2.70 c p3
220.32 185.21 2.70 c p3
228.00 182.56 2.70 c p3
235.68 180.18 2.70 c p3
243.36 177.92 2.70 c p3
251.04 175.96 2.70 c p3
258.72 174.32 2.70 c p3
266.40 172.85 2.70 c p3
274.08 171.58 2.70 c p3
281.76 170.56 2.70 c p3
289.44 169.83 2.70 c p3
297.12 169.37 2.70 c p3
304.80 169.32 2.70 c p3
312.48 169.64 2.70 c p3
320.16 170.16 2.70 c p3
327.84 170.92 2.70 c p3
335.52 172.00 2.70 c p3
343.20 173.27 2.70 c p3
350.88 174.74 2.70 c p3
358.56 176.58 2.70 c p3
366.24 178.57 2.70 c p3
373.92 180.66 2.70 c p3
381.60 182.84 2.70 c p3
389.28 185.11 2.70 c p3
396.96 187.59 2.70 c p3
404.64 190.18 2.70 c p3
412.32 192.92 2.70 c p3
420.00 195.91 2.70 c p3
427.68 199.03 2.70 c p3
435.36 202.23 2.70 c p3
443.04 205.52 2.70 c p3
450.72 208.89 2.70 c p3
458.40 212.43 2.70 c p3
/bg { 0 1 1 srgb } def
0 1 1 srgb
82.08 248.58 2.70 c p3
89.76 244.61 2.70 c p3
97.44 240.68 2.70 c p3
105.12 236.75 2.70 c p3
112.80 232.92 2.70 c p3
120.48 229.12 2.70 c p3
128.16 225.39 2.70 c p3
135.84 221.70 2.70 c p3
143.52 218.08 2.70 c p3
151.20 214.53 2.70 c p3
158.88 211.04 2.70 c p3
166.56 207.61 2.70 c p3
174.24 204.34 2.70 c p3
181.92 201.11 2.70 c p3
189.60 198.08 2.70 c p3
197.28 195.12 2.70 c p3
204.96 192.32 2.70 c p3
212.64 189.69 2.70 c p3
220.32 187.21 2.70 c p3
228.00 184.89 2.70 c p3
235.68 182.65 2.70 c p3
243.36 180.50 2.70 c p3
251.04 178.61 2.70 c p3
258.72 176.89 2.70 c p3
266.40 175.51 2.70 c p3
274.08 174.29 2.70 c p3
281.76 173.28 2.70 c p3
289.44 172.64 2.70 c p3
297.12 172.24 2.70 c p3
304.80 172.04 2.70 c p3
312.48 172.06 2.70 c p3
320.16 172.28 2.70 c p3
327.84 172.75 2.70 c p3
335.52 173.51 2.70 c p3
343.20 174.52 2.70 c p3
350.88 175.83 2.70 c p3
358.56 177.33 2.70 c p3
366.24 179.05 2.70 c p3
373.92 180.94 2.70 c p3
381.60 182.99 2.70 c p3
389.28 185.36 2.70 c p3
396.96 188.00 2.70 c p3
404.64 190.72 2.70 c p3
412.32 193.61 2.70 c p3
420.00 196.60 2.70 c p3
427.68 199.68 2.70 c p3
435.36 202.84 2.70 c p3
443.04 206.09 2.70 c p3
450.72 209.46 2.70 c p3
458.40 212.95 2.70 c p3
ep
%%Trailer
%%Pages: 1
%%EOF
