%!PS-Adobe-3.0 EPSF-3.0
%%Title: mst.fig
%%Creator: fig2dev Version 3.2 Patchlevel 5d
%%CreationDate: Wed Oct 16 09:48:25 2013
%%BoundingBox: 0 0 243 209
%Magnification: 1.0000
%%EndComments
%%BeginProlog
/$F2psDict 200 dict def
$F2psDict begin
$F2psDict /mtrx matrix put
/col-1 {0 setgray} bind def
/col0 {0.000 0.000 0.000 srgb} bind def
/col1 {0.000 0.000 1.000 srgb} bind def
/col2 {0.000 1.000 0.000 srgb} bind def
/col3 {0.000 1.000 1.000 srgb} bind def
/col4 {1.000 0.000 0.000 srgb} bind def
/col5 {1.000 0.000 1.000 srgb} bind def
/col6 {1.000 1.000 0.000 srgb} bind def
/col7 {1.000 1.000 1.000 srgb} bind def
/col8 {0.000 0.000 0.560 srgb} bind def
/col9 {0.000 0.000 0.690 srgb} bind def
/col10 {0.000 0.000 0.820 srgb} bind def
/col11 {0.530 0.810 1.000 srgb} bind def
/col12 {0.000 0.560 0.000 srgb} bind def
/col13 {0.000 0.690 0.000 srgb} bind def
/col14 {0.000 0.820 0.000 srgb} bind def
/col15 {0.000 0.560 0.560 srgb} bind def
/col16 {0.000 0.690 0.690 srgb} bind def
/col17 {0.000 0.820 0.820 srgb} bind def
/col18 {0.560 0.000 0.000 srgb} bind def
/col19 {0.690 0.000 0.000 srgb} bind def
/col20 {0.820 0.000 0.000 srgb} bind def
/col21 {0.560 0.000 0.560 srgb} bind def
/col22 {0.690 0.000 0.690 srgb} bind def
/col23 {0.820 0.000 0.820 srgb} bind def
/col24 {0.500 0.190 0.000 srgb} bind def
/col25 {0.630 0.250 0.000 srgb} bind def
/col26 {0.750 0.380 0.000 srgb} bind def
/col27 {1.000 0.500 0.500 srgb} bind def
/col28 {1.000 0.630 0.630 srgb} bind def
/col29 {1.000 0.750 0.750 srgb} bind def
/col30 {1.000 0.880 0.880 srgb} bind def
/col31 {1.000 0.840 0.000 srgb} bind def

end

/cp {closepath} bind def
/ef {eofill} bind def
/gr {grestore} bind def
/gs {gsave} bind def
/sa {save} bind def
/rs {restore} bind def
/l {lineto} bind def
/m {moveto} bind def
/rm {rmoveto} bind def
/n {newpath} bind def
/s {stroke} bind def
/sh {show} bind def
/slc {setlinecap} bind def
/slj {setlinejoin} bind def
/slw {setlinewidth} bind def
/srgb {setrgbcolor} bind def
/rot {rotate} bind def
/sc {scale} bind def
/sd {setdash} bind def
/ff {findfont} bind def
/sf {setfont} bind def
/scf {scalefont} bind def
/sw {stringwidth} bind def
/tr {translate} bind def
/tnt {dup dup currentrgbcolor
  4 -2 roll dup 1 exch sub 3 -1 roll mul add
  4 -2 roll dup 1 exch sub 3 -1 roll mul add
  4 -2 roll dup 1 exch sub 3 -1 roll mul add srgb}
  bind def
/shd {dup dup currentrgbcolor 4 -2 roll mul 4 -2 roll mul
  4 -2 roll mul srgb} bind def
/$F2psBegin {$F2psDict begin /$F2psEnteredState save def} def
/$F2psEnd {$F2psEnteredState restore end} def

/pageheader {
save
newpath 0 209 moveto 0 0 lineto 243 0 lineto 243 209 lineto closepath clip newpath
-107.0 323.9 translate
1 -1 scale
$F2psBegin
10 setmiterlimit
0 slj 0 slc
 0.06299 0.06299 sc
} bind def
/pagefooter {
$F2psEnd
restore
} bind def
%%EndProlog
pageheader
%
% Fig objects follow
%
% 
% here starts figure with depth 50
% Polyline
0 slj
0 slc
7.500 slw
n 1800 1935 m
 3645 2745 l gs col0 s gr 
% Polyline
n 3645 2745 m
 5490 1935 l gs col0 s gr 
% Polyline
n 3645 4275 m
 5445 4995 l gs col0 s gr 
% Polyline
n 3645 4275 m
 1755 4995 l gs col0 s gr 
% Polyline
n 3645 2745 m
 3645 4275 l gs col0 s gr 
% Polyline
gs  clippath
3917 4253 m 3777 4196 l 3754 4252 l 3894 4308 l 3894 4308 l 3795 4236 l 3917 4253 l cp
eoclip
n 5445 4905 m
 3780 4230 l gs col0 s gr gr

% arrowhead
n 3917 4253 m 3795 4236 l 3894 4308 l 3917 4253 l  cp gs 0.00 setgray ef gr  col0 s
% Polyline
gs  clippath
3810 3061 m 3810 2910 l 3750 2910 l 3750 3061 l 3750 3061 l 3780 2941 l 3810 3061 l cp
eoclip
n 3780 4185 m
 3780 2925 l gs col0 s gr gr

% arrowhead
n 3810 3061 m 3780 2941 l 3750 3061 l 3810 3061 l  cp gs 0.00 setgray ef gr  col0 s
% Polyline
gs  clippath
5422 2153 m 5560 2091 l 5536 2036 l 5398 2098 l 5398 2098 l 5520 2077 l 5422 2153 l cp
eoclip
n 3825 2835 m
 5535 2070 l gs col0 s gr gr

% arrowhead
n 5422 2153 m 5520 2077 l 5398 2098 l 5422 2153 l  cp gs 0.00 setgray ef gr  col0 s
% Polyline
gs  clippath
3847 2481 m 3709 2543 l 3733 2598 l 3871 2536 l 3871 2536 l 3750 2558 l 3847 2481 l cp
eoclip
n 5355 1845 m
 3735 2565 l gs col0 s gr gr

% arrowhead
n 3847 2481 m 3750 2558 l 3871 2536 l 3847 2481 l  cp gs 0.00 setgray ef gr  col0 s
% Polyline
gs  clippath
2072 1871 m 1933 1811 l 1909 1866 l 2048 1926 l 2048 1926 l 1950 1851 l 2072 1871 l cp
eoclip
n 3600 2565 m
 1935 1845 l gs col0 s gr gr

% arrowhead
n 2072 1871 m 1950 1851 l 2048 1926 l 2072 1871 l  cp gs 0.00 setgray ef gr  col0 s
% Polyline
gs  clippath
3373 2806 m 3511 2868 l 3535 2813 l 3397 2751 l 3397 2751 l 3495 2828 l 3373 2806 l cp
eoclip
n 1800 2070 m
 3510 2835 l gs col0 s gr gr

% arrowhead
n 3373 2806 m 3495 2828 l 3397 2751 l 3373 2806 l  cp gs 0.00 setgray ef gr  col0 s
% Polyline
gs  clippath
3480 3959 m 3480 4110 l 3540 4110 l 3540 3959 l 3540 3959 l 3510 4079 l 3480 3959 l cp
eoclip
n 3510 2970 m
 3510 4095 l gs col0 s gr gr

% arrowhead
n 3480 3959 m 3510 4079 l 3540 3959 l 3480 3959 l  cp gs 0.00 setgray ef gr  col0 s
% Polyline
gs  clippath
1827 4739 m 1685 4792 l 1706 4848 l 1847 4795 l 1847 4795 l 1725 4809 l 1827 4739 l cp
eoclip
n 3420 4185 m
 1710 4815 l gs col0 s gr gr

% arrowhead
n 1827 4739 m 1725 4809 l 1847 4795 l 1827 4739 l  cp gs 0.00 setgray ef gr  col0 s
% Polyline
gs  clippath
3440 4534 m 3580 4476 l 3557 4421 l 3417 4479 l 3417 4479 l 3540 4461 l 3440 4534 l cp
eoclip
n 1935 5130 m
 3555 4455 l gs col0 s gr gr

% arrowhead
n 3440 4534 m 3540 4461 l 3417 4479 l 3440 4534 l  cp gs 0.00 setgray ef gr  col0 s
% Polyline
gs  clippath
5217 5107 m 5357 5163 l 5379 5107 l 5239 5052 l 5239 5052 l 5340 5124 l 5217 5107 l cp
eoclip
n 3645 4455 m
 5355 5130 l gs col0 s gr gr

% arrowhead
n 5217 5107 m 5340 5124 l 5239 5052 l 5217 5107 l  cp gs 0.00 setgray ef gr  col0 s
% here ends figure;
pagefooter
showpage
%%Trailer
%EOF
