%!PS-Adobe-3.0 EPSF-3.0
%%Title: mstnonmonotonic.fig
%%Creator: fig2dev Version 3.2 Patchlevel 5d
%%CreationDate: Fri Oct 18 15:32:17 2013
%%BoundingBox: 0 0 240 274
%Magnification: 1.0000
%%EndComments
%%BeginProlog
/$F2psDict 200 dict def
$F2psDict begin
$F2psDict /mtrx matrix put
/col-1 {0 setgray} bind def
/col0 {0.000 0.000 0.000 srgb} bind def
/col1 {0.000 0.000 1.000 srgb} bind def
/col2 {0.000 1.000 0.000 srgb} bind def
/col3 {0.000 1.000 1.000 srgb} bind def
/col4 {1.000 0.000 0.000 srgb} bind def
/col5 {1.000 0.000 1.000 srgb} bind def
/col6 {1.000 1.000 0.000 srgb} bind def
/col7 {1.000 1.000 1.000 srgb} bind def
/col8 {0.000 0.000 0.560 srgb} bind def
/col9 {0.000 0.000 0.690 srgb} bind def
/col10 {0.000 0.000 0.820 srgb} bind def
/col11 {0.530 0.810 1.000 srgb} bind def
/col12 {0.000 0.560 0.000 srgb} bind def
/col13 {0.000 0.690 0.000 srgb} bind def
/col14 {0.000 0.820 0.000 srgb} bind def
/col15 {0.000 0.560 0.560 srgb} bind def
/col16 {0.000 0.690 0.690 srgb} bind def
/col17 {0.000 0.820 0.820 srgb} bind def
/col18 {0.560 0.000 0.000 srgb} bind def
/col19 {0.690 0.000 0.000 srgb} bind def
/col20 {0.820 0.000 0.000 srgb} bind def
/col21 {0.560 0.000 0.560 srgb} bind def
/col22 {0.690 0.000 0.690 srgb} bind def
/col23 {0.820 0.000 0.820 srgb} bind def
/col24 {0.500 0.190 0.000 srgb} bind def
/col25 {0.630 0.250 0.000 srgb} bind def
/col26 {0.750 0.380 0.000 srgb} bind def
/col27 {1.000 0.500 0.500 srgb} bind def
/col28 {1.000 0.630 0.630 srgb} bind def
/col29 {1.000 0.750 0.750 srgb} bind def
/col30 {1.000 0.880 0.880 srgb} bind def
/col31 {1.000 0.840 0.000 srgb} bind def

end

/cp {closepath} bind def
/ef {eofill} bind def
/gr {grestore} bind def
/gs {gsave} bind def
/sa {save} bind def
/rs {restore} bind def
/l {lineto} bind def
/m {moveto} bind def
/rm {rmoveto} bind def
/n {newpath} bind def
/s {stroke} bind def
/sh {show} bind def
/slc {setlinecap} bind def
/slj {setlinejoin} bind def
/slw {setlinewidth} bind def
/srgb {setrgbcolor} bind def
/rot {rotate} bind def
/sc {scale} bind def
/sd {setdash} bind def
/ff {findfont} bind def
/sf {setfont} bind def
/scf {scalefont} bind def
/sw {stringwidth} bind def
/tr {translate} bind def
/tnt {dup dup currentrgbcolor
  4 -2 roll dup 1 exch sub 3 -1 roll mul add
  4 -2 roll dup 1 exch sub 3 -1 roll mul add
  4 -2 roll dup 1 exch sub 3 -1 roll mul add srgb}
  bind def
/shd {dup dup currentrgbcolor 4 -2 roll mul 4 -2 roll mul
  4 -2 roll mul srgb} bind def
 /DrawEllipse {
	/endangle exch def
	/startangle exch def
	/yrad exch def
	/xrad exch def
	/y exch def
	/x exch def
	/savematrix mtrx currentmatrix def
	x y tr xrad yrad sc 0 0 1 startangle endangle arc
	closepath
	savematrix setmatrix
	} def

/$F2psBegin {$F2psDict begin /$F2psEnteredState save def} def
/$F2psEnd {$F2psEnteredState restore end} def

/pageheader {
save
newpath 0 274 moveto 0 0 lineto 240 0 lineto 240 274 lineto closepath clip newpath
-206.0 378.0 translate
1 -1 scale
$F2psBegin
10 setmiterlimit
0 slj 0 slc
 0.06299 0.06299 sc
} bind def
/pagefooter {
$F2psEnd
restore
} bind def
%%EndProlog
pageheader
%
% Fig objects follow
%
% 
% here starts figure with depth 50
% Ellipse
7.500 slw
n 4095 2250 101 101 0 360 DrawEllipse gs col0 s gr

% Ellipse
n 6705 2295 101 101 0 360 DrawEllipse gs col0 s gr

% Ellipse
n 4095 4905 101 101 0 360 DrawEllipse gs col0 s gr

% Ellipse
n 6750 4905 101 101 0 360 DrawEllipse gs col0 s gr

% Ellipse
n 5400 3600 64 64 0 360 DrawEllipse gs col0 s gr

% Ellipse
n 5400 3600 127 127 0 360 DrawEllipse gs col0 s gr

% Ellipse
n 4815 5265 64 64 0 360 DrawEllipse gs col0 s gr

% Ellipse
n 4815 5265 127 127 0 360 DrawEllipse gs col0 s gr

% Ellipse
n 5985 5580 101 101 0 360 DrawEllipse gs col0 s gr

% Ellipse
n 6300 5580 101 101 0 360 DrawEllipse gs col0 s gr

% Ellipse
n 6615 5580 101 101 0 360 DrawEllipse gs col0 s gr

% Ellipse
n 6930 5580 101 101 0 360 DrawEllipse gs col0 s gr

% Polyline
0 slj
0 slc
n 4050 2250 m 6750 2250 l 6750 4950 l 4050 4950 l
 cp gs col0 s gr 
% Polyline
n 4050 2250 m
 6750 4950 l gs col0 s gr 
% Polyline
n 4050 4950 m
 6705 2250 l gs col0 s gr 
% Polyline
0.000 slw
n 3690 1665 m 7065 1665 l 7065 2025 l 3690 2025 l
 cp 
/Times-Roman ff 190.50 scf sf
3285 5355 m
gs 1 -1 sc (Adding player ) col0 sh gr
/Times-Roman ff 190.50 scf sf
3285 5670 m
gs 1 -1 sc (To the coalition with players) col0 sh gr
/Times-Roman ff 190.50 scf sf
3285 5985 m
gs 1 -1 sc (Yeilds a shorter MST) col0 sh gr
% here ends figure;
pagefooter
showpage
%%Trailer
%EOF
