#FIG 3.2  Produced by xfig version 3.2.5b
Landscape
Center
Metric
A4      
100.00
Single
-2
1200 2
2 1 0 1 0 7 50 -1 -1 0.000 0 0 -1 0 0 2
	 1800 1935 3645 2745
2 1 0 1 0 7 50 -1 -1 0.000 0 0 -1 0 0 2
	 3645 4275 5445 4995
2 1 0 1 0 7 50 -1 -1 0.000 0 0 -1 0 0 2
	 3645 4275 1755 4995
2 1 0 1 0 7 50 -1 -1 0.000 0 0 -1 1 0 2
	1 1 1.00 60.00 120.00
	 5445 4905 3780 4230
2 1 0 1 0 7 50 -1 -1 0.000 0 0 -1 1 0 2
	1 1 1.00 60.00 120.00
	 3780 4185 3780 2925
2 1 0 1 0 7 50 -1 -1 0.000 0 0 -1 1 0 2
	1 1 1.00 60.00 120.00
	 3825 2835 5535 2070
2 1 0 1 0 7 50 -1 -1 0.000 0 0 -1 0 0 2
	 3645 2745 5490 1935
2 1 0 1 0 7 50 -1 -1 0.000 0 0 -1 1 0 2
	1 1 1.00 60.00 120.00
	 5445 1845 1890 1845
2 1 0 1 0 7 50 -1 -1 0.000 0 0 -1 1 0 2
	1 1 1.00 60.00 120.00
	 1755 2070 1755 4815
2 1 0 1 0 7 50 -1 -1 0.000 0 0 -1 1 0 2
	1 1 1.00 60.00 120.00
	 1980 4995 5220 4995
2 1 0 1 0 7 50 -1 -1 0.000 0 0 -1 0 0 2
	 3645 2745 3645 4275
