%!PS-Adobe-3.0 EPSF-3.0
%%Title: proxy_examples.fig
%%Creator: fig2dev Version 3.2 Patchlevel 5d
%%CreationDate: Tue Feb 11 16:56:55 2014
%%BoundingBox: 0 0 549 503
%Magnification: 1.0000
%%EndComments
%%BeginProlog
/$F2psDict 200 dict def
$F2psDict begin
$F2psDict /mtrx matrix put
/col-1 {0 setgray} bind def
/col0 {0.000 0.000 0.000 srgb} bind def
/col1 {0.000 0.000 1.000 srgb} bind def
/col2 {0.000 1.000 0.000 srgb} bind def
/col3 {0.000 1.000 1.000 srgb} bind def
/col4 {1.000 0.000 0.000 srgb} bind def
/col5 {1.000 0.000 1.000 srgb} bind def
/col6 {1.000 1.000 0.000 srgb} bind def
/col7 {1.000 1.000 1.000 srgb} bind def
/col8 {0.000 0.000 0.560 srgb} bind def
/col9 {0.000 0.000 0.690 srgb} bind def
/col10 {0.000 0.000 0.820 srgb} bind def
/col11 {0.530 0.810 1.000 srgb} bind def
/col12 {0.000 0.560 0.000 srgb} bind def
/col13 {0.000 0.690 0.000 srgb} bind def
/col14 {0.000 0.820 0.000 srgb} bind def
/col15 {0.000 0.560 0.560 srgb} bind def
/col16 {0.000 0.690 0.690 srgb} bind def
/col17 {0.000 0.820 0.820 srgb} bind def
/col18 {0.560 0.000 0.000 srgb} bind def
/col19 {0.690 0.000 0.000 srgb} bind def
/col20 {0.820 0.000 0.000 srgb} bind def
/col21 {0.560 0.000 0.560 srgb} bind def
/col22 {0.690 0.000 0.690 srgb} bind def
/col23 {0.820 0.000 0.820 srgb} bind def
/col24 {0.500 0.190 0.000 srgb} bind def
/col25 {0.630 0.250 0.000 srgb} bind def
/col26 {0.750 0.380 0.000 srgb} bind def
/col27 {1.000 0.500 0.500 srgb} bind def
/col28 {1.000 0.630 0.630 srgb} bind def
/col29 {1.000 0.750 0.750 srgb} bind def
/col30 {1.000 0.880 0.880 srgb} bind def
/col31 {1.000 0.840 0.000 srgb} bind def

end

/cp {closepath} bind def
/ef {eofill} bind def
/gr {grestore} bind def
/gs {gsave} bind def
/sa {save} bind def
/rs {restore} bind def
/l {lineto} bind def
/m {moveto} bind def
/rm {rmoveto} bind def
/n {newpath} bind def
/s {stroke} bind def
/sh {show} bind def
/slc {setlinecap} bind def
/slj {setlinejoin} bind def
/slw {setlinewidth} bind def
/srgb {setrgbcolor} bind def
/rot {rotate} bind def
/sc {scale} bind def
/sd {setdash} bind def
/ff {findfont} bind def
/sf {setfont} bind def
/scf {scalefont} bind def
/sw {stringwidth} bind def
/tr {translate} bind def
/tnt {dup dup currentrgbcolor
  4 -2 roll dup 1 exch sub 3 -1 roll mul add
  4 -2 roll dup 1 exch sub 3 -1 roll mul add
  4 -2 roll dup 1 exch sub 3 -1 roll mul add srgb}
  bind def
/shd {dup dup currentrgbcolor 4 -2 roll mul 4 -2 roll mul
  4 -2 roll mul srgb} bind def
/reencdict 12 dict def /ReEncode { reencdict begin
/newcodesandnames exch def /newfontname exch def /basefontname exch def
/basefontdict basefontname findfont def /newfont basefontdict maxlength dict def
basefontdict { exch dup /FID ne { dup /Encoding eq
{ exch dup length array copy newfont 3 1 roll put }
{ exch newfont 3 1 roll put } ifelse } { pop pop } ifelse } forall
newfont /FontName newfontname put newcodesandnames aload pop
128 1 255 { newfont /Encoding get exch /.notdef put } for
newcodesandnames length 2 idiv { newfont /Encoding get 3 1 roll put } repeat
newfontname newfont definefont pop end } def
/isovec [
8#055 /minus 8#200 /grave 8#201 /acute 8#202 /circumflex 8#203 /tilde
8#204 /macron 8#205 /breve 8#206 /dotaccent 8#207 /dieresis
8#210 /ring 8#211 /cedilla 8#212 /hungarumlaut 8#213 /ogonek 8#214 /caron
8#220 /dotlessi 8#230 /oe 8#231 /OE
8#240 /space 8#241 /exclamdown 8#242 /cent 8#243 /sterling
8#244 /currency 8#245 /yen 8#246 /brokenbar 8#247 /section 8#250 /dieresis
8#251 /copyright 8#252 /ordfeminine 8#253 /guillemotleft 8#254 /logicalnot
8#255 /hyphen 8#256 /registered 8#257 /macron 8#260 /degree 8#261 /plusminus
8#262 /twosuperior 8#263 /threesuperior 8#264 /acute 8#265 /mu 8#266 /paragraph
8#267 /periodcentered 8#270 /cedilla 8#271 /onesuperior 8#272 /ordmasculine
8#273 /guillemotright 8#274 /onequarter 8#275 /onehalf
8#276 /threequarters 8#277 /questiondown 8#300 /Agrave 8#301 /Aacute
8#302 /Acircumflex 8#303 /Atilde 8#304 /Adieresis 8#305 /Aring
8#306 /AE 8#307 /Ccedilla 8#310 /Egrave 8#311 /Eacute
8#312 /Ecircumflex 8#313 /Edieresis 8#314 /Igrave 8#315 /Iacute
8#316 /Icircumflex 8#317 /Idieresis 8#320 /Eth 8#321 /Ntilde 8#322 /Ograve
8#323 /Oacute 8#324 /Ocircumflex 8#325 /Otilde 8#326 /Odieresis 8#327 /multiply
8#330 /Oslash 8#331 /Ugrave 8#332 /Uacute 8#333 /Ucircumflex
8#334 /Udieresis 8#335 /Yacute 8#336 /Thorn 8#337 /germandbls 8#340 /agrave
8#341 /aacute 8#342 /acircumflex 8#343 /atilde 8#344 /adieresis 8#345 /aring
8#346 /ae 8#347 /ccedilla 8#350 /egrave 8#351 /eacute
8#352 /ecircumflex 8#353 /edieresis 8#354 /igrave 8#355 /iacute
8#356 /icircumflex 8#357 /idieresis 8#360 /eth 8#361 /ntilde 8#362 /ograve
8#363 /oacute 8#364 /ocircumflex 8#365 /otilde 8#366 /odieresis 8#367 /divide
8#370 /oslash 8#371 /ugrave 8#372 /uacute 8#373 /ucircumflex
8#374 /udieresis 8#375 /yacute 8#376 /thorn 8#377 /ydieresis] def
/Times-Roman /Times-Roman-iso isovec ReEncode
 /DrawEllipse {
	/endangle exch def
	/startangle exch def
	/yrad exch def
	/xrad exch def
	/y exch def
	/x exch def
	/savematrix mtrx currentmatrix def
	x y tr xrad yrad sc 0 0 1 startangle endangle arc
	closepath
	savematrix setmatrix
	} def

/$F2psBegin {$F2psDict begin /$F2psEnteredState save def} def
/$F2psEnd {$F2psEnteredState restore end} def

/pageheader {
save
newpath 0 503 moveto 0 0 lineto 549 0 lineto 549 503 lineto closepath clip newpath
-209.2 615.7 translate
1 -1 scale
$F2psBegin
10 setmiterlimit
0 slj 0 slc
 0.06299 0.06299 sc
} bind def
/pagefooter {
$F2psEnd
restore
} bind def
%%EndProlog
pageheader
%
% Fig objects follow
%
% 
% here starts figure with depth 50
% Ellipse
7.500 slw
n 4095 2610 101 101 0 360 DrawEllipse gs col0 s gr

% Ellipse
n 6705 2655 101 101 0 360 DrawEllipse gs col0 s gr

% Ellipse
n 4095 5265 101 101 0 360 DrawEllipse gs col0 s gr

% Ellipse
n 5400 3960 64 64 0 360 DrawEllipse gs col0 s gr

% Ellipse
n 5400 3960 127 127 0 360 DrawEllipse gs col0 s gr

% Ellipse
n 6750 5265 101 101 0 360 DrawEllipse gs col0 s gr

% Polyline
0 slj
0 slc
30.000 slw
gs  clippath
4362 2796 m 4262 2692 l 4176 2775 l 4275 2879 l 4275 2879 l 4236 2751 l 4362 2796 l cp
eoclip
n 5265 3825 m
 4230 2745 l gs col10 s gr gr

% arrowhead
7.500 slw
n 4362 2796 m 4236 2751 l 4275 2879 l 4362 2796 l  cp gs col10 1.00 shd ef gr  col10 s
% Polyline
30.000 slw
gs  clippath
4035 4956 m 4035 5100 l 4155 5100 l 4155 4956 l 4155 4956 l 4095 5076 l 4035 4956 l cp
eoclip
n 4095 2835 m
 4095 5085 l gs col10 s gr gr

% arrowhead
7.500 slw
n 4035 4956 m 4095 5076 l 4155 4956 l 4035 4956 l  cp gs col10 1.00 shd ef gr  col10 s
% Polyline
30.000 slw
gs  clippath
6486 5325 m 6630 5325 l 6630 5205 l 6486 5205 l 6486 5205 l 6606 5265 l 6486 5325 l cp
eoclip
n 4275 5265 m
 6615 5265 l gs col10 s gr gr

% arrowhead
7.500 slw
n 6486 5325 m 6606 5265 l 6486 5205 l 6486 5325 l  cp gs col10 1.00 shd ef gr  col10 s
% Polyline
30.000 slw
gs  clippath
5577 3644 m 5480 3750 l 5569 3831 l 5666 3726 l 5666 3726 l 5541 3774 l 5577 3644 l cp
eoclip
n 6525 2700 m
 5535 3780 l gs col10 s gr gr

% arrowhead
7.500 slw
n 5577 3644 m 5541 3774 l 5666 3726 l 5577 3644 l  cp gs col10 1.00 shd ef gr  col10 s
% Ellipse
n 8415 2655 101 101 0 360 DrawEllipse gs col0 s gr

% Ellipse
n 11025 2700 101 101 0 360 DrawEllipse gs col0 s gr

% Ellipse
n 9720 4005 64 64 0 360 DrawEllipse gs col0 s gr

% Ellipse
n 9720 4005 127 127 0 360 DrawEllipse gs col0 s gr

% Ellipse
n 8415 5310 101 101 0 360 DrawEllipse gs col0 s gr

% Ellipse
n 11070 5310 101 101 0 360 DrawEllipse gs 0.00 setgray ef gr gs col0 s gr

% Polyline
15.000 slw
n 9855 4140 m
 10935 5175 l gs col1 s gr 
% Ellipse
7.500 slw
n 8460 6840 101 101 0 360 DrawEllipse gs col0 s gr

% Ellipse
n 11070 6885 101 101 0 360 DrawEllipse gs col0 s gr

% Ellipse
n 8460 9495 101 101 0 360 DrawEllipse gs col0 s gr

% Ellipse
n 9765 8190 64 64 0 360 DrawEllipse gs col0 s gr

% Ellipse
n 9765 8190 127 127 0 360 DrawEllipse gs col0 s gr

% Ellipse
n 11115 9495 101 101 0 360 DrawEllipse gs 0.00 setgray ef gr gs col0 s gr

% Polyline
30.000 slw
gs  clippath
8814 6825 m 8670 6825 l 8670 6945 l 8814 6945 l 8814 6945 l 8694 6885 l 8814 6825 l cp
eoclip
n 10890 6885 m
 8685 6885 l gs col12 s gr gr

% arrowhead
7.500 slw
n 8814 6825 m 8694 6885 l 8814 6945 l 8814 6825 l  cp gs col12 1.00 shd ef gr  col12 s
% Polyline
45.000 slw
gs  clippath
9560 8539 m 9692 8413 l 9588 8305 l 9456 8431 l 9456 8431 l 9617 8382 l 9560 8539 l cp
eoclip
n 8595 9360 m
 9630 8370 l gs col12 s gr gr

% arrowhead
15.000 slw
n 9560 8539 m 9617 8382 l 9456 8431 l 9560 8539 l  cp gs col12 1.00 shd ef gr  col12 s
% Polyline
30.000 slw
gs  clippath
10851 9510 m 10995 9510 l 10995 9390 l 10851 9390 l 10851 9390 l 10971 9450 l 10851 9510 l cp
eoclip
n 8640 9450 m
 10980 9450 l gs col4 s gr gr

% arrowhead
7.500 slw
n 10851 9510 m 10971 9450 l 10851 9390 l 10851 9510 l  cp gs col4 1.00 shd ef gr  col4 s
% Polyline
30.000 slw
gs  clippath
11175 7149 m 11175 7005 l 11055 7005 l 11055 7149 l 11055 7149 l 11115 7029 l 11175 7149 l cp
eoclip
n 11115 9315 m
 11115 7020 l gs col4 s gr gr

% arrowhead
7.500 slw
n 11175 7149 m 11115 7029 l 11055 7149 l 11175 7149 l  cp gs col4 1.00 shd ef gr  col4 s
% Polyline
30.000 slw
gs  clippath
8727 6981 m 8627 6877 l 8541 6960 l 8640 7064 l 8640 7064 l 8601 6936 l 8727 6981 l cp
eoclip
n 9630 8010 m
 8595 6930 l gs col4 s gr gr

% arrowhead
7.500 slw
n 8727 6981 m 8601 6936 l 8640 7064 l 8727 6981 l  cp gs col4 1.00 shd ef gr  col4 s
% Polyline
30.000 slw
gs  clippath
8400 9141 m 8400 9285 l 8520 9285 l 8520 9141 l 8520 9141 l 8460 9261 l 8400 9141 l cp
eoclip
n 8460 7065 m
 8460 9270 l gs col12 s gr gr

% arrowhead
7.500 slw
n 8400 9141 m 8460 9261 l 8520 9141 l 8400 9141 l  cp gs col12 1.00 shd ef gr  col12 s
% Polyline
30.000 slw
gs  clippath
10886 7198 m 10988 7096 l 10903 7011 l 10801 7113 l 10801 7113 l 10929 7071 l 10886 7198 l cp
eoclip
n 9945 8055 m
 10935 7065 l gs col12 s gr gr

% arrowhead
7.500 slw
n 10886 7198 m 10929 7071 l 10801 7113 l 10886 7198 l  cp gs col12 1.00 shd ef gr  col12 s
% Ellipse
n 4140 6795 101 101 0 360 DrawEllipse gs col0 s gr

% Ellipse
n 6750 6840 101 101 0 360 DrawEllipse gs col0 s gr

% Ellipse
n 4140 9450 101 101 0 360 DrawEllipse gs col0 s gr

% Ellipse
n 5445 8145 64 64 0 360 DrawEllipse gs col0 s gr

% Ellipse
n 5445 8145 127 127 0 360 DrawEllipse gs col0 s gr

% Polyline
30.000 slw
gs  clippath
6531 9510 m 6675 9510 l 6675 9390 l 6531 9390 l 6531 9390 l 6651 9450 l 6531 9510 l cp
eoclip
n 4320 9450 m
 6660 9450 l gs col4 s gr gr

% arrowhead
7.500 slw
n 6531 9510 m 6651 9450 l 6531 9390 l 6531 9510 l  cp gs col4 1.00 shd ef gr  col4 s
% Polyline
30.000 slw
gs  clippath
6855 7149 m 6855 7005 l 6735 7005 l 6735 7149 l 6735 7149 l 6795 7029 l 6855 7149 l cp
eoclip
n 6795 9315 m
 6795 7020 l gs col4 s gr gr

% arrowhead
7.500 slw
n 6855 7149 m 6795 7029 l 6735 7149 l 6855 7149 l  cp gs col4 1.00 shd ef gr  col4 s
% Polyline
30.000 slw
gs  clippath
5605 7808 m 5503 7910 l 5588 7995 l 5690 7893 l 5690 7893 l 5563 7936 l 5605 7808 l cp
eoclip
n 6547 6952 m
 5557 7942 l gs col12 s gr gr

% arrowhead
7.500 slw
n 5605 7808 m 5563 7936 l 5690 7893 l 5605 7808 l  cp gs col12 1.00 shd ef gr  col12 s
% Polyline
30.000 slw
gs  clippath
4407 6981 m 4307 6877 l 4221 6960 l 4320 7064 l 4320 7064 l 4281 6936 l 4407 6981 l cp
eoclip
n 5310 8010 m
 4275 6930 l gs col12 s gr gr

% arrowhead
7.500 slw
n 4407 6981 m 4281 6936 l 4320 7064 l 4407 6981 l  cp gs col12 1.00 shd ef gr  col12 s
% Polyline
30.000 slw
gs  clippath
4080 9141 m 4080 9285 l 4200 9285 l 4200 9141 l 4200 9141 l 4140 9261 l 4080 9141 l cp
eoclip
n 4140 7020 m
 4140 9270 l gs col12 s gr gr

% arrowhead
7.500 slw
n 4080 9141 m 4140 9261 l 4200 9141 l 4080 9141 l  cp gs col12 1.00 shd ef gr  col12 s
% Polyline
45.000 slw
gs  clippath
6600 7195 m 6728 7065 l 6620 6960 l 6493 7090 l 6493 7090 l 6652 7036 l 6600 7195 l cp
eoclip
n 4369 9364 m
 6664 7024 l gs col12 s gr gr

% arrowhead
15.000 slw
n 6600 7195 m 6652 7036 l 6493 7090 l 6600 7195 l  cp gs col12 1.00 shd ef gr  col12 s
% Ellipse
7.500 slw
n 6795 9450 101 101 0 360 DrawEllipse gs 0.00 setgray ef gr gs col0 s gr

% Polyline
30.000 slw
gs  clippath
6810 2964 m 6810 2820 l 6690 2820 l 6690 2964 l 6690 2964 l 6750 2844 l 6810 2964 l cp
eoclip
n 6750 5130 m
 6750 2835 l gs col10 s gr gr

% arrowhead
7.500 slw
n 6810 2964 m 6750 2844 l 6690 2964 l 6810 2964 l  cp gs col10 1.00 shd ef gr  col10 s
% Polyline
60.000 slw
n 3375 5535 m
 11835 5535 l gs col0 s gr 
% Polyline
n 7515 1845 m
 7515 9720 l gs col0 s gr 
/Times-Roman-iso ff 238.13 scf sf
5085 4275 m
gs 1 -1 sc (Depot) col0 sh gr
/Times-Roman-iso ff 285.75 scf sf
3465 2250 m
gs 1 -1 sc (OPTIMAL TOUR) col0 sh gr
/Times-Roman-iso ff 285.75 scf sf
7740 2250 m
gs 1 -1 sc (DEPOT DISTANCE) col0 sh gr
/Times-Roman-iso ff 285.75 scf sf
3465 6120 m
gs 1 -1 sc (SHORTCUT DISTANCE) col0 sh gr
/Times-Roman-iso ff 285.75 scf sf
7740 6120 m
gs 1 -1 sc (RE-ROUTED MARGIN) col0 sh gr
/Times-Roman-iso ff 285.75 scf sf
7740 6480 m
gs 1 -1 sc (\(Example of Christofides Margin\)) col0 sh gr
/Times-Roman-iso ff 238.13 scf sf
5625 5085 m
gs 1 -1 sc (Customer) col0 sh gr
% here ends figure;
pagefooter
showpage
%%Trailer
%EOF
