%!PS-Adobe-3.0 EPSF-3.0
%%Title: tmstnonmonotonic2.fig
%%Creator: fig2dev Version 3.2 Patchlevel 5d
%%CreationDate: Sun Oct 20 16:31:02 2013
%%BoundingBox: 0 0 571 278
%Magnification: 1.0000
%%EndComments
%%BeginProlog
/$F2psDict 200 dict def
$F2psDict begin
$F2psDict /mtrx matrix put
/col-1 {0 setgray} bind def
/col0 {0.000 0.000 0.000 srgb} bind def
/col1 {0.000 0.000 1.000 srgb} bind def
/col2 {0.000 1.000 0.000 srgb} bind def
/col3 {0.000 1.000 1.000 srgb} bind def
/col4 {1.000 0.000 0.000 srgb} bind def
/col5 {1.000 0.000 1.000 srgb} bind def
/col6 {1.000 1.000 0.000 srgb} bind def
/col7 {1.000 1.000 1.000 srgb} bind def
/col8 {0.000 0.000 0.560 srgb} bind def
/col9 {0.000 0.000 0.690 srgb} bind def
/col10 {0.000 0.000 0.820 srgb} bind def
/col11 {0.530 0.810 1.000 srgb} bind def
/col12 {0.000 0.560 0.000 srgb} bind def
/col13 {0.000 0.690 0.000 srgb} bind def
/col14 {0.000 0.820 0.000 srgb} bind def
/col15 {0.000 0.560 0.560 srgb} bind def
/col16 {0.000 0.690 0.690 srgb} bind def
/col17 {0.000 0.820 0.820 srgb} bind def
/col18 {0.560 0.000 0.000 srgb} bind def
/col19 {0.690 0.000 0.000 srgb} bind def
/col20 {0.820 0.000 0.000 srgb} bind def
/col21 {0.560 0.000 0.560 srgb} bind def
/col22 {0.690 0.000 0.690 srgb} bind def
/col23 {0.820 0.000 0.820 srgb} bind def
/col24 {0.500 0.190 0.000 srgb} bind def
/col25 {0.630 0.250 0.000 srgb} bind def
/col26 {0.750 0.380 0.000 srgb} bind def
/col27 {1.000 0.500 0.500 srgb} bind def
/col28 {1.000 0.630 0.630 srgb} bind def
/col29 {1.000 0.750 0.750 srgb} bind def
/col30 {1.000 0.880 0.880 srgb} bind def
/col31 {1.000 0.840 0.000 srgb} bind def

end

/cp {closepath} bind def
/ef {eofill} bind def
/gr {grestore} bind def
/gs {gsave} bind def
/sa {save} bind def
/rs {restore} bind def
/l {lineto} bind def
/m {moveto} bind def
/rm {rmoveto} bind def
/n {newpath} bind def
/s {stroke} bind def
/sh {show} bind def
/slc {setlinecap} bind def
/slj {setlinejoin} bind def
/slw {setlinewidth} bind def
/srgb {setrgbcolor} bind def
/rot {rotate} bind def
/sc {scale} bind def
/sd {setdash} bind def
/ff {findfont} bind def
/sf {setfont} bind def
/scf {scalefont} bind def
/sw {stringwidth} bind def
/tr {translate} bind def
/tnt {dup dup currentrgbcolor
  4 -2 roll dup 1 exch sub 3 -1 roll mul add
  4 -2 roll dup 1 exch sub 3 -1 roll mul add
  4 -2 roll dup 1 exch sub 3 -1 roll mul add srgb}
  bind def
/shd {dup dup currentrgbcolor 4 -2 roll mul 4 -2 roll mul
  4 -2 roll mul srgb} bind def
 /DrawEllipse {
	/endangle exch def
	/startangle exch def
	/yrad exch def
	/xrad exch def
	/y exch def
	/x exch def
	/savematrix mtrx currentmatrix def
	x y tr xrad yrad sc 0 0 1 startangle endangle arc
	closepath
	savematrix setmatrix
	} def

/$F2psBegin {$F2psDict begin /$F2psEnteredState save def} def
/$F2psEnd {$F2psEnteredState restore end} def

/pageheader {
save
newpath 0 278 moveto 0 0 lineto 571 0 lineto 571 278 lineto closepath clip newpath
-55.7 258.7 translate
1 -1 scale
$F2psBegin
10 setmiterlimit
0 slj 0 slc
 0.06299 0.06299 sc
} bind def
/pagefooter {
$F2psEnd
restore
} bind def
%%EndProlog
pageheader
%
% Fig objects follow
%
% 
% here starts figure with depth 50
% Ellipse
7.500 slw
n 2475 2520 101 101 0 360 DrawEllipse gs col0 s gr

% Ellipse
n 3150 3150 101 101 0 360 DrawEllipse gs col0 s gr

% Ellipse
n 2475 3825 101 101 0 360 DrawEllipse gs col0 s gr

% Ellipse
n 1800 3150 101 101 0 360 DrawEllipse gs col0 s gr

% Ellipse
n 1125 2475 101 101 0 360 DrawEllipse gs col0 s gr

% Ellipse
n 5625 2520 101 101 0 360 DrawEllipse gs col0 s gr

% Ellipse
n 6300 3150 101 101 0 360 DrawEllipse gs col0 s gr

% Ellipse
n 5625 3825 101 101 0 360 DrawEllipse gs col0 s gr

% Ellipse
n 4950 3150 101 101 0 360 DrawEllipse gs col0 s gr

% Ellipse
n 4275 2475 101 101 0 360 DrawEllipse gs col0 s gr

% Ellipse
n 2475 270 101 101 0 360 DrawEllipse gs col0 s gr

% Ellipse
n 3150 900 101 101 0 360 DrawEllipse gs col0 s gr

% Ellipse
n 2475 1575 101 101 0 360 DrawEllipse gs col0 s gr

% Ellipse
n 1800 900 101 101 0 360 DrawEllipse gs col0 s gr

% Ellipse
n 1125 225 101 101 0 360 DrawEllipse gs col0 s gr

% Ellipse
n 5625 270 101 101 0 360 DrawEllipse gs col0 s gr

% Ellipse
n 6300 900 101 101 0 360 DrawEllipse gs col0 s gr

% Ellipse
n 5625 1575 101 101 0 360 DrawEllipse gs col0 s gr

% Ellipse
n 4950 900 101 101 0 360 DrawEllipse gs col0 s gr

% Ellipse
n 4275 225 101 101 0 360 DrawEllipse gs col0 s gr

% Ellipse
n 8775 270 101 101 0 360 DrawEllipse gs col0 s gr

% Ellipse
n 9450 900 101 101 0 360 DrawEllipse gs col0 s gr

% Ellipse
n 8775 1575 101 101 0 360 DrawEllipse gs col0 s gr

% Ellipse
n 8100 900 101 101 0 360 DrawEllipse gs col0 s gr

% Ellipse
n 7425 225 101 101 0 360 DrawEllipse gs col0 s gr

% Ellipse
n 8775 2520 101 101 0 360 DrawEllipse gs col0 s gr

% Ellipse
n 9450 3150 101 101 0 360 DrawEllipse gs col0 s gr

% Ellipse
n 8775 3825 101 101 0 360 DrawEllipse gs col0 s gr

% Ellipse
n 8100 3150 101 101 0 360 DrawEllipse gs col0 s gr

% Ellipse
n 7425 2475 101 101 0 360 DrawEllipse gs col0 s gr

% Ellipse
n 8415 585 90 90 0 360 DrawEllipse gs col0 s gr

% Ellipse
n 8415 585 127 127 0 360 DrawEllipse gs col0 s gr

% Ellipse
n 8415 3510 90 90 0 360 DrawEllipse gs col0 s gr

% Ellipse
n 8415 3510 127 127 0 360 DrawEllipse gs col0 s gr

% Polyline
0 slj
0 slc
n 1800 3150 m 2475 3825 l 3150 3150 l 2475 2475 l
 1125 2475 l gs col0 s gr 
% Polyline
n 1125 2475 m
 1800 3150 l gs col0 s gr 
% Polyline
n 1125 225 m 1800 900 l 2475 1575 l 3150 900 l
 2475 225 l gs col0 s gr 
% Polyline
n 4275 225 m 4950 900 l 5625 225 l 6300 900 l
 5625 1575 l gs col0 s gr 
% Polyline
n 8775 1575 m 9450 900 l 8775 225 l 8100 900 l
 7425 225 l gs col0 s gr 
% Polyline
n 7425 2475 m 8775 3825 l 9450 3150 l
 8775 2475 l gs col0 s gr 
% Polyline
gs  clippath
8430 4022 m 8539 4126 l 8581 4083 l 8472 3978 l 8472 3978 l 8538 4084 l 8430 4022 l cp
eoclip
n 7110 2700 m
 8550 4095 l gs col0 s gr gr

% arrowhead
n 8430 4022 m 8538 4084 l 8472 3978 l 8430 4022 l  cp gs 0.00 setgray ef gr  col0 s
% Polyline
gs  clippath
9645 3402 m 9751 3295 l 9709 3253 l 9602 3359 l 9602 3359 l 9709 3296 l 9645 3402 l cp
eoclip
n 8955 4050 m
 9720 3285 l gs col0 s gr gr

% arrowhead
n 9645 3402 m 9709 3296 l 9602 3359 l 9645 3402 l  cp gs 0.00 setgray ef gr  col0 s
% Polyline
gs  clippath
9119 2456 m 9009 2352 l 8968 2396 l 9078 2500 l 9078 2500 l 9012 2396 l 9119 2456 l cp
eoclip
n 9810 3150 m
 9000 2385 l gs col0 s gr gr

% arrowhead
n 9119 2456 m 9012 2396 l 9078 2500 l 9119 2456 l  cp gs 0.00 setgray ef gr  col0 s
% Polyline
gs  clippath
7786 2310 m 7635 2310 l 7635 2370 l 7786 2370 l 7786 2370 l 7666 2340 l 7786 2310 l cp
eoclip
n 8640 2340 m
 7650 2340 l gs col0 s gr gr

% arrowhead
n 7786 2310 m 7666 2340 l 7786 2370 l 7786 2310 l  cp gs 0.00 setgray ef gr  col0 s
% Polyline
gs  clippath
7754 919 m 7865 1022 l 7906 978 l 7795 875 l 7795 875 l 7863 979 l 7754 919 l cp
eoclip
n 7200 360 m
 7875 990 l gs col0 s gr gr

% arrowhead
n 7754 919 m 7863 979 l 7795 875 l 7754 919 l  cp gs 0.00 setgray ef gr  col0 s
% Polyline
gs  clippath
8790 657 m 8896 550 l 8854 508 l 8747 614 l 8747 614 l 8854 551 l 8790 657 l cp
eoclip
n 8280 1125 m
 8865 540 l gs col0 s gr gr

% arrowhead
n 8790 657 m 8854 551 l 8747 614 l 8790 657 l  cp gs 0.00 setgray ef gr  col0 s
% Polyline
gs  clippath
9017 825 m 9124 931 l 9166 889 l 9060 782 l 9060 782 l 9124 889 l 9017 825 l cp
eoclip
n 8910 675 m
 9135 900 l gs col0 s gr gr

% arrowhead
n 9017 825 m 9124 889 l 9060 782 l 9017 825 l  cp gs 0.00 setgray ef gr  col0 s
% Polyline
gs  clippath
8804 1277 m 8698 1384 l 8740 1426 l 8847 1320 l 8847 1320 l 8741 1384 l 8804 1277 l cp
eoclip
n 9135 990 m
 8730 1395 l gs col0 s gr gr

% arrowhead
n 8804 1277 m 8741 1384 l 8847 1320 l 8804 1277 l  cp gs 0.00 setgray ef gr  col0 s
% Polyline
gs  clippath
7230 519 m 7119 417 l 7078 462 l 7190 564 l 7190 564 l 7122 461 l 7230 519 l cp
eoclip
n 8640 1845 m
 7110 450 l gs col0 s gr gr

% arrowhead
n 7230 519 m 7122 461 l 7190 564 l 7230 519 l  cp gs 0.00 setgray ef gr  col0 s
% Polyline
n 4275 2475 m 5625 3825 l 6300 3150 l 5625 2475 l
 4950 3150 l gs col0 s gr 
% Polyline
gs  clippath
2132 3750 m 2239 3856 l 2281 3814 l 2175 3707 l 2175 3707 l 2239 3814 l 2132 3750 l cp
eoclip
n 1125 2700 m
 2250 3825 l gs col0 s gr gr

% arrowhead
n 2132 3750 m 2239 3814 l 2175 3707 l 2132 3750 l  cp gs 0.00 setgray ef gr  col0 s
% Polyline
gs  clippath
3075 3492 m 3181 3385 l 3139 3343 l 3032 3449 l 3032 3449 l 3139 3386 l 3075 3492 l cp
eoclip
n 2700 3825 m
 3150 3375 l gs col0 s gr gr

% arrowhead
n 3075 3492 m 3139 3386 l 3032 3449 l 3075 3492 l  cp gs 0.00 setgray ef gr  col0 s
% Polyline
gs  clippath
2817 2549 m 2710 2443 l 2668 2485 l 2774 2592 l 2774 2592 l 2711 2486 l 2817 2549 l cp
eoclip
n 3375 3150 m
 2700 2475 l gs col0 s gr gr

% arrowhead
n 2817 2549 m 2711 2486 l 2774 2592 l 2817 2549 l  cp gs 0.00 setgray ef gr  col0 s
% Polyline
gs  clippath
1261 2220 m 1110 2220 l 1110 2280 l 1261 2280 l 1261 2280 l 1141 2250 l 1261 2220 l cp
eoclip
n 2475 2250 m
 1125 2250 l gs col0 s gr gr

% arrowhead
n 1261 2220 m 1141 2250 l 1261 2280 l 1261 2220 l  cp gs 0.00 setgray ef gr  col0 s
% Polyline
gs  clippath
5325 2592 m 5431 2485 l 5389 2443 l 5282 2549 l 5282 2549 l 5389 2486 l 5325 2592 l cp
eoclip
n 5175 2700 m
 5400 2475 l gs col0 s gr gr

% arrowhead
n 5325 2592 m 5389 2486 l 5282 2549 l 5325 2592 l  cp gs 0.00 setgray ef gr  col0 s
% Polyline
gs  clippath
6182 2850 m 6289 2956 l 6331 2914 l 6225 2807 l 6225 2807 l 6289 2914 l 6182 2850 l cp
eoclip
n 5850 2475 m
 6300 2925 l gs col0 s gr gr

% arrowhead
n 6182 2850 m 6289 2914 l 6225 2807 l 6182 2850 l  cp gs 0.00 setgray ef gr  col0 s
% Polyline
gs  clippath
5924 3932 m 5818 4039 l 5860 4081 l 5967 3975 l 5967 3975 l 5861 4039 l 5924 3932 l cp
eoclip
n 6525 3375 m
 5850 4050 l gs col0 s gr gr

% arrowhead
n 5924 3932 m 5861 4039 l 5967 3975 l 5924 3932 l  cp gs 0.00 setgray ef gr  col0 s
% Polyline
gs  clippath
4167 2774 m 4060 2668 l 4018 2710 l 4124 2817 l 4124 2817 l 4061 2711 l 4167 2774 l cp
eoclip
n 5400 4050 m
 4050 2700 l gs col0 s gr gr

% arrowhead
n 4167 2774 m 4061 2711 l 4124 2817 l 4167 2774 l  cp gs 0.00 setgray ef gr  col0 s
% Polyline
gs  clippath
4832 2850 m 4939 2956 l 4981 2914 l 4875 2807 l 4875 2807 l 4939 2914 l 4832 2850 l cp
eoclip
n 4500 2475 m
 4950 2925 l gs col0 s gr gr

% arrowhead
n 4832 2850 m 4939 2914 l 4875 2807 l 4832 2850 l  cp gs 0.00 setgray ef gr  col0 s
/Times-Roman ff 190.50 scf sf
900 -135 m
gs 1 -1 sc (An MST for  5 points) col0 sh gr
/Times-Roman ff 190.50 scf sf
4095 -135 m
gs 1 -1 sc (Different MST for the same 5 points) col0 sh gr
/Times-Roman ff 190.50 scf sf
900 2160 m
gs 1 -1 sc (TMST tour from above tree) col0 sh gr
/Times-Roman ff 190.50 scf sf
4095 2160 m
gs 1 -1 sc (Longer TMST from above tree) col0 sh gr
/Times-Roman ff 190.50 scf sf
7335 -135 m
gs 1 -1 sc (New point forces longer TMST) col0 sh gr
/Times-Roman ff 190.50 scf sf
7335 2160 m
gs 1 -1 sc (New point forces shorter TMST) col0 sh gr
% here ends figure;
pagefooter
showpage
%%Trailer
%EOF
